[
    {
        "resnum": 32, 
        "region_name": "TM", 
        "pymol": "/2RH1_Dichloroisoproterenol_edited_oriented//A/TRP`32/", 
        "ballesteros": "1.32", 
        "centrality_score": 0.18958333333333333, 
        "resname": "Trp"
    }, 
    {
        "resnum": 33, 
        "region_name": "TM", 
        "pymol": "/2RH1_Dichloroisoproterenol_edited_oriented//A/VAL`33/", 
        "ballesteros": "1.33", 
        "centrality_score": 0.17377466581795034, 
        "resname": "Val"
    }, 
    {
        "resnum": 34, 
        "region_name": "TM", 
        "pymol": "/2RH1_Dichloroisoproterenol_edited_oriented//A/VAL`34/", 
        "ballesteros": "1.34", 
        "centrality_score": 0.17289423685877137, 
        "resname": "Val"
    }, 
    {
        "resnum": 35, 
        "region_name": "TM", 
        "pymol": "/2RH1_Dichloroisoproterenol_edited_oriented//A/GLY`35/", 
        "ballesteros": "1.35", 
        "centrality_score": 0.17796610169491525, 
        "resname": "Gly"
    }, 
    {
        "resnum": 36, 
        "region_name": "TM", 
        "pymol": "/2RH1_Dichloroisoproterenol_edited_oriented//A/MET`36/", 
        "ballesteros": "1.36", 
        "centrality_score": 0.19682768565248737, 
        "resname": "Met"
    }, 
    {
        "resnum": 37, 
        "region_name": "TM", 
        "pymol": "/2RH1_Dichloroisoproterenol_edited_oriented//A/GLY`37/", 
        "ballesteros": "1.37", 
        "centrality_score": 0.18647540983606559, 
        "resname": "Gly"
    }, 
    {
        "resnum": 38, 
        "region_name": "TM", 
        "pymol": "/2RH1_Dichloroisoproterenol_edited_oriented//A/ILE`38/", 
        "ballesteros": "1.38", 
        "centrality_score": 0.18558803535010196, 
        "resname": "Ile"
    }, 
    {
        "resnum": 39, 
        "region_name": "TM", 
        "pymol": "/2RH1_Dichloroisoproterenol_edited_oriented//A/VAL`39/", 
        "ballesteros": "1.39", 
        "centrality_score": 0.20760456273764258, 
        "resname": "Val"
    }, 
    {
        "resnum": 40, 
        "region_name": "TM", 
        "pymol": "/2RH1_Dichloroisoproterenol_edited_oriented//A/MET`40/", 
        "ballesteros": "1.40", 
        "centrality_score": 0.22267536704730831, 
        "resname": "Met"
    }, 
    {
        "resnum": 41, 
        "region_name": "TM", 
        "pymol": "/2RH1_Dichloroisoproterenol_edited_oriented//A/SER`41/", 
        "ballesteros": "1.41", 
        "centrality_score": 0.20418848167539266, 
        "resname": "Ser"
    }, 
    {
        "resnum": 42, 
        "region_name": "TM", 
        "pymol": "/2RH1_Dichloroisoproterenol_edited_oriented//A/LEU`42/", 
        "ballesteros": "1.42", 
        "centrality_score": 0.21840000000000001, 
        "resname": "Leu"
    }, 
    {
        "resnum": 43, 
        "region_name": "TM", 
        "pymol": "/2RH1_Dichloroisoproterenol_edited_oriented//A/ILE`43/", 
        "ballesteros": "1.43", 
        "centrality_score": 0.25371747211895912, 
        "resname": "Ile"
    }, 
    {
        "resnum": 44, 
        "region_name": "TM", 
        "pymol": "/2RH1_Dichloroisoproterenol_edited_oriented//A/VAL`44/", 
        "ballesteros": "1.44", 
        "centrality_score": 0.23595505617977527, 
        "resname": "Val"
    }, 
    {
        "resnum": 45, 
        "region_name": "TM", 
        "pymol": "/2RH1_Dichloroisoproterenol_edited_oriented//A/LEU`45/", 
        "ballesteros": "1.45", 
        "centrality_score": 0.22469135802469137, 
        "resname": "Leu"
    }, 
    {
        "resnum": 46, 
        "region_name": "TM", 
        "pymol": "/2RH1_Dichloroisoproterenol_edited_oriented//A/ALA`46/", 
        "ballesteros": "1.46", 
        "centrality_score": 0.24245115452930729, 
        "resname": "Ala"
    }, 
    {
        "resnum": 47, 
        "region_name": "TM", 
        "pymol": "/2RH1_Dichloroisoproterenol_edited_oriented//A/ILE`47/", 
        "ballesteros": "1.47", 
        "centrality_score": 0.27575757575757576, 
        "resname": "Ile"
    }, 
    {
        "resnum": 48, 
        "region_name": "TM", 
        "pymol": "/2RH1_Dichloroisoproterenol_edited_oriented//A/VAL`48/", 
        "ballesteros": "1.48", 
        "centrality_score": 0.23884514435695539, 
        "resname": "Val"
    }, 
    {
        "resnum": 49, 
        "region_name": "TM", 
        "pymol": "/2RH1_Dichloroisoproterenol_edited_oriented//A/PHE`49/", 
        "ballesteros": "1.49", 
        "centrality_score": 0.21513002364066194, 
        "resname": "Phe"
    }, 
    {
        "resnum": 50, 
        "region_name": "TM", 
        "pymol": "/2RH1_Dichloroisoproterenol_edited_oriented//A/GLY`50/", 
        "ballesteros": "1.50", 
        "centrality_score": 0.23135593220338982, 
        "resname": "Gly"
    }, 
    {
        "resnum": 51, 
        "region_name": "TM", 
        "pymol": "/2RH1_Dichloroisoproterenol_edited_oriented//A/ASN`51/", 
        "ballesteros": "1.51", 
        "centrality_score": 0.26402321083172148, 
        "resname": "Asn"
    }, 
    {
        "resnum": 52, 
        "region_name": "TM", 
        "pymol": "/2RH1_Dichloroisoproterenol_edited_oriented//A/VAL`52/", 
        "ballesteros": "1.52", 
        "centrality_score": 0.23135593220338982, 
        "resname": "Val"
    }, 
    {
        "resnum": 53, 
        "region_name": "TM", 
        "pymol": "/2RH1_Dichloroisoproterenol_edited_oriented//A/LEU`53/", 
        "ballesteros": "1.53", 
        "centrality_score": 0.23194562446898895, 
        "resname": "Leu"
    }, 
    {
        "resnum": 54, 
        "region_name": "TM", 
        "pymol": "/2RH1_Dichloroisoproterenol_edited_oriented//A/VAL`54/", 
        "ballesteros": "1.54", 
        "centrality_score": 0.24931506849315069, 
        "resname": "Val"
    }, 
    {
        "resnum": 55, 
        "region_name": "TM", 
        "pymol": "/2RH1_Dichloroisoproterenol_edited_oriented//A/ILE`55/", 
        "ballesteros": "1.55", 
        "centrality_score": 0.24750679963735267, 
        "resname": "Ile"
    }, 
    {
        "resnum": 56, 
        "region_name": "TM", 
        "pymol": "/2RH1_Dichloroisoproterenol_edited_oriented//A/THR`56/", 
        "ballesteros": "1.56", 
        "centrality_score": 0.2088752869166029, 
        "resname": "Thr"
    }, 
    {
        "resnum": 57, 
        "region_name": "TM", 
        "pymol": "/2RH1_Dichloroisoproterenol_edited_oriented//A/ALA`57/", 
        "ballesteros": "1.57", 
        "centrality_score": 0.21752988047808766, 
        "resname": "Ala"
    }, 
    {
        "resnum": 58, 
        "region_name": "TM", 
        "pymol": "/2RH1_Dichloroisoproterenol_edited_oriented//A/ILE`58/", 
        "ballesteros": "1.58", 
        "centrality_score": 0.23214285714285715, 
        "resname": "Ile"
    }, 
    {
        "resnum": 59, 
        "region_name": "TM", 
        "pymol": "/2RH1_Dichloroisoproterenol_edited_oriented//A/ALA`59/", 
        "ballesteros": "1.59", 
        "centrality_score": 0.21529968454258674, 
        "resname": "Ala"
    }, 
    {
        "resnum": 60, 
        "region_name": "TM", 
        "pymol": "/2RH1_Dichloroisoproterenol_edited_oriented//A/LYS`60/", 
        "ballesteros": "1.60", 
        "centrality_score": 0.18866620594333103, 
        "resname": "Lys"
    }, 
    {
        "resnum": 61, 
        "region_name": "IL", 
        "pymol": "/2RH1_Dichloroisoproterenol_edited_oriented//A/PHE`61/", 
        "ballesteros": "", 
        "centrality_score": 0.19527896995708155, 
        "resname": "Phe"
    }, 
    {
        "resnum": 62, 
        "region_name": "IL", 
        "pymol": "/2RH1_Dichloroisoproterenol_edited_oriented//A/GLU`62/", 
        "ballesteros": "", 
        "centrality_score": 0.17578879587894397, 
        "resname": "Glu"
    }, 
    {
        "resnum": 63, 
        "region_name": "IL", 
        "pymol": "/2RH1_Dichloroisoproterenol_edited_oriented//A/ARG`63/", 
        "ballesteros": "", 
        "centrality_score": 0.18622100954979537, 
        "resname": "Arg"
    }, 
    {
        "resnum": 64, 
        "region_name": "IL", 
        "pymol": "/2RH1_Dichloroisoproterenol_edited_oriented//A/LEU`64/", 
        "ballesteros": "", 
        "centrality_score": 0.20117907148120856, 
        "resname": "Leu"
    }, 
    {
        "resnum": 65, 
        "region_name": "IL", 
        "pymol": "/2RH1_Dichloroisoproterenol_edited_oriented//A/GLN`65/", 
        "ballesteros": "", 
        "centrality_score": 0.20510894064613072, 
        "resname": "Gln"
    }, 
    {
        "resnum": 66, 
        "region_name": "IL", 
        "pymol": "/2RH1_Dichloroisoproterenol_edited_oriented//A/THR`66/", 
        "ballesteros": "", 
        "centrality_score": 0.2060377358490566, 
        "resname": "Thr"
    }, 
    {
        "resnum": 67, 
        "region_name": "TM", 
        "pymol": "/2RH1_Dichloroisoproterenol_edited_oriented//A/VAL`67/", 
        "ballesteros": "2.38", 
        "centrality_score": 0.22123176661264182, 
        "resname": "Val"
    }, 
    {
        "resnum": 68, 
        "region_name": "TM", 
        "pymol": "/2RH1_Dichloroisoproterenol_edited_oriented//A/THR`68/", 
        "ballesteros": "2.39", 
        "centrality_score": 0.23194562446898895, 
        "resname": "Thr"
    }, 
    {
        "resnum": 69, 
        "region_name": "TM", 
        "pymol": "/2RH1_Dichloroisoproterenol_edited_oriented//A/ASN`69/", 
        "ballesteros": "2.40", 
        "centrality_score": 0.228643216080402, 
        "resname": "Asn"
    }, 
    {
        "resnum": 70, 
        "region_name": "TM", 
        "pymol": "/2RH1_Dichloroisoproterenol_edited_oriented//A/TYR`70/", 
        "ballesteros": "2.41", 
        "centrality_score": 0.23214285714285715, 
        "resname": "Tyr"
    }, 
    {
        "resnum": 71, 
        "region_name": "TM", 
        "pymol": "/2RH1_Dichloroisoproterenol_edited_oriented//A/PHE`71/", 
        "ballesteros": "2.42", 
        "centrality_score": 0.25706214689265539, 
        "resname": "Phe"
    }, 
    {
        "resnum": 72, 
        "region_name": "TM", 
        "pymol": "/2RH1_Dichloroisoproterenol_edited_oriented//A/ILE`72/", 
        "ballesteros": "2.43", 
        "centrality_score": 0.26074498567335241, 
        "resname": "Ile"
    }, 
    {
        "resnum": 73, 
        "region_name": "TM", 
        "pymol": "/2RH1_Dichloroisoproterenol_edited_oriented//A/THR`73/", 
        "ballesteros": "2.44", 
        "centrality_score": 0.24638989169675091, 
        "resname": "Thr"
    }, 
    {
        "resnum": 74, 
        "region_name": "TM", 
        "pymol": "/2RH1_Dichloroisoproterenol_edited_oriented//A/SER`74/", 
        "ballesteros": "2.45", 
        "centrality_score": 0.26099426386233271, 
        "resname": "Ser"
    }, 
    {
        "resnum": 75, 
        "region_name": "TM", 
        "pymol": "/2RH1_Dichloroisoproterenol_edited_oriented//A/LEU`75/", 
        "ballesteros": "2.46", 
        "centrality_score": 0.28980891719745222, 
        "resname": "Leu"
    }, 
    {
        "resnum": 76, 
        "region_name": "TM", 
        "pymol": "/2RH1_Dichloroisoproterenol_edited_oriented//A/ALA`76/", 
        "ballesteros": "2.47", 
        "centrality_score": 0.25901328273244784, 
        "resname": "Ala"
    }, 
    {
        "resnum": 77, 
        "region_name": "TM", 
        "pymol": "/2RH1_Dichloroisoproterenol_edited_oriented//A/CYS`77/", 
        "ballesteros": "2.48", 
        "centrality_score": 0.26582278481012656, 
        "resname": "Cys"
    }, 
    {
        "resnum": 78, 
        "region_name": "TM", 
        "pymol": "/2RH1_Dichloroisoproterenol_edited_oriented//A/ALA`78/", 
        "ballesteros": "2.49", 
        "centrality_score": 0.27575757575757576, 
        "resname": "Ala"
    }, 
    {
        "resnum": 79, 
        "region_name": "TM", 
        "pymol": "/2RH1_Dichloroisoproterenol_edited_oriented//A/ASP`79/", 
        "ballesteros": "2.50", 
        "centrality_score": 0.28260869565217389, 
        "resname": "Asp"
    }, 
    {
        "resnum": 80, 
        "region_name": "TM", 
        "pymol": "/2RH1_Dichloroisoproterenol_edited_oriented//A/LEU`80/", 
        "ballesteros": "2.51", 
        "centrality_score": 0.26530612244897961, 
        "resname": "Leu"
    }, 
    {
        "resnum": 81, 
        "region_name": "TM", 
        "pymol": "/2RH1_Dichloroisoproterenol_edited_oriented//A/VAL`81/", 
        "ballesteros": "2.52", 
        "centrality_score": 0.27029702970297032, 
        "resname": "Val"
    }, 
    {
        "resnum": 82, 
        "region_name": "TM", 
        "pymol": "/2RH1_Dichloroisoproterenol_edited_oriented//A/MET`82/", 
        "ballesteros": "2.53", 
        "centrality_score": 0.28407908428720086, 
        "resname": "Met"
    }, 
    {
        "resnum": 83, 
        "region_name": "TM", 
        "pymol": "/2RH1_Dichloroisoproterenol_edited_oriented//A/GLY`83/", 
        "ballesteros": "2.54", 
        "centrality_score": 0.25852272727272729, 
        "resname": "Gly"
    }, 
    {
        "resnum": 84, 
        "region_name": "TM", 
        "pymol": "/2RH1_Dichloroisoproterenol_edited_oriented//A/LEU`84/", 
        "ballesteros": "2.55", 
        "centrality_score": 0.2490875912408759, 
        "resname": "Leu"
    }, 
    {
        "resnum": 85, 
        "region_name": "TM", 
        "pymol": "/2RH1_Dichloroisoproterenol_edited_oriented//A/ALA`85/", 
        "ballesteros": "2.56", 
        "centrality_score": 0.24931506849315069, 
        "resname": "Ala"
    }, 
    {
        "resnum": 86, 
        "region_name": "TM", 
        "pymol": "/2RH1_Dichloroisoproterenol_edited_oriented//A/VAL`86/", 
        "ballesteros": "2.57", 
        "centrality_score": 0.25975261655566129, 
        "resname": "Val"
    }, 
    {
        "resnum": 87, 
        "region_name": "TM", 
        "pymol": "/2RH1_Dichloroisoproterenol_edited_oriented//A/VAL`87/", 
        "ballesteros": "2.58", 
        "centrality_score": 0.25657894736842107, 
        "resname": "Val"
    }, 
    {
        "resnum": 88, 
        "region_name": "TM", 
        "pymol": "/2RH1_Dichloroisoproterenol_edited_oriented//A/PRO`88/", 
        "ballesteros": "2.59", 
        "centrality_score": 0.23514211886304909, 
        "resname": "Pro"
    }, 
    {
        "resnum": 89, 
        "region_name": "TM", 
        "pymol": "/2RH1_Dichloroisoproterenol_edited_oriented//A/PHE`89/", 
        "ballesteros": "2.60", 
        "centrality_score": 0.2413793103448276, 
        "resname": "Phe"
    }, 
    {
        "resnum": 90, 
        "region_name": "TM", 
        "pymol": "/2RH1_Dichloroisoproterenol_edited_oriented//A/GLY`90/", 
        "ballesteros": "2.61", 
        "centrality_score": 0.24616771866546439, 
        "resname": "Gly"
    }, 
    {
        "resnum": 91, 
        "region_name": "TM", 
        "pymol": "/2RH1_Dichloroisoproterenol_edited_oriented//A/ALA`91/", 
        "ballesteros": "2.62", 
        "centrality_score": 0.22674418604651161, 
        "resname": "Ala"
    }, 
    {
        "resnum": 92, 
        "region_name": "TM", 
        "pymol": "/2RH1_Dichloroisoproterenol_edited_oriented//A/ALA`92/", 
        "ballesteros": "2.63", 
        "centrality_score": 0.21546961325966851, 
        "resname": "Ala"
    }, 
    {
        "resnum": 93, 
        "region_name": "TM", 
        "pymol": "/2RH1_Dichloroisoproterenol_edited_oriented//A/HIS`93/", 
        "ballesteros": "2.64", 
        "centrality_score": 0.23037974683544304, 
        "resname": "His"
    }, 
    {
        "resnum": 94, 
        "region_name": "TM", 
        "pymol": "/2RH1_Dichloroisoproterenol_edited_oriented//A/ILE`94/", 
        "ballesteros": "2.65", 
        "centrality_score": 0.23018549747048903, 
        "resname": "Ile"
    }, 
    {
        "resnum": 95, 
        "region_name": "TM", 
        "pymol": "/2RH1_Dichloroisoproterenol_edited_oriented//A/LEU`95/", 
        "ballesteros": "2.66", 
        "centrality_score": 0.19956140350877194, 
        "resname": "Leu"
    }, 
    {
        "resnum": 96, 
        "region_name": "TM", 
        "pymol": "/2RH1_Dichloroisoproterenol_edited_oriented//A/MET`96/", 
        "ballesteros": "2.67", 
        "centrality_score": 0.18421052631578946, 
        "resname": "Met"
    }, 
    {
        "resnum": 97, 
        "region_name": "EL", 
        "pymol": "/2RH1_Dichloroisoproterenol_edited_oriented//A/LYS`97/", 
        "ballesteros": "", 
        "centrality_score": 0.19768283852280955, 
        "resname": "Lys"
    }, 
    {
        "resnum": 98, 
        "region_name": "EL", 
        "pymol": "/2RH1_Dichloroisoproterenol_edited_oriented//A/MET`98/", 
        "ballesteros": "", 
        "centrality_score": 0.19090909090909092, 
        "resname": "Met"
    }, 
    {
        "resnum": 99, 
        "region_name": "EL", 
        "pymol": "/2RH1_Dichloroisoproterenol_edited_oriented//A/TRP`99/", 
        "ballesteros": "", 
        "centrality_score": 0.22618061309030654, 
        "resname": "Trp"
    }, 
    {
        "resnum": 100, 
        "region_name": "EL", 
        "pymol": "/2RH1_Dichloroisoproterenol_edited_oriented//A/THR`100/", 
        "ballesteros": "", 
        "centrality_score": 0.18866620594333103, 
        "resname": "Thr"
    }, 
    {
        "resnum": 101, 
        "region_name": "EL", 
        "pymol": "/2RH1_Dichloroisoproterenol_edited_oriented//A/PHE`101/", 
        "ballesteros": "", 
        "centrality_score": 0.20666161998485996, 
        "resname": "Phe"
    }, 
    {
        "resnum": 102, 
        "region_name": "TM", 
        "pymol": "/2RH1_Dichloroisoproterenol_edited_oriented//A/GLY`102/", 
        "ballesteros": "3.21", 
        "centrality_score": 0.19854545454545455, 
        "resname": "Gly"
    }, 
    {
        "resnum": 103, 
        "region_name": "TM", 
        "pymol": "/2RH1_Dichloroisoproterenol_edited_oriented//A/ASN`103/", 
        "ballesteros": "3.22", 
        "centrality_score": 0.19513938527519656, 
        "resname": "Asn"
    }, 
    {
        "resnum": 104, 
        "region_name": "TM", 
        "pymol": "/2RH1_Dichloroisoproterenol_edited_oriented//A/PHE`104/", 
        "ballesteros": "3.23", 
        "centrality_score": 0.19811320754716982, 
        "resname": "Phe"
    }, 
    {
        "resnum": 105, 
        "region_name": "TM", 
        "pymol": "/2RH1_Dichloroisoproterenol_edited_oriented//A/TRP`105/", 
        "ballesteros": "3.24", 
        "centrality_score": 0.23413379073756432, 
        "resname": "Trp"
    }, 
    {
        "resnum": 106, 
        "region_name": "TM", 
        "pymol": "/2RH1_Dichloroisoproterenol_edited_oriented//A/CYS`106/", 
        "ballesteros": "3.25", 
        "centrality_score": 0.22285714285714286, 
        "resname": "Cys"
    }, 
    {
        "resnum": 107, 
        "region_name": "TM", 
        "pymol": "/2RH1_Dichloroisoproterenol_edited_oriented//A/GLU`107/", 
        "ballesteros": "3.26", 
        "centrality_score": 0.21683876092136617, 
        "resname": "Glu"
    }, 
    {
        "resnum": 108, 
        "region_name": "TM", 
        "pymol": "/2RH1_Dichloroisoproterenol_edited_oriented//A/PHE`108/", 
        "ballesteros": "3.27", 
        "centrality_score": 0.23018549747048903, 
        "resname": "Phe"
    }, 
    {
        "resnum": 109, 
        "region_name": "TM", 
        "pymol": "/2RH1_Dichloroisoproterenol_edited_oriented//A/TRP`109/", 
        "ballesteros": "3.28", 
        "centrality_score": 0.26738491674828602, 
        "resname": "Trp"
    }, 
    {
        "resnum": 110, 
        "region_name": "TM", 
        "pymol": "/2RH1_Dichloroisoproterenol_edited_oriented//A/THR`110/", 
        "ballesteros": "3.29", 
        "centrality_score": 0.24977127172918573, 
        "resname": "Thr"
    }, 
    {
        "resnum": 111, 
        "region_name": "TM", 
        "pymol": "/2RH1_Dichloroisoproterenol_edited_oriented//A/SER`111/", 
        "ballesteros": "3.30", 
        "centrality_score": 0.23968393327480245, 
        "resname": "Ser"
    }, 
    {
        "resnum": 112, 
        "region_name": "TM", 
        "pymol": "/2RH1_Dichloroisoproterenol_edited_oriented//A/ILE`112/", 
        "ballesteros": "3.31", 
        "centrality_score": 0.25706214689265539, 
        "resname": "Ile"
    }, 
    {
        "resnum": 113, 
        "region_name": "TM", 
        "pymol": "/2RH1_Dichloroisoproterenol_edited_oriented//A/ASP`113/", 
        "ballesteros": "3.32", 
        "centrality_score": 0.27885597548518898, 
        "resname": "Asp"
    }, 
    {
        "resnum": 114, 
        "region_name": "TM", 
        "pymol": "/2RH1_Dichloroisoproterenol_edited_oriented//A/VAL`114/", 
        "ballesteros": "3.33", 
        "centrality_score": 0.27354709418837675, 
        "resname": "Val"
    }, 
    {
        "resnum": 115, 
        "region_name": "TM", 
        "pymol": "/2RH1_Dichloroisoproterenol_edited_oriented//A/LEU`115/", 
        "ballesteros": "3.34", 
        "centrality_score": 0.26427879961277834, 
        "resname": "Leu"
    }, 
    {
        "resnum": 116, 
        "region_name": "TM", 
        "pymol": "/2RH1_Dichloroisoproterenol_edited_oriented//A/CYS`116/", 
        "ballesteros": "3.35", 
        "centrality_score": 0.27971311475409838, 
        "resname": "Cys"
    }, 
    {
        "resnum": 117, 
        "region_name": "TM", 
        "pymol": "/2RH1_Dichloroisoproterenol_edited_oriented//A/VAL`117/", 
        "ballesteros": "3.36", 
        "centrality_score": 0.29481641468682507, 
        "resname": "Val"
    }, 
    {
        "resnum": 118, 
        "region_name": "TM", 
        "pymol": "/2RH1_Dichloroisoproterenol_edited_oriented//A/THR`118/", 
        "ballesteros": "3.37", 
        "centrality_score": 0.27828746177370028, 
        "resname": "Thr"
    }, 
    {
        "resnum": 119, 
        "region_name": "TM", 
        "pymol": "/2RH1_Dichloroisoproterenol_edited_oriented//A/ALA`119/", 
        "ballesteros": "3.38", 
        "centrality_score": 0.26923076923076922, 
        "resname": "Ala"
    }, 
    {
        "resnum": 120, 
        "region_name": "TM", 
        "pymol": "/2RH1_Dichloroisoproterenol_edited_oriented//A/SER`120/", 
        "ballesteros": "3.39", 
        "centrality_score": 0.29673913043478262, 
        "resname": "Ser"
    }, 
    {
        "resnum": 121, 
        "region_name": "TM", 
        "pymol": "/2RH1_Dichloroisoproterenol_edited_oriented//A/ILE`121/", 
        "ballesteros": "3.40", 
        "centrality_score": 0.27687626774847868, 
        "resname": "Ile"
    }, 
    {
        "resnum": 122, 
        "region_name": "TM", 
        "pymol": "/2RH1_Dichloroisoproterenol_edited_oriented//A/GLU`122/", 
        "ballesteros": "3.41", 
        "centrality_score": 0.27164179104477609, 
        "resname": "Glu"
    }, 
    {
        "resnum": 123, 
        "region_name": "TM", 
        "pymol": "/2RH1_Dichloroisoproterenol_edited_oriented//A/THR`123/", 
        "ballesteros": "3.42", 
        "centrality_score": 0.27687626774847868, 
        "resname": "Thr"
    }, 
    {
        "resnum": 124, 
        "region_name": "TM", 
        "pymol": "/2RH1_Dichloroisoproterenol_edited_oriented//A/LEU`124/", 
        "ballesteros": "3.43", 
        "centrality_score": 0.2805755395683453, 
        "resname": "Leu"
    }, 
    {
        "resnum": 125, 
        "region_name": "TM", 
        "pymol": "/2RH1_Dichloroisoproterenol_edited_oriented//A/CYS`125/", 
        "ballesteros": "3.44", 
        "centrality_score": 0.25466417910447764, 
        "resname": "Cys"
    }, 
    {
        "resnum": 126, 
        "region_name": "TM", 
        "pymol": "/2RH1_Dichloroisoproterenol_edited_oriented//A/VAL`126/", 
        "ballesteros": "3.45", 
        "centrality_score": 0.25901328273244784, 
        "resname": "Val"
    }, 
    {
        "resnum": 127, 
        "region_name": "TM", 
        "pymol": "/2RH1_Dichloroisoproterenol_edited_oriented//A/ILE`127/", 
        "ballesteros": "3.46", 
        "centrality_score": 0.26712328767123289, 
        "resname": "Ile"
    }, 
    {
        "resnum": 128, 
        "region_name": "TM", 
        "pymol": "/2RH1_Dichloroisoproterenol_edited_oriented//A/ALA`128/", 
        "ballesteros": "3.47", 
        "centrality_score": 0.24550359712230216, 
        "resname": "Ala"
    }, 
    {
        "resnum": 129, 
        "region_name": "TM", 
        "pymol": "/2RH1_Dichloroisoproterenol_edited_oriented//A/VAL`129/", 
        "ballesteros": "3.48", 
        "centrality_score": 0.22303921568627452, 
        "resname": "Val"
    }, 
    {
        "resnum": 130, 
        "region_name": "TM", 
        "pymol": "/2RH1_Dichloroisoproterenol_edited_oriented//A/ASP`130/", 
        "ballesteros": "3.49", 
        "centrality_score": 0.2367736339982654, 
        "resname": "Asp"
    }, 
    {
        "resnum": 131, 
        "region_name": "TM", 
        "pymol": "/2RH1_Dichloroisoproterenol_edited_oriented//A/ARG`131/", 
        "ballesteros": "3.50", 
        "centrality_score": 0.22979797979797981, 
        "resname": "Arg"
    }, 
    {
        "resnum": 132, 
        "region_name": "TM", 
        "pymol": "/2RH1_Dichloroisoproterenol_edited_oriented//A/TYR`132/", 
        "ballesteros": "3.51", 
        "centrality_score": 0.21016166281755197, 
        "resname": "Tyr"
    }, 
    {
        "resnum": 133, 
        "region_name": "TM", 
        "pymol": "/2RH1_Dichloroisoproterenol_edited_oriented//A/PHE`133/", 
        "ballesteros": "3.52", 
        "centrality_score": 0.20132743362831859, 
        "resname": "Phe"
    }, 
    {
        "resnum": 134, 
        "region_name": "TM", 
        "pymol": "/2RH1_Dichloroisoproterenol_edited_oriented//A/ALA`134/", 
        "ballesteros": "3.53", 
        "centrality_score": 0.20252225519287834, 
        "resname": "Ala"
    }, 
    {
        "resnum": 135, 
        "region_name": "TM", 
        "pymol": "/2RH1_Dichloroisoproterenol_edited_oriented//A/ILE`135/", 
        "ballesteros": "3.54", 
        "centrality_score": 0.19472182596291013, 
        "resname": "Ile"
    }, 
    {
        "resnum": 136, 
        "region_name": "TM", 
        "pymol": "/2RH1_Dichloroisoproterenol_edited_oriented//A/THR`136/", 
        "ballesteros": "3.55", 
        "centrality_score": 0.17936925098554535, 
        "resname": "Thr"
    }, 
    {
        "resnum": 137, 
        "region_name": "IL", 
        "pymol": "/2RH1_Dichloroisoproterenol_edited_oriented//A/SER`137/", 
        "ballesteros": "", 
        "centrality_score": 0.17556270096463023, 
        "resname": "Ser"
    }, 
    {
        "resnum": 138, 
        "region_name": "IL", 
        "pymol": "/2RH1_Dichloroisoproterenol_edited_oriented//A/PRO`138/", 
        "ballesteros": "", 
        "centrality_score": 0.1552901023890785, 
        "resname": "Pro"
    }, 
    {
        "resnum": 139, 
        "region_name": "IL", 
        "pymol": "/2RH1_Dichloroisoproterenol_edited_oriented//A/PHE`139/", 
        "ballesteros": "", 
        "centrality_score": 0.17377466581795034, 
        "resname": "Phe"
    }, 
    {
        "resnum": 140, 
        "region_name": "IL", 
        "pymol": "/2RH1_Dichloroisoproterenol_edited_oriented//A/LYS`140/", 
        "ballesteros": "", 
        "centrality_score": 0.17289423685877137, 
        "resname": "Lys"
    }, 
    {
        "resnum": 141, 
        "region_name": "IL", 
        "pymol": "/2RH1_Dichloroisoproterenol_edited_oriented//A/TYR`141/", 
        "ballesteros": "", 
        "centrality_score": 0.19513938527519656, 
        "resname": "Tyr"
    }, 
    {
        "resnum": 142, 
        "region_name": "IL", 
        "pymol": "/2RH1_Dichloroisoproterenol_edited_oriented//A/GLN`142/", 
        "ballesteros": "", 
        "centrality_score": 0.17499999999999999, 
        "resname": "Gln"
    }, 
    {
        "resnum": 143, 
        "region_name": "IL", 
        "pymol": "/2RH1_Dichloroisoproterenol_edited_oriented//A/SER`143/", 
        "ballesteros": "", 
        "centrality_score": 0.20526315789473684, 
        "resname": "Ser"
    }, 
    {
        "resnum": 144, 
        "region_name": "IL", 
        "pymol": "/2RH1_Dichloroisoproterenol_edited_oriented//A/LEU`144/", 
        "ballesteros": "", 
        "centrality_score": 0.19883466860888566, 
        "resname": "Leu"
    }, 
    {
        "resnum": 145, 
        "region_name": "IL", 
        "pymol": "/2RH1_Dichloroisoproterenol_edited_oriented//A/LEU`145/", 
        "ballesteros": "", 
        "centrality_score": 0.228643216080402, 
        "resname": "Leu"
    }, 
    {
        "resnum": 146, 
        "region_name": "IL", 
        "pymol": "/2RH1_Dichloroisoproterenol_edited_oriented//A/THR`146/", 
        "ballesteros": "", 
        "centrality_score": 0.19970738844184346, 
        "resname": "Thr"
    }, 
    {
        "resnum": 147, 
        "region_name": "TM", 
        "pymol": "/2RH1_Dichloroisoproterenol_edited_oriented//A/LYS`147/", 
        "ballesteros": "4.39", 
        "centrality_score": 0.20117907148120856, 
        "resname": "Lys"
    }, 
    {
        "resnum": 148, 
        "region_name": "TM", 
        "pymol": "/2RH1_Dichloroisoproterenol_edited_oriented//A/ASN`148/", 
        "ballesteros": "4.40", 
        "centrality_score": 0.18470906630581868, 
        "resname": "Asn"
    }, 
    {
        "resnum": 149, 
        "region_name": "TM", 
        "pymol": "/2RH1_Dichloroisoproterenol_edited_oriented//A/LYS`149/", 
        "ballesteros": "4.41", 
        "centrality_score": 0.19640287769784173, 
        "resname": "Lys"
    }, 
    {
        "resnum": 150, 
        "region_name": "TM", 
        "pymol": "/2RH1_Dichloroisoproterenol_edited_oriented//A/ALA`150/", 
        "ballesteros": "4.42", 
        "centrality_score": 0.22285714285714286, 
        "resname": "Ala"
    }, 
    {
        "resnum": 151, 
        "region_name": "TM", 
        "pymol": "/2RH1_Dichloroisoproterenol_edited_oriented//A/ARG`151/", 
        "ballesteros": "4.43", 
        "centrality_score": 0.20903522205206737, 
        "resname": "Arg"
    }, 
    {
        "resnum": 152, 
        "region_name": "TM", 
        "pymol": "/2RH1_Dichloroisoproterenol_edited_oriented//A/VAL`152/", 
        "ballesteros": "4.44", 
        "centrality_score": 0.20619335347432025, 
        "resname": "Val"
    }, 
    {
        "resnum": 153, 
        "region_name": "TM", 
        "pymol": "/2RH1_Dichloroisoproterenol_edited_oriented//A/ILE`153/", 
        "ballesteros": "4.45", 
        "centrality_score": 0.23076923076923078, 
        "resname": "Ile"
    }, 
    {
        "resnum": 154, 
        "region_name": "TM", 
        "pymol": "/2RH1_Dichloroisoproterenol_edited_oriented//A/ILE`154/", 
        "ballesteros": "4.46", 
        "centrality_score": 0.2488605287146764, 
        "resname": "Ile"
    }, 
    {
        "resnum": 155, 
        "region_name": "TM", 
        "pymol": "/2RH1_Dichloroisoproterenol_edited_oriented//A/LEU`155/", 
        "ballesteros": "4.47", 
        "centrality_score": 0.2259933774834437, 
        "resname": "Leu"
    }, 
    {
        "resnum": 156, 
        "region_name": "TM", 
        "pymol": "/2RH1_Dichloroisoproterenol_edited_oriented//A/MET`156/", 
        "ballesteros": "4.48", 
        "centrality_score": 0.21546961325966851, 
        "resname": "Met"
    }, 
    {
        "resnum": 157, 
        "region_name": "TM", 
        "pymol": "/2RH1_Dichloroisoproterenol_edited_oriented//A/VAL`157/", 
        "ballesteros": "4.49", 
        "centrality_score": 0.25490196078431371, 
        "resname": "Val"
    }, 
    {
        "resnum": 158, 
        "region_name": "TM", 
        "pymol": "/2RH1_Dichloroisoproterenol_edited_oriented//A/TRP`158/", 
        "ballesteros": "4.50", 
        "centrality_score": 0.27029702970297032, 
        "resname": "Trp"
    }, 
    {
        "resnum": 159, 
        "region_name": "TM", 
        "pymol": "/2RH1_Dichloroisoproterenol_edited_oriented//A/ILE`159/", 
        "ballesteros": "4.51", 
        "centrality_score": 0.22921914357682618, 
        "resname": "Ile"
    }, 
    {
        "resnum": 160, 
        "region_name": "TM", 
        "pymol": "/2RH1_Dichloroisoproterenol_edited_oriented//A/VAL`160/", 
        "ballesteros": "4.52", 
        "centrality_score": 0.2345360824742268, 
        "resname": "Val"
    }, 
    {
        "resnum": 161, 
        "region_name": "TM", 
        "pymol": "/2RH1_Dichloroisoproterenol_edited_oriented//A/SER`161/", 
        "ballesteros": "4.53", 
        "centrality_score": 0.25633802816901408, 
        "resname": "Ser"
    }, 
    {
        "resnum": 162, 
        "region_name": "TM", 
        "pymol": "/2RH1_Dichloroisoproterenol_edited_oriented//A/GLY`162/", 
        "ballesteros": "4.54", 
        "centrality_score": 0.2353448275862069, 
        "resname": "Gly"
    }, 
    {
        "resnum": 163, 
        "region_name": "TM", 
        "pymol": "/2RH1_Dichloroisoproterenol_edited_oriented//A/LEU`163/", 
        "ballesteros": "4.55", 
        "centrality_score": 0.21980676328502416, 
        "resname": "Leu"
    }, 
    {
        "resnum": 164, 
        "region_name": "TM", 
        "pymol": "/2RH1_Dichloroisoproterenol_edited_oriented//A/THR`164/", 
        "ballesteros": "4.56", 
        "centrality_score": 0.25442684063373716, 
        "resname": "Thr"
    }, 
    {
        "resnum": 165, 
        "region_name": "TM", 
        "pymol": "/2RH1_Dichloroisoproterenol_edited_oriented//A/SER`165/", 
        "ballesteros": "4.57", 
        "centrality_score": 0.24223602484472051, 
        "resname": "Ser"
    }, 
    {
        "resnum": 166, 
        "region_name": "TM", 
        "pymol": "/2RH1_Dichloroisoproterenol_edited_oriented//A/PHE`166/", 
        "ballesteros": "4.58", 
        "centrality_score": 0.22979797979797981, 
        "resname": "Phe"
    }, 
    {
        "resnum": 167, 
        "region_name": "TM", 
        "pymol": "/2RH1_Dichloroisoproterenol_edited_oriented//A/LEU`167/", 
        "ballesteros": "4.59", 
        "centrality_score": 0.21683876092136617, 
        "resname": "Leu"
    }, 
    {
        "resnum": 168, 
        "region_name": "TM", 
        "pymol": "/2RH1_Dichloroisoproterenol_edited_oriented//A/PRO`168/", 
        "ballesteros": "4.60", 
        "centrality_score": 0.23214285714285715, 
        "resname": "Pro"
    }, 
    {
        "resnum": 169, 
        "region_name": "TM", 
        "pymol": "/2RH1_Dichloroisoproterenol_edited_oriented//A/ILE`169/", 
        "ballesteros": "4.61", 
        "centrality_score": 0.23353293413173654, 
        "resname": "Ile"
    }, 
    {
        "resnum": 170, 
        "region_name": "TM", 
        "pymol": "/2RH1_Dichloroisoproterenol_edited_oriented//A/GLN`170/", 
        "ballesteros": "4.62", 
        "centrality_score": 0.21016166281755197, 
        "resname": "Gln"
    }, 
    {
        "resnum": 171, 
        "region_name": "EL", 
        "pymol": "/2RH1_Dichloroisoproterenol_edited_oriented//A/MET`171/", 
        "ballesteros": "", 
        "centrality_score": 0.19238900634249473, 
        "resname": "Met"
    }, 
    {
        "resnum": 172, 
        "region_name": "EL", 
        "pymol": "/2RH1_Dichloroisoproterenol_edited_oriented//A/HIS`172/", 
        "ballesteros": "", 
        "centrality_score": 0.20449438202247192, 
        "resname": "His"
    }, 
    {
        "resnum": 173, 
        "region_name": "EL", 
        "pymol": "/2RH1_Dichloroisoproterenol_edited_oriented//A/TRP`173/", 
        "ballesteros": "", 
        "centrality_score": 0.21683876092136617, 
        "resname": "Trp"
    }, 
    {
        "resnum": 174, 
        "region_name": "EL", 
        "pymol": "/2RH1_Dichloroisoproterenol_edited_oriented//A/TYR`174/", 
        "ballesteros": "", 
        "centrality_score": 0.22395406070549631, 
        "resname": "Tyr"
    }, 
    {
        "resnum": 175, 
        "region_name": "EL", 
        "pymol": "/2RH1_Dichloroisoproterenol_edited_oriented//A/ARG`175/", 
        "ballesteros": "", 
        "centrality_score": 0.19416785206258891, 
        "resname": "Arg"
    }, 
    {
        "resnum": 176, 
        "region_name": "EL", 
        "pymol": "/2RH1_Dichloroisoproterenol_edited_oriented//A/ALA`176/", 
        "ballesteros": "", 
        "centrality_score": 0.20434131736526945, 
        "resname": "Ala"
    }, 
    {
        "resnum": 177, 
        "region_name": "EL", 
        "pymol": "/2RH1_Dichloroisoproterenol_edited_oriented//A/THR`177/", 
        "ballesteros": "", 
        "centrality_score": 0.18273092369477911, 
        "resname": "Thr"
    }, 
    {
        "resnum": 178, 
        "region_name": "EL", 
        "pymol": "/2RH1_Dichloroisoproterenol_edited_oriented//A/HIS`178/", 
        "ballesteros": "", 
        "centrality_score": 0.20044052863436124, 
        "resname": "His"
    }, 
    {
        "resnum": 179, 
        "region_name": "EL", 
        "pymol": "/2RH1_Dichloroisoproterenol_edited_oriented//A/GLN`179/", 
        "ballesteros": "", 
        "centrality_score": 0.17073170731707318, 
        "resname": "Gln"
    }, 
    {
        "resnum": 180, 
        "region_name": "EL", 
        "pymol": "/2RH1_Dichloroisoproterenol_edited_oriented//A/GLU`180/", 
        "ballesteros": "", 
        "centrality_score": 0.1778501628664495, 
        "resname": "Glu"
    }, 
    {
        "resnum": 181, 
        "region_name": "EL", 
        "pymol": "/2RH1_Dichloroisoproterenol_edited_oriented//A/ALA`181/", 
        "ballesteros": "", 
        "centrality_score": 0.17843137254901961, 
        "resname": "Ala"
    }, 
    {
        "resnum": 182, 
        "region_name": "EL", 
        "pymol": "/2RH1_Dichloroisoproterenol_edited_oriented//A/ILE`182/", 
        "ballesteros": "", 
        "centrality_score": 0.17567567567567569, 
        "resname": "Ile"
    }, 
    {
        "resnum": 183, 
        "region_name": "EL", 
        "pymol": "/2RH1_Dichloroisoproterenol_edited_oriented//A/ASN`183/", 
        "ballesteros": "", 
        "centrality_score": 0.17311350665821179, 
        "resname": "Asn"
    }, 
    {
        "resnum": 184, 
        "region_name": "EL", 
        "pymol": "/2RH1_Dichloroisoproterenol_edited_oriented//A/CYS`184/", 
        "ballesteros": "", 
        "centrality_score": 0.20619335347432025, 
        "resname": "Cys"
    }, 
    {
        "resnum": 185, 
        "region_name": "EL", 
        "pymol": "/2RH1_Dichloroisoproterenol_edited_oriented//A/TYR`185/", 
        "ballesteros": "", 
        "centrality_score": 0.19486081370449679, 
        "resname": "Tyr"
    }, 
    {
        "resnum": 186, 
        "region_name": "EL", 
        "pymol": "/2RH1_Dichloroisoproterenol_edited_oriented//A/ALA`186/", 
        "ballesteros": "", 
        "centrality_score": 0.17455242966751919, 
        "resname": "Ala"
    }, 
    {
        "resnum": 187, 
        "region_name": "EL", 
        "pymol": "/2RH1_Dichloroisoproterenol_edited_oriented//A/GLU`187/", 
        "ballesteros": "", 
        "centrality_score": 0.18322147651006712, 
        "resname": "Glu"
    }, 
    {
        "resnum": 188, 
        "region_name": "EL", 
        "pymol": "/2RH1_Dichloroisoproterenol_edited_oriented//A/GLU`188/", 
        "ballesteros": "", 
        "centrality_score": 0.19104268719384185, 
        "resname": "Glu"
    }, 
    {
        "resnum": 189, 
        "region_name": "EL", 
        "pymol": "/2RH1_Dichloroisoproterenol_edited_oriented//A/THR`189/", 
        "ballesteros": "", 
        "centrality_score": 0.20919540229885059, 
        "resname": "Thr"
    }, 
    {
        "resnum": 190, 
        "region_name": "EL", 
        "pymol": "/2RH1_Dichloroisoproterenol_edited_oriented//A/CYS`190/", 
        "ballesteros": "", 
        "centrality_score": 0.21361502347417841, 
        "resname": "Cys"
    }, 
    {
        "resnum": 191, 
        "region_name": "EL", 
        "pymol": "/2RH1_Dichloroisoproterenol_edited_oriented//A/CYS`191/", 
        "ballesteros": "", 
        "centrality_score": 0.24683544303797469, 
        "resname": "Cys"
    }, 
    {
        "resnum": 192, 
        "region_name": "EL", 
        "pymol": "/2RH1_Dichloroisoproterenol_edited_oriented//A/ASP`192/", 
        "ballesteros": "", 
        "centrality_score": 0.22159090909090909, 
        "resname": "Asp"
    }, 
    {
        "resnum": 193, 
        "region_name": "EL", 
        "pymol": "/2RH1_Dichloroisoproterenol_edited_oriented//A/PHE`193/", 
        "ballesteros": "", 
        "centrality_score": 0.25091911764705882, 
        "resname": "Phe"
    }, 
    {
        "resnum": 194, 
        "region_name": "EL", 
        "pymol": "/2RH1_Dichloroisoproterenol_edited_oriented//A/PHE`194/", 
        "ballesteros": "", 
        "centrality_score": 0.21212121212121213, 
        "resname": "Phe"
    }, 
    {
        "resnum": 195, 
        "region_name": "EL", 
        "pymol": "/2RH1_Dichloroisoproterenol_edited_oriented//A/THR`195/", 
        "ballesteros": "", 
        "centrality_score": 0.24245115452930729, 
        "resname": "Thr"
    }, 
    {
        "resnum": 196, 
        "region_name": "EL", 
        "pymol": "/2RH1_Dichloroisoproterenol_edited_oriented//A/ASN`196/", 
        "ballesteros": "", 
        "centrality_score": 0.21701112877583467, 
        "resname": "Asn"
    }, 
    {
        "resnum": 197, 
        "region_name": "TM", 
        "pymol": "/2RH1_Dichloroisoproterenol_edited_oriented//A/GLN`197/", 
        "ballesteros": "5.36", 
        "centrality_score": 0.20619335347432025, 
        "resname": "Gln"
    }, 
    {
        "resnum": 198, 
        "region_name": "TM", 
        "pymol": "/2RH1_Dichloroisoproterenol_edited_oriented//A/ALA`198/", 
        "ballesteros": "5.37", 
        "centrality_score": 0.21261682242990654, 
        "resname": "Ala"
    }, 
    {
        "resnum": 199, 
        "region_name": "TM", 
        "pymol": "/2RH1_Dichloroisoproterenol_edited_oriented//A/TYR`199/", 
        "ballesteros": "5.38", 
        "centrality_score": 0.2556179775280899, 
        "resname": "Tyr"
    }, 
    {
        "resnum": 200, 
        "region_name": "TM", 
        "pymol": "/2RH1_Dichloroisoproterenol_edited_oriented//A/ALA`200/", 
        "ballesteros": "5.39", 
        "centrality_score": 0.24353256021409456, 
        "resname": "Ala"
    }, 
    {
        "resnum": 201, 
        "region_name": "TM", 
        "pymol": "/2RH1_Dichloroisoproterenol_edited_oriented//A/ILE`201/", 
        "ballesteros": "5.40", 
        "centrality_score": 0.21735668789808918, 
        "resname": "Ile"
    }, 
    {
        "resnum": 202, 
        "region_name": "TM", 
        "pymol": "/2RH1_Dichloroisoproterenol_edited_oriented//A/ALA`202/", 
        "ballesteros": "5.41", 
        "centrality_score": 0.22693266832917705, 
        "resname": "Ala"
    }, 
    {
        "resnum": 203, 
        "region_name": "TM", 
        "pymol": "/2RH1_Dichloroisoproterenol_edited_oriented//A/SER`203/", 
        "ballesteros": "5.42", 
        "centrality_score": 0.2556179775280899, 
        "resname": "Ser"
    }, 
    {
        "resnum": 204, 
        "region_name": "TM", 
        "pymol": "/2RH1_Dichloroisoproterenol_edited_oriented//A/SER`204/", 
        "ballesteros": "5.43", 
        "centrality_score": 0.25803402646502838, 
        "resname": "Ser"
    }, 
    {
        "resnum": 205, 
        "region_name": "TM", 
        "pymol": "/2RH1_Dichloroisoproterenol_edited_oriented//A/ILE`205/", 
        "ballesteros": "5.44", 
        "centrality_score": 0.23018549747048903, 
        "resname": "Ile"
    }, 
    {
        "resnum": 206, 
        "region_name": "TM", 
        "pymol": "/2RH1_Dichloroisoproterenol_edited_oriented//A/VAL`206/", 
        "ballesteros": "5.45", 
        "centrality_score": 0.25045871559633026, 
        "resname": "Val"
    }, 
    {
        "resnum": 207, 
        "region_name": "TM", 
        "pymol": "/2RH1_Dichloroisoproterenol_edited_oriented//A/SER`207/", 
        "ballesteros": "5.46", 
        "centrality_score": 0.27083333333333331, 
        "resname": "Ser"
    }, 
    {
        "resnum": 208, 
        "region_name": "TM", 
        "pymol": "/2RH1_Dichloroisoproterenol_edited_oriented//A/PHE`208/", 
        "ballesteros": "5.47", 
        "centrality_score": 0.27327327327327328, 
        "resname": "Phe"
    }, 
    {
        "resnum": 209, 
        "region_name": "TM", 
        "pymol": "/2RH1_Dichloroisoproterenol_edited_oriented//A/TYR`209/", 
        "ballesteros": "5.48", 
        "centrality_score": 0.2415929203539823, 
        "resname": "Tyr"
    }, 
    {
        "resnum": 210, 
        "region_name": "TM", 
        "pymol": "/2RH1_Dichloroisoproterenol_edited_oriented//A/VAL`210/", 
        "ballesteros": "5.49", 
        "centrality_score": 0.22141119221411193, 
        "resname": "Val"
    }, 
    {
        "resnum": 211, 
        "region_name": "TM", 
        "pymol": "/2RH1_Dichloroisoproterenol_edited_oriented//A/PRO`211/", 
        "ballesteros": "5.50", 
        "centrality_score": 0.25706214689265539, 
        "resname": "Pro"
    }, 
    {
        "resnum": 212, 
        "region_name": "TM", 
        "pymol": "/2RH1_Dichloroisoproterenol_edited_oriented//A/LEU`212/", 
        "ballesteros": "5.51", 
        "centrality_score": 0.25418994413407819, 
        "resname": "Leu"
    }, 
    {
        "resnum": 213, 
        "region_name": "TM", 
        "pymol": "/2RH1_Dichloroisoproterenol_edited_oriented//A/VAL`213/", 
        "ballesteros": "5.52", 
        "centrality_score": 0.22921914357682618, 
        "resname": "Val"
    }, 
    {
        "resnum": 214, 
        "region_name": "TM", 
        "pymol": "/2RH1_Dichloroisoproterenol_edited_oriented//A/ILE`214/", 
        "ballesteros": "5.53", 
        "centrality_score": 0.23273657289002558, 
        "resname": "Ile"
    }, 
    {
        "resnum": 215, 
        "region_name": "TM", 
        "pymol": "/2RH1_Dichloroisoproterenol_edited_oriented//A/MET`215/", 
        "ballesteros": "5.54", 
        "centrality_score": 0.25091911764705882, 
        "resname": "Met"
    }, 
    {
        "resnum": 216, 
        "region_name": "TM", 
        "pymol": "/2RH1_Dichloroisoproterenol_edited_oriented//A/VAL`216/", 
        "ballesteros": "5.55", 
        "centrality_score": 0.228643216080402, 
        "resname": "Val"
    }, 
    {
        "resnum": 217, 
        "region_name": "TM", 
        "pymol": "/2RH1_Dichloroisoproterenol_edited_oriented//A/PHE`217/", 
        "ballesteros": "5.56", 
        "centrality_score": 0.20760456273764258, 
        "resname": "Phe"
    }, 
    {
        "resnum": 218, 
        "region_name": "TM", 
        "pymol": "/2RH1_Dichloroisoproterenol_edited_oriented//A/VAL`218/", 
        "ballesteros": "5.57", 
        "centrality_score": 0.22105263157894736, 
        "resname": "Val"
    }, 
    {
        "resnum": 219, 
        "region_name": "TM", 
        "pymol": "/2RH1_Dichloroisoproterenol_edited_oriented//A/TYR`219/", 
        "ballesteros": "5.58", 
        "centrality_score": 0.24245115452930729, 
        "resname": "Tyr"
    }, 
    {
        "resnum": 220, 
        "region_name": "TM", 
        "pymol": "/2RH1_Dichloroisoproterenol_edited_oriented//A/SER`220/", 
        "ballesteros": "5.59", 
        "centrality_score": 0.20557228915662651, 
        "resname": "Ser"
    }, 
    {
        "resnum": 221, 
        "region_name": "TM", 
        "pymol": "/2RH1_Dichloroisoproterenol_edited_oriented//A/ARG`221/", 
        "ballesteros": "5.60", 
        "centrality_score": 0.19011142061281336, 
        "resname": "Arg"
    }, 
    {
        "resnum": 222, 
        "region_name": "TM", 
        "pymol": "/2RH1_Dichloroisoproterenol_edited_oriented//A/VAL`222/", 
        "ballesteros": "5.61", 
        "centrality_score": 0.21179208688906129, 
        "resname": "Val"
    }, 
    {
        "resnum": 223, 
        "region_name": "TM", 
        "pymol": "/2RH1_Dichloroisoproterenol_edited_oriented//A/PHE`223/", 
        "ballesteros": "5.62", 
        "centrality_score": 0.20650529500756429, 
        "resname": "Phe"
    }, 
    {
        "resnum": 224, 
        "region_name": "TM", 
        "pymol": "/2RH1_Dichloroisoproterenol_edited_oriented//A/GLN`224/", 
        "ballesteros": "5.63", 
        "centrality_score": 0.17715768981181051, 
        "resname": "Gln"
    }, 
    {
        "resnum": 225, 
        "region_name": "TM", 
        "pymol": "/2RH1_Dichloroisoproterenol_edited_oriented//A/GLU`225/", 
        "ballesteros": "5.64", 
        "centrality_score": 0.18396226415094338, 
        "resname": "Glu"
    }, 
    {
        "resnum": 226, 
        "region_name": "TM", 
        "pymol": "/2RH1_Dichloroisoproterenol_edited_oriented//A/ALA`226/", 
        "ballesteros": "5.65", 
        "centrality_score": 0.18866620594333103, 
        "resname": "Ala"
    }, 
    {
        "resnum": 227, 
        "region_name": "TM", 
        "pymol": "/2RH1_Dichloroisoproterenol_edited_oriented//A/LYS`227/", 
        "ballesteros": "5.66", 
        "centrality_score": 0.17477592829705504, 
        "resname": "Lys"
    }, 
    {
        "resnum": 266, 
        "region_name": "IL", 
        "pymol": "/2RH1_Dichloroisoproterenol_edited_oriented//A/LEU`266/", 
        "ballesteros": "", 
        "centrality_score": 0.1746641074856046, 
        "resname": "Leu"
    }, 
    {
        "resnum": 267, 
        "region_name": "TM", 
        "pymol": "/2RH1_Dichloroisoproterenol_edited_oriented//A/LYS`267/", 
        "ballesteros": "6.29", 
        "centrality_score": 0.18079470198675496, 
        "resname": "Lys"
    }, 
    {
        "resnum": 268, 
        "region_name": "TM", 
        "pymol": "/2RH1_Dichloroisoproterenol_edited_oriented//A/GLU`268/", 
        "ballesteros": "6.30", 
        "centrality_score": 0.18558803535010196, 
        "resname": "Glu"
    }, 
    {
        "resnum": 269, 
        "region_name": "TM", 
        "pymol": "/2RH1_Dichloroisoproterenol_edited_oriented//A/HIS`269/", 
        "ballesteros": "6.31", 
        "centrality_score": 0.18711446196024675, 
        "resname": "His"
    }, 
    {
        "resnum": 270, 
        "region_name": "TM", 
        "pymol": "/2RH1_Dichloroisoproterenol_edited_oriented//A/LYS`270/", 
        "ballesteros": "6.32", 
        "centrality_score": 0.2016248153618907, 
        "resname": "Lys"
    }, 
    {
        "resnum": 271, 
        "region_name": "TM", 
        "pymol": "/2RH1_Dichloroisoproterenol_edited_oriented//A/ALA`271/", 
        "ballesteros": "6.33", 
        "centrality_score": 0.20999999999999999, 
        "resname": "Ala"
    }, 
    {
        "resnum": 272, 
        "region_name": "TM", 
        "pymol": "/2RH1_Dichloroisoproterenol_edited_oriented//A/LEU`272/", 
        "ballesteros": "6.34", 
        "centrality_score": 0.21822541966426859, 
        "resname": "Leu"
    }, 
    {
        "resnum": 273, 
        "region_name": "TM", 
        "pymol": "/2RH1_Dichloroisoproterenol_edited_oriented//A/LYS`273/", 
        "ballesteros": "6.35", 
        "centrality_score": 0.2088752869166029, 
        "resname": "Lys"
    }, 
    {
        "resnum": 274, 
        "region_name": "TM", 
        "pymol": "/2RH1_Dichloroisoproterenol_edited_oriented//A/THR`274/", 
        "ballesteros": "6.36", 
        "centrality_score": 0.2398945518453427, 
        "resname": "Thr"
    }, 
    {
        "resnum": 275, 
        "region_name": "TM", 
        "pymol": "/2RH1_Dichloroisoproterenol_edited_oriented//A/LEU`275/", 
        "ballesteros": "6.37", 
        "centrality_score": 0.25490196078431371, 
        "resname": "Leu"
    }, 
    {
        "resnum": 276, 
        "region_name": "TM", 
        "pymol": "/2RH1_Dichloroisoproterenol_edited_oriented//A/GLY`276/", 
        "ballesteros": "6.38", 
        "centrality_score": 0.23433476394849787, 
        "resname": "Gly"
    }, 
    {
        "resnum": 277, 
        "region_name": "TM", 
        "pymol": "/2RH1_Dichloroisoproterenol_edited_oriented//A/ILE`277/", 
        "ballesteros": "6.39", 
        "centrality_score": 0.23433476394849787, 
        "resname": "Ile"
    }, 
    {
        "resnum": 278, 
        "region_name": "TM", 
        "pymol": "/2RH1_Dichloroisoproterenol_edited_oriented//A/ILE`278/", 
        "ballesteros": "6.40", 
        "centrality_score": 0.27971311475409838, 
        "resname": "Ile"
    }, 
    {
        "resnum": 279, 
        "region_name": "TM", 
        "pymol": "/2RH1_Dichloroisoproterenol_edited_oriented//A/MET`279/", 
        "ballesteros": "6.41", 
        "centrality_score": 0.26634146341463416, 
        "resname": "Met"
    }, 
    {
        "resnum": 280, 
        "region_name": "TM", 
        "pymol": "/2RH1_Dichloroisoproterenol_edited_oriented//A/GLY`280/", 
        "ballesteros": "6.42", 
        "centrality_score": 0.2398945518453427, 
        "resname": "Gly"
    }, 
    {
        "resnum": 281, 
        "region_name": "TM", 
        "pymol": "/2RH1_Dichloroisoproterenol_edited_oriented//A/THR`281/", 
        "ballesteros": "6.43", 
        "centrality_score": 0.25925925925925924, 
        "resname": "Thr"
    }, 
    {
        "resnum": 282, 
        "region_name": "TM", 
        "pymol": "/2RH1_Dichloroisoproterenol_edited_oriented//A/PHE`282/", 
        "ballesteros": "6.44", 
        "centrality_score": 0.29738562091503268, 
        "resname": "Phe"
    }, 
    {
        "resnum": 283, 
        "region_name": "TM", 
        "pymol": "/2RH1_Dichloroisoproterenol_edited_oriented//A/THR`283/", 
        "ballesteros": "6.45", 
        "centrality_score": 0.25803402646502838, 
        "resname": "Thr"
    }, 
    {
        "resnum": 284, 
        "region_name": "TM", 
        "pymol": "/2RH1_Dichloroisoproterenol_edited_oriented//A/LEU`284/", 
        "ballesteros": "6.46", 
        "centrality_score": 0.24484304932735426, 
        "resname": "Leu"
    }, 
    {
        "resnum": 285, 
        "region_name": "TM", 
        "pymol": "/2RH1_Dichloroisoproterenol_edited_oriented//A/CYS`285/", 
        "ballesteros": "6.47", 
        "centrality_score": 0.27056491575817643, 
        "resname": "Cys"
    }, 
    {
        "resnum": 286, 
        "region_name": "TM", 
        "pymol": "/2RH1_Dichloroisoproterenol_edited_oriented//A/TRP`286/", 
        "ballesteros": "6.48", 
        "centrality_score": 0.29901423877327493, 
        "resname": "Trp"
    }, 
    {
        "resnum": 287, 
        "region_name": "TM", 
        "pymol": "/2RH1_Dichloroisoproterenol_edited_oriented//A/LEU`287/", 
        "ballesteros": "6.49", 
        "centrality_score": 0.25371747211895912, 
        "resname": "Leu"
    }, 
    {
        "resnum": 288, 
        "region_name": "TM", 
        "pymol": "/2RH1_Dichloroisoproterenol_edited_oriented//A/PRO`288/", 
        "ballesteros": "6.50", 
        "centrality_score": 0.24931506849315069, 
        "resname": "Pro"
    }, 
    {
        "resnum": 289, 
        "region_name": "TM", 
        "pymol": "/2RH1_Dichloroisoproterenol_edited_oriented//A/PHE`289/", 
        "ballesteros": "6.51", 
        "centrality_score": 0.26024785510009535, 
        "resname": "Phe"
    }, 
    {
        "resnum": 290, 
        "region_name": "TM", 
        "pymol": "/2RH1_Dichloroisoproterenol_edited_oriented//A/PHE`290/", 
        "ballesteros": "6.52", 
        "centrality_score": 0.26634146341463416, 
        "resname": "Phe"
    }, 
    {
        "resnum": 291, 
        "region_name": "TM", 
        "pymol": "/2RH1_Dichloroisoproterenol_edited_oriented//A/ILE`291/", 
        "ballesteros": "6.53", 
        "centrality_score": 0.22750000000000001, 
        "resname": "Ile"
    }, 
    {
        "resnum": 292, 
        "region_name": "TM", 
        "pymol": "/2RH1_Dichloroisoproterenol_edited_oriented//A/VAL`292/", 
        "ballesteros": "6.54", 
        "centrality_score": 0.22469135802469137, 
        "resname": "Val"
    }, 
    {
        "resnum": 293, 
        "region_name": "TM", 
        "pymol": "/2RH1_Dichloroisoproterenol_edited_oriented//A/ASN`293/", 
        "ballesteros": "6.55", 
        "centrality_score": 0.24010554089709762, 
        "resname": "Asn"
    }, 
    {
        "resnum": 294, 
        "region_name": "TM", 
        "pymol": "/2RH1_Dichloroisoproterenol_edited_oriented//A/ILE`294/", 
        "ballesteros": "6.56", 
        "centrality_score": 0.22693266832917705, 
        "resname": "Ile"
    }, 
    {
        "resnum": 295, 
        "region_name": "TM", 
        "pymol": "/2RH1_Dichloroisoproterenol_edited_oriented//A/VAL`295/", 
        "ballesteros": "6.57", 
        "centrality_score": 0.19985358711566617, 
        "resname": "Val"
    }, 
    {
        "resnum": 296, 
        "region_name": "TM", 
        "pymol": "/2RH1_Dichloroisoproterenol_edited_oriented//A/HIS`296/", 
        "ballesteros": "6.58", 
        "centrality_score": 0.21130030959752322, 
        "resname": "His"
    }, 
    {
        "resnum": 297, 
        "region_name": "TM", 
        "pymol": "/2RH1_Dichloroisoproterenol_edited_oriented//A/VAL`297/", 
        "ballesteros": "6.59", 
        "centrality_score": 0.20588235294117646, 
        "resname": "Val"
    }, 
    {
        "resnum": 298, 
        "region_name": "TM", 
        "pymol": "/2RH1_Dichloroisoproterenol_edited_oriented//A/ILE`298/", 
        "ballesteros": "6.60", 
        "centrality_score": 0.19024390243902439, 
        "resname": "Ile"
    }, 
    {
        "resnum": 299, 
        "region_name": "EL", 
        "pymol": "/2RH1_Dichloroisoproterenol_edited_oriented//A/GLN`299/", 
        "ballesteros": "", 
        "centrality_score": 0.17647058823529413, 
        "resname": "Gln"
    }, 
    {
        "resnum": 300, 
        "region_name": "EL", 
        "pymol": "/2RH1_Dichloroisoproterenol_edited_oriented//A/ASP`300/", 
        "ballesteros": "", 
        "centrality_score": 0.17522464698331194, 
        "resname": "Asp"
    }, 
    {
        "resnum": 301, 
        "region_name": "EL", 
        "pymol": "/2RH1_Dichloroisoproterenol_edited_oriented//A/ASN`301/", 
        "ballesteros": "", 
        "centrality_score": 0.1775032509752926, 
        "resname": "Asn"
    }, 
    {
        "resnum": 302, 
        "region_name": "EL", 
        "pymol": "/2RH1_Dichloroisoproterenol_edited_oriented//A/LEU`302/", 
        "ballesteros": "", 
        "centrality_score": 0.17901639344262296, 
        "resname": "Leu"
    }, 
    {
        "resnum": 303, 
        "region_name": "EL", 
        "pymol": "/2RH1_Dichloroisoproterenol_edited_oriented//A/ILE`303/", 
        "ballesteros": "", 
        "centrality_score": 0.20713201820940819, 
        "resname": "Ile"
    }, 
    {
        "resnum": 304, 
        "region_name": "EL", 
        "pymol": "/2RH1_Dichloroisoproterenol_edited_oriented//A/ARG`304/", 
        "ballesteros": "", 
        "centrality_score": 0.20177383592017739, 
        "resname": "Arg"
    }, 
    {
        "resnum": 305, 
        "region_name": "TM", 
        "pymol": "/2RH1_Dichloroisoproterenol_edited_oriented//A/LYS`305/", 
        "ballesteros": "7.32", 
        "centrality_score": 0.2127825409197194, 
        "resname": "Lys"
    }, 
    {
        "resnum": 306, 
        "region_name": "TM", 
        "pymol": "/2RH1_Dichloroisoproterenol_edited_oriented//A/GLU`306/", 
        "ballesteros": "7.33", 
        "centrality_score": 0.21228615863141523, 
        "resname": "Glu"
    }, 
    {
        "resnum": 307, 
        "region_name": "TM", 
        "pymol": "/2RH1_Dichloroisoproterenol_edited_oriented//A/VAL`307/", 
        "ballesteros": "7.34", 
        "centrality_score": 0.21735668789808918, 
        "resname": "Val"
    }, 
    {
        "resnum": 308, 
        "region_name": "TM", 
        "pymol": "/2RH1_Dichloroisoproterenol_edited_oriented//A/TYR`308/", 
        "ballesteros": "7.35", 
        "centrality_score": 0.24550359712230216, 
        "resname": "Tyr"
    }, 
    {
        "resnum": 309, 
        "region_name": "TM", 
        "pymol": "/2RH1_Dichloroisoproterenol_edited_oriented//A/ILE`309/", 
        "ballesteros": "7.36", 
        "centrality_score": 0.24661246612466126, 
        "resname": "Ile"
    }, 
    {
        "resnum": 310, 
        "region_name": "TM", 
        "pymol": "/2RH1_Dichloroisoproterenol_edited_oriented//A/LEU`310/", 
        "ballesteros": "7.37", 
        "centrality_score": 0.23293515358361774, 
        "resname": "Leu"
    }, 
    {
        "resnum": 311, 
        "region_name": "TM", 
        "pymol": "/2RH1_Dichloroisoproterenol_edited_oriented//A/LEU`311/", 
        "ballesteros": "7.38", 
        "centrality_score": 0.24440465532676814, 
        "resname": "Leu"
    }, 
    {
        "resnum": 312, 
        "region_name": "TM", 
        "pymol": "/2RH1_Dichloroisoproterenol_edited_oriented//A/ASN`312/", 
        "ballesteros": "7.39", 
        "centrality_score": 0.26530612244897961, 
        "resname": "Asn"
    }, 
    {
        "resnum": 313, 
        "region_name": "TM", 
        "pymol": "/2RH1_Dichloroisoproterenol_edited_oriented//A/TRP`313/", 
        "ballesteros": "7.40", 
        "centrality_score": 0.2488605287146764, 
        "resname": "Trp"
    }, 
    {
        "resnum": 314, 
        "region_name": "TM", 
        "pymol": "/2RH1_Dichloroisoproterenol_edited_oriented//A/ILE`314/", 
        "ballesteros": "7.41", 
        "centrality_score": 0.25395348837209303, 
        "resname": "Ile"
    }, 
    {
        "resnum": 315, 
        "region_name": "TM", 
        "pymol": "/2RH1_Dichloroisoproterenol_edited_oriented//A/GLY`315/", 
        "ballesteros": "7.42", 
        "centrality_score": 0.25779036827195467, 
        "resname": "Gly"
    }, 
    {
        "resnum": 316, 
        "region_name": "TM", 
        "pymol": "/2RH1_Dichloroisoproterenol_edited_oriented//A/TYR`316/", 
        "ballesteros": "7.43", 
        "centrality_score": 0.28950159066808057, 
        "resname": "Tyr"
    }, 
    {
        "resnum": 317, 
        "region_name": "TM", 
        "pymol": "/2RH1_Dichloroisoproterenol_edited_oriented//A/VAL`317/", 
        "ballesteros": "7.44", 
        "centrality_score": 0.26074498567335241, 
        "resname": "Val"
    }, 
    {
        "resnum": 318, 
        "region_name": "TM", 
        "pymol": "/2RH1_Dichloroisoproterenol_edited_oriented//A/ASN`318/", 
        "ballesteros": "7.45", 
        "centrality_score": 0.27547931382441976, 
        "resname": "Asn"
    }, 
    {
        "resnum": 319, 
        "region_name": "TM", 
        "pymol": "/2RH1_Dichloroisoproterenol_edited_oriented//A/SER`319/", 
        "ballesteros": "7.46", 
        "centrality_score": 0.28173374613003094, 
        "resname": "Ser"
    }, 
    {
        "resnum": 320, 
        "region_name": "TM", 
        "pymol": "/2RH1_Dichloroisoproterenol_edited_oriented//A/GLY`320/", 
        "ballesteros": "7.47", 
        "centrality_score": 0.25490196078431371, 
        "resname": "Gly"
    }, 
    {
        "resnum": 321, 
        "region_name": "TM", 
        "pymol": "/2RH1_Dichloroisoproterenol_edited_oriented//A/PHE`321/", 
        "ballesteros": "7.48", 
        "centrality_score": 0.25730442978322338, 
        "resname": "Phe"
    }, 
    {
        "resnum": 322, 
        "region_name": "TM", 
        "pymol": "/2RH1_Dichloroisoproterenol_edited_oriented//A/ASN`322/", 
        "ballesteros": "7.49", 
        "centrality_score": 0.27575757575757576, 
        "resname": "Asn"
    }, 
    {
        "resnum": 323, 
        "region_name": "TM", 
        "pymol": "/2RH1_Dichloroisoproterenol_edited_oriented//A/PRO`323/", 
        "ballesteros": "7.50", 
        "centrality_score": 0.26790971540726199, 
        "resname": "Pro"
    }, 
    {
        "resnum": 324, 
        "region_name": "TM", 
        "pymol": "/2RH1_Dichloroisoproterenol_edited_oriented//A/LEU`324/", 
        "ballesteros": "7.51", 
        "centrality_score": 0.23135593220338982, 
        "resname": "Leu"
    }, 
    {
        "resnum": 325, 
        "region_name": "TM", 
        "pymol": "/2RH1_Dichloroisoproterenol_edited_oriented//A/ILE`325/", 
        "ballesteros": "7.52", 
        "centrality_score": 0.24594594594594596, 
        "resname": "Ile"
    }, 
    {
        "resnum": 326, 
        "region_name": "TM", 
        "pymol": "/2RH1_Dichloroisoproterenol_edited_oriented//A/TYR`326/", 
        "ballesteros": "7.53", 
        "centrality_score": 0.26376811594202898, 
        "resname": "Tyr"
    }, 
    {
        "resnum": 327, 
        "region_name": "TM", 
        "pymol": "/2RH1_Dichloroisoproterenol_edited_oriented//A/CYS`327/", 
        "ballesteros": "7.54", 
        "centrality_score": 0.23373287671232876, 
        "resname": "Cys"
    }, 
    {
        "resnum": 328, 
        "region_name": "TM", 
        "pymol": "/2RH1_Dichloroisoproterenol_edited_oriented//A/ARG`328/", 
        "ballesteros": "7.55", 
        "centrality_score": 0.22561983471074379, 
        "resname": "Arg"
    }, 
    {
        "resnum": 329, 
        "region_name": "H", 
        "pymol": "/2RH1_Dichloroisoproterenol_edited_oriented//A/SER`329/", 
        "ballesteros": "", 
        "centrality_score": 0.21683876092136617, 
        "resname": "Ser"
    }, 
    {
        "resnum": 330, 
        "region_name": "H", 
        "pymol": "/2RH1_Dichloroisoproterenol_edited_oriented//A/PRO`330/", 
        "ballesteros": "", 
        "centrality_score": 0.19389204545454544, 
        "resname": "Pro"
    }, 
    {
        "resnum": 331, 
        "region_name": "H", 
        "pymol": "/2RH1_Dichloroisoproterenol_edited_oriented//A/ASP`331/", 
        "ballesteros": "", 
        "centrality_score": 0.18762886597938144, 
        "resname": "Asp"
    }, 
    {
        "resnum": 332, 
        "region_name": "H", 
        "pymol": "/2RH1_Dichloroisoproterenol_edited_oriented//A/PHE`332/", 
        "ballesteros": "", 
        "centrality_score": 0.22285714285714286, 
        "resname": "Phe"
    }, 
    {
        "resnum": 333, 
        "region_name": "H", 
        "pymol": "/2RH1_Dichloroisoproterenol_edited_oriented//A/ARG`333/", 
        "ballesteros": "", 
        "centrality_score": 0.21822541966426859, 
        "resname": "Arg"
    }, 
    {
        "resnum": 334, 
        "region_name": "H", 
        "pymol": "/2RH1_Dichloroisoproterenol_edited_oriented//A/ILE`334/", 
        "ballesteros": "", 
        "centrality_score": 0.1875, 
        "resname": "Ile"
    }, 
    {
        "resnum": 335, 
        "region_name": "H", 
        "pymol": "/2RH1_Dichloroisoproterenol_edited_oriented//A/ALA`335/", 
        "ballesteros": "", 
        "centrality_score": 0.20434131736526945, 
        "resname": "Ala"
    }, 
    {
        "resnum": 336, 
        "region_name": "H", 
        "pymol": "/2RH1_Dichloroisoproterenol_edited_oriented//A/PHE`336/", 
        "ballesteros": "", 
        "centrality_score": 0.23759791122715404, 
        "resname": "Phe"
    }, 
    {
        "resnum": 337, 
        "region_name": "H", 
        "pymol": "/2RH1_Dichloroisoproterenol_edited_oriented//A/GLN`337/", 
        "ballesteros": "", 
        "centrality_score": 0.19941563184806427, 
        "resname": "Gln"
    }, 
    {
        "resnum": 338, 
        "region_name": "H", 
        "pymol": "/2RH1_Dichloroisoproterenol_edited_oriented//A/GLU`338/", 
        "ballesteros": "", 
        "centrality_score": 0.19840116279069767, 
        "resname": "Glu"
    }, 
    {
        "resnum": 339, 
        "region_name": "H", 
        "pymol": "/2RH1_Dichloroisoproterenol_edited_oriented//A/LEU`339/", 
        "ballesteros": "", 
        "centrality_score": 0.20342771982116245, 
        "resname": "Leu"
    }, 
    {
        "resnum": 340, 
        "region_name": "H", 
        "pymol": "/2RH1_Dichloroisoproterenol_edited_oriented//A/LEU`340/", 
        "ballesteros": "", 
        "centrality_score": 0.2060377358490566, 
        "resname": "Leu"
    }, 
    {
        "resnum": 341, 
        "region_name": "H", 
        "pymol": "/2RH1_Dichloroisoproterenol_edited_oriented//A/CYS`341/", 
        "ballesteros": "", 
        "centrality_score": 0.17544987146529564, 
        "resname": "Cys"
    }, 
    {
        "resnum": 342, 
        "region_name": "Ct", 
        "pymol": "/2RH1_Dichloroisoproterenol_edited_oriented//A/LEU`342/", 
        "ballesteros": "", 
        "centrality_score": 0.17544987146529564, 
        "resname": "Leu"
    }, 
    {
        "resnum": 900, 
        "region_name": "", 
        "pymol": "/2RH1_Dichloroisoproterenol_edited_oriented///UNK`900/", 
        "ballesteros": "", 
        "centrality_score": 0.29706202393906422, 
        "resname": "Unk"
    }
]