[
    {
        "resnum": 32, 
        "region_name": "TM", 
        "pymol": "/2RH1_Formoterol_edited_oriented//A/TRP`32/", 
        "ballesteros": "1.32", 
        "centrality_score": 0.20388349514563106, 
        "resname": "Trp"
    }, 
    {
        "resnum": 33, 
        "region_name": "TM", 
        "pymol": "/2RH1_Formoterol_edited_oriented//A/VAL`33/", 
        "ballesteros": "1.33", 
        "centrality_score": 0.182, 
        "resname": "Val"
    }, 
    {
        "resnum": 34, 
        "region_name": "TM", 
        "pymol": "/2RH1_Formoterol_edited_oriented//A/VAL`34/", 
        "ballesteros": "1.34", 
        "centrality_score": 0.1822429906542056, 
        "resname": "Val"
    }, 
    {
        "resnum": 35, 
        "region_name": "TM", 
        "pymol": "/2RH1_Formoterol_edited_oriented//A/GLY`35/", 
        "ballesteros": "1.35", 
        "centrality_score": 0.18521031207598371, 
        "resname": "Gly"
    }, 
    {
        "resnum": 36, 
        "region_name": "TM", 
        "pymol": "/2RH1_Formoterol_edited_oriented//A/MET`36/", 
        "ballesteros": "1.36", 
        "centrality_score": 0.21097372488408037, 
        "resname": "Met"
    }, 
    {
        "resnum": 37, 
        "region_name": "TM", 
        "pymol": "/2RH1_Formoterol_edited_oriented//A/GLY`37/", 
        "ballesteros": "1.37", 
        "centrality_score": 0.1932059447983015, 
        "resname": "Gly"
    }, 
    {
        "resnum": 38, 
        "region_name": "TM", 
        "pymol": "/2RH1_Formoterol_edited_oriented//A/ILE`38/", 
        "ballesteros": "1.38", 
        "centrality_score": 0.18558803535010196, 
        "resname": "Ile"
    }, 
    {
        "resnum": 39, 
        "region_name": "TM", 
        "pymol": "/2RH1_Formoterol_edited_oriented//A/VAL`39/", 
        "ballesteros": "1.39", 
        "centrality_score": 0.20760456273764258, 
        "resname": "Val"
    }, 
    {
        "resnum": 40, 
        "region_name": "TM", 
        "pymol": "/2RH1_Formoterol_edited_oriented//A/MET`40/", 
        "ballesteros": "1.40", 
        "centrality_score": 0.23234042553191489, 
        "resname": "Met"
    }, 
    {
        "resnum": 41, 
        "region_name": "TM", 
        "pymol": "/2RH1_Formoterol_edited_oriented//A/SER`41/", 
        "ballesteros": "1.41", 
        "centrality_score": 0.21016166281755197, 
        "resname": "Ser"
    }, 
    {
        "resnum": 42, 
        "region_name": "TM", 
        "pymol": "/2RH1_Formoterol_edited_oriented//A/LEU`42/", 
        "ballesteros": "1.42", 
        "centrality_score": 0.21875, 
        "resname": "Leu"
    }, 
    {
        "resnum": 43, 
        "region_name": "TM", 
        "pymol": "/2RH1_Formoterol_edited_oriented//A/ILE`43/", 
        "ballesteros": "1.43", 
        "centrality_score": 0.25418994413407819, 
        "resname": "Ile"
    }, 
    {
        "resnum": 44, 
        "region_name": "TM", 
        "pymol": "/2RH1_Formoterol_edited_oriented//A/VAL`44/", 
        "ballesteros": "1.44", 
        "centrality_score": 0.23595505617977527, 
        "resname": "Val"
    }, 
    {
        "resnum": 45, 
        "region_name": "TM", 
        "pymol": "/2RH1_Formoterol_edited_oriented//A/LEU`45/", 
        "ballesteros": "1.45", 
        "centrality_score": 0.22506183017312448, 
        "resname": "Leu"
    }, 
    {
        "resnum": 46, 
        "region_name": "TM", 
        "pymol": "/2RH1_Formoterol_edited_oriented//A/ALA`46/", 
        "ballesteros": "1.46", 
        "centrality_score": 0.24288256227758007, 
        "resname": "Ala"
    }, 
    {
        "resnum": 47, 
        "region_name": "TM", 
        "pymol": "/2RH1_Formoterol_edited_oriented//A/ILE`47/", 
        "ballesteros": "1.47", 
        "centrality_score": 0.27659574468085107, 
        "resname": "Ile"
    }, 
    {
        "resnum": 48, 
        "region_name": "TM", 
        "pymol": "/2RH1_Formoterol_edited_oriented//A/VAL`48/", 
        "ballesteros": "1.48", 
        "centrality_score": 0.23905429071803852, 
        "resname": "Val"
    }, 
    {
        "resnum": 49, 
        "region_name": "TM", 
        "pymol": "/2RH1_Formoterol_edited_oriented//A/PHE`49/", 
        "ballesteros": "1.49", 
        "centrality_score": 0.21513002364066194, 
        "resname": "Phe"
    }, 
    {
        "resnum": 50, 
        "region_name": "TM", 
        "pymol": "/2RH1_Formoterol_edited_oriented//A/GLY`50/", 
        "ballesteros": "1.50", 
        "centrality_score": 0.23174872665534804, 
        "resname": "Gly"
    }, 
    {
        "resnum": 51, 
        "region_name": "TM", 
        "pymol": "/2RH1_Formoterol_edited_oriented//A/ASN`51/", 
        "ballesteros": "1.51", 
        "centrality_score": 0.26479146459747815, 
        "resname": "Asn"
    }, 
    {
        "resnum": 52, 
        "region_name": "TM", 
        "pymol": "/2RH1_Formoterol_edited_oriented//A/VAL`52/", 
        "ballesteros": "1.52", 
        "centrality_score": 0.23155216284987276, 
        "resname": "Val"
    }, 
    {
        "resnum": 53, 
        "region_name": "TM", 
        "pymol": "/2RH1_Formoterol_edited_oriented//A/LEU`53/", 
        "ballesteros": "1.53", 
        "centrality_score": 0.23253833049403747, 
        "resname": "Leu"
    }, 
    {
        "resnum": 54, 
        "region_name": "TM", 
        "pymol": "/2RH1_Formoterol_edited_oriented//A/VAL`54/", 
        "ballesteros": "1.54", 
        "centrality_score": 0.25, 
        "resname": "Val"
    }, 
    {
        "resnum": 55, 
        "region_name": "TM", 
        "pymol": "/2RH1_Formoterol_edited_oriented//A/ILE`55/", 
        "ballesteros": "1.55", 
        "centrality_score": 0.24773139745916514, 
        "resname": "Ile"
    }, 
    {
        "resnum": 56, 
        "region_name": "TM", 
        "pymol": "/2RH1_Formoterol_edited_oriented//A/THR`56/", 
        "ballesteros": "1.56", 
        "centrality_score": 0.20903522205206737, 
        "resname": "Thr"
    }, 
    {
        "resnum": 57, 
        "region_name": "TM", 
        "pymol": "/2RH1_Formoterol_edited_oriented//A/ALA`57/", 
        "ballesteros": "1.57", 
        "centrality_score": 0.21770334928229665, 
        "resname": "Ala"
    }, 
    {
        "resnum": 58, 
        "region_name": "TM", 
        "pymol": "/2RH1_Formoterol_edited_oriented//A/ILE`58/", 
        "ballesteros": "1.58", 
        "centrality_score": 0.23273657289002558, 
        "resname": "Ile"
    }, 
    {
        "resnum": 59, 
        "region_name": "TM", 
        "pymol": "/2RH1_Formoterol_edited_oriented//A/ALA`59/", 
        "ballesteros": "1.59", 
        "centrality_score": 0.21546961325966851, 
        "resname": "Ala"
    }, 
    {
        "resnum": 60, 
        "region_name": "TM", 
        "pymol": "/2RH1_Formoterol_edited_oriented//A/LYS`60/", 
        "ballesteros": "1.60", 
        "centrality_score": 0.18879668049792531, 
        "resname": "Lys"
    }, 
    {
        "resnum": 61, 
        "region_name": "IL", 
        "pymol": "/2RH1_Formoterol_edited_oriented//A/PHE`61/", 
        "ballesteros": "", 
        "centrality_score": 0.19569892473118281, 
        "resname": "Phe"
    }, 
    {
        "resnum": 62, 
        "region_name": "IL", 
        "pymol": "/2RH1_Formoterol_edited_oriented//A/GLU`62/", 
        "ballesteros": "", 
        "centrality_score": 0.17590206185567012, 
        "resname": "Glu"
    }, 
    {
        "resnum": 63, 
        "region_name": "IL", 
        "pymol": "/2RH1_Formoterol_edited_oriented//A/ARG`63/", 
        "ballesteros": "", 
        "centrality_score": 0.18622100954979537, 
        "resname": "Arg"
    }, 
    {
        "resnum": 64, 
        "region_name": "IL", 
        "pymol": "/2RH1_Formoterol_edited_oriented//A/LEU`64/", 
        "ballesteros": "", 
        "centrality_score": 0.20177383592017739, 
        "resname": "Leu"
    }, 
    {
        "resnum": 65, 
        "region_name": "IL", 
        "pymol": "/2RH1_Formoterol_edited_oriented//A/GLN`65/", 
        "ballesteros": "", 
        "centrality_score": 0.20526315789473684, 
        "resname": "Gln"
    }, 
    {
        "resnum": 66, 
        "region_name": "IL", 
        "pymol": "/2RH1_Formoterol_edited_oriented//A/THR`66/", 
        "ballesteros": "", 
        "centrality_score": 0.20619335347432025, 
        "resname": "Thr"
    }, 
    {
        "resnum": 67, 
        "region_name": "TM", 
        "pymol": "/2RH1_Formoterol_edited_oriented//A/VAL`67/", 
        "ballesteros": "2.38", 
        "centrality_score": 0.22303921568627452, 
        "resname": "Val"
    }, 
    {
        "resnum": 68, 
        "region_name": "TM", 
        "pymol": "/2RH1_Formoterol_edited_oriented//A/THR`68/", 
        "ballesteros": "2.39", 
        "centrality_score": 0.23293515358361774, 
        "resname": "Thr"
    }, 
    {
        "resnum": 69, 
        "region_name": "TM", 
        "pymol": "/2RH1_Formoterol_edited_oriented//A/ASN`69/", 
        "ballesteros": "2.40", 
        "centrality_score": 0.22960470984020184, 
        "resname": "Asn"
    }, 
    {
        "resnum": 70, 
        "region_name": "TM", 
        "pymol": "/2RH1_Formoterol_edited_oriented//A/TYR`70/", 
        "ballesteros": "2.41", 
        "centrality_score": 0.23234042553191489, 
        "resname": "Tyr"
    }, 
    {
        "resnum": 71, 
        "region_name": "TM", 
        "pymol": "/2RH1_Formoterol_edited_oriented//A/PHE`71/", 
        "ballesteros": "2.42", 
        "centrality_score": 0.25950570342205326, 
        "resname": "Phe"
    }, 
    {
        "resnum": 72, 
        "region_name": "TM", 
        "pymol": "/2RH1_Formoterol_edited_oriented//A/ILE`72/", 
        "ballesteros": "2.43", 
        "centrality_score": 0.26199616122840691, 
        "resname": "Ile"
    }, 
    {
        "resnum": 73, 
        "region_name": "TM", 
        "pymol": "/2RH1_Formoterol_edited_oriented//A/THR`73/", 
        "ballesteros": "2.44", 
        "centrality_score": 0.24661246612466126, 
        "resname": "Thr"
    }, 
    {
        "resnum": 74, 
        "region_name": "TM", 
        "pymol": "/2RH1_Formoterol_edited_oriented//A/SER`74/", 
        "ballesteros": "2.45", 
        "centrality_score": 0.261244019138756, 
        "resname": "Ser"
    }, 
    {
        "resnum": 75, 
        "region_name": "TM", 
        "pymol": "/2RH1_Formoterol_edited_oriented//A/LEU`75/", 
        "ballesteros": "2.46", 
        "centrality_score": 0.2929184549356223, 
        "resname": "Leu"
    }, 
    {
        "resnum": 76, 
        "region_name": "TM", 
        "pymol": "/2RH1_Formoterol_edited_oriented//A/ALA`76/", 
        "ballesteros": "2.47", 
        "centrality_score": 0.25975261655566129, 
        "resname": "Ala"
    }, 
    {
        "resnum": 77, 
        "region_name": "TM", 
        "pymol": "/2RH1_Formoterol_edited_oriented//A/CYS`77/", 
        "ballesteros": "2.48", 
        "centrality_score": 0.26608187134502925, 
        "resname": "Cys"
    }, 
    {
        "resnum": 78, 
        "region_name": "TM", 
        "pymol": "/2RH1_Formoterol_edited_oriented//A/ALA`78/", 
        "ballesteros": "2.49", 
        "centrality_score": 0.27631578947368424, 
        "resname": "Ala"
    }, 
    {
        "resnum": 79, 
        "region_name": "TM", 
        "pymol": "/2RH1_Formoterol_edited_oriented//A/ASP`79/", 
        "ballesteros": "2.50", 
        "centrality_score": 0.28378378378378377, 
        "resname": "Asp"
    }, 
    {
        "resnum": 80, 
        "region_name": "TM", 
        "pymol": "/2RH1_Formoterol_edited_oriented//A/LEU`80/", 
        "ballesteros": "2.51", 
        "centrality_score": 0.26556420233463035, 
        "resname": "Leu"
    }, 
    {
        "resnum": 81, 
        "region_name": "TM", 
        "pymol": "/2RH1_Formoterol_edited_oriented//A/VAL`81/", 
        "ballesteros": "2.52", 
        "centrality_score": 0.27056491575817643, 
        "resname": "Val"
    }, 
    {
        "resnum": 82, 
        "region_name": "TM", 
        "pymol": "/2RH1_Formoterol_edited_oriented//A/MET`82/", 
        "ballesteros": "2.53", 
        "centrality_score": 0.28467153284671531, 
        "resname": "Met"
    }, 
    {
        "resnum": 83, 
        "region_name": "TM", 
        "pymol": "/2RH1_Formoterol_edited_oriented//A/GLY`83/", 
        "ballesteros": "2.54", 
        "centrality_score": 0.25852272727272729, 
        "resname": "Gly"
    }, 
    {
        "resnum": 84, 
        "region_name": "TM", 
        "pymol": "/2RH1_Formoterol_edited_oriented//A/LEU`84/", 
        "ballesteros": "2.55", 
        "centrality_score": 0.2490875912408759, 
        "resname": "Leu"
    }, 
    {
        "resnum": 85, 
        "region_name": "TM", 
        "pymol": "/2RH1_Formoterol_edited_oriented//A/ALA`85/", 
        "ballesteros": "2.56", 
        "centrality_score": 0.24977127172918573, 
        "resname": "Ala"
    }, 
    {
        "resnum": 86, 
        "region_name": "TM", 
        "pymol": "/2RH1_Formoterol_edited_oriented//A/VAL`86/", 
        "ballesteros": "2.57", 
        "centrality_score": 0.26024785510009535, 
        "resname": "Val"
    }, 
    {
        "resnum": 87, 
        "region_name": "TM", 
        "pymol": "/2RH1_Formoterol_edited_oriented//A/VAL`87/", 
        "ballesteros": "2.58", 
        "centrality_score": 0.25657894736842107, 
        "resname": "Val"
    }, 
    {
        "resnum": 88, 
        "region_name": "TM", 
        "pymol": "/2RH1_Formoterol_edited_oriented//A/PRO`88/", 
        "ballesteros": "2.59", 
        "centrality_score": 0.23514211886304909, 
        "resname": "Pro"
    }, 
    {
        "resnum": 89, 
        "region_name": "TM", 
        "pymol": "/2RH1_Formoterol_edited_oriented//A/PHE`89/", 
        "ballesteros": "2.60", 
        "centrality_score": 0.2413793103448276, 
        "resname": "Phe"
    }, 
    {
        "resnum": 90, 
        "region_name": "TM", 
        "pymol": "/2RH1_Formoterol_edited_oriented//A/GLY`90/", 
        "ballesteros": "2.61", 
        "centrality_score": 0.26325940212150434, 
        "resname": "Gly"
    }, 
    {
        "resnum": 91, 
        "region_name": "TM", 
        "pymol": "/2RH1_Formoterol_edited_oriented//A/ALA`91/", 
        "ballesteros": "2.62", 
        "centrality_score": 0.2345360824742268, 
        "resname": "Ala"
    }, 
    {
        "resnum": 92, 
        "region_name": "TM", 
        "pymol": "/2RH1_Formoterol_edited_oriented//A/ALA`92/", 
        "ballesteros": "2.63", 
        "centrality_score": 0.22303921568627452, 
        "resname": "Ala"
    }, 
    {
        "resnum": 93, 
        "region_name": "TM", 
        "pymol": "/2RH1_Formoterol_edited_oriented//A/HIS`93/", 
        "ballesteros": "2.64", 
        "centrality_score": 0.25371747211895912, 
        "resname": "His"
    }, 
    {
        "resnum": 94, 
        "region_name": "TM", 
        "pymol": "/2RH1_Formoterol_edited_oriented//A/ILE`94/", 
        "ballesteros": "2.65", 
        "centrality_score": 0.25161290322580643, 
        "resname": "Ile"
    }, 
    {
        "resnum": 95, 
        "region_name": "TM", 
        "pymol": "/2RH1_Formoterol_edited_oriented//A/LEU`95/", 
        "ballesteros": "2.66", 
        "centrality_score": 0.21394984326018809, 
        "resname": "Leu"
    }, 
    {
        "resnum": 96, 
        "region_name": "TM", 
        "pymol": "/2RH1_Formoterol_edited_oriented//A/MET`96/", 
        "ballesteros": "2.67", 
        "centrality_score": 0.18853591160220995, 
        "resname": "Met"
    }, 
    {
        "resnum": 97, 
        "region_name": "EL", 
        "pymol": "/2RH1_Formoterol_edited_oriented//A/LYS`97/", 
        "ballesteros": "", 
        "centrality_score": 0.20935582822085891, 
        "resname": "Lys"
    }, 
    {
        "resnum": 98, 
        "region_name": "EL", 
        "pymol": "/2RH1_Formoterol_edited_oriented//A/MET`98/", 
        "ballesteros": "", 
        "centrality_score": 0.20666161998485996, 
        "resname": "Met"
    }, 
    {
        "resnum": 99, 
        "region_name": "EL", 
        "pymol": "/2RH1_Formoterol_edited_oriented//A/TRP`99/", 
        "ballesteros": "", 
        "centrality_score": 0.2259933774834437, 
        "resname": "Trp"
    }, 
    {
        "resnum": 100, 
        "region_name": "EL", 
        "pymol": "/2RH1_Formoterol_edited_oriented//A/THR`100/", 
        "ballesteros": "", 
        "centrality_score": 0.18853591160220995, 
        "resname": "Thr"
    }, 
    {
        "resnum": 101, 
        "region_name": "EL", 
        "pymol": "/2RH1_Formoterol_edited_oriented//A/PHE`101/", 
        "ballesteros": "", 
        "centrality_score": 0.21892542101042503, 
        "resname": "Phe"
    }, 
    {
        "resnum": 102, 
        "region_name": "TM", 
        "pymol": "/2RH1_Formoterol_edited_oriented//A/GLY`102/", 
        "ballesteros": "3.21", 
        "centrality_score": 0.19840116279069767, 
        "resname": "Gly"
    }, 
    {
        "resnum": 103, 
        "region_name": "TM", 
        "pymol": "/2RH1_Formoterol_edited_oriented//A/ASN`103/", 
        "ballesteros": "3.22", 
        "centrality_score": 0.19513938527519656, 
        "resname": "Asn"
    }, 
    {
        "resnum": 104, 
        "region_name": "TM", 
        "pymol": "/2RH1_Formoterol_edited_oriented//A/PHE`104/", 
        "ballesteros": "3.23", 
        "centrality_score": 0.19811320754716982, 
        "resname": "Phe"
    }, 
    {
        "resnum": 105, 
        "region_name": "TM", 
        "pymol": "/2RH1_Formoterol_edited_oriented//A/TRP`105/", 
        "ballesteros": "3.24", 
        "centrality_score": 0.23413379073756432, 
        "resname": "Trp"
    }, 
    {
        "resnum": 106, 
        "region_name": "TM", 
        "pymol": "/2RH1_Formoterol_edited_oriented//A/CYS`106/", 
        "ballesteros": "3.25", 
        "centrality_score": 0.22267536704730831, 
        "resname": "Cys"
    }, 
    {
        "resnum": 107, 
        "region_name": "TM", 
        "pymol": "/2RH1_Formoterol_edited_oriented//A/GLU`107/", 
        "ballesteros": "3.26", 
        "centrality_score": 0.21857485988791034, 
        "resname": "Glu"
    }, 
    {
        "resnum": 108, 
        "region_name": "TM", 
        "pymol": "/2RH1_Formoterol_edited_oriented//A/PHE`108/", 
        "ballesteros": "3.27", 
        "centrality_score": 0.23037974683544304, 
        "resname": "Phe"
    }, 
    {
        "resnum": 109, 
        "region_name": "TM", 
        "pymol": "/2RH1_Formoterol_edited_oriented//A/TRP`109/", 
        "ballesteros": "3.28", 
        "centrality_score": 0.26790971540726199, 
        "resname": "Trp"
    }, 
    {
        "resnum": 110, 
        "region_name": "TM", 
        "pymol": "/2RH1_Formoterol_edited_oriented//A/THR`110/", 
        "ballesteros": "3.29", 
        "centrality_score": 0.25207756232686979, 
        "resname": "Thr"
    }, 
    {
        "resnum": 111, 
        "region_name": "TM", 
        "pymol": "/2RH1_Formoterol_edited_oriented//A/SER`111/", 
        "ballesteros": "3.30", 
        "centrality_score": 0.23863636363636365, 
        "resname": "Ser"
    }, 
    {
        "resnum": 112, 
        "region_name": "TM", 
        "pymol": "/2RH1_Formoterol_edited_oriented//A/ILE`112/", 
        "ballesteros": "3.31", 
        "centrality_score": 0.25754716981132075, 
        "resname": "Ile"
    }, 
    {
        "resnum": 113, 
        "region_name": "TM", 
        "pymol": "/2RH1_Formoterol_edited_oriented//A/ASP`113/", 
        "ballesteros": "3.32", 
        "centrality_score": 0.28086419753086422, 
        "resname": "Asp"
    }, 
    {
        "resnum": 114, 
        "region_name": "TM", 
        "pymol": "/2RH1_Formoterol_edited_oriented//A/VAL`114/", 
        "ballesteros": "3.33", 
        "centrality_score": 0.27164179104477609, 
        "resname": "Val"
    }, 
    {
        "resnum": 115, 
        "region_name": "TM", 
        "pymol": "/2RH1_Formoterol_edited_oriented//A/LEU`115/", 
        "ballesteros": "3.34", 
        "centrality_score": 0.26634146341463416, 
        "resname": "Leu"
    }, 
    {
        "resnum": 116, 
        "region_name": "TM", 
        "pymol": "/2RH1_Formoterol_edited_oriented//A/CYS`116/", 
        "ballesteros": "3.35", 
        "centrality_score": 0.28028747433264889, 
        "resname": "Cys"
    }, 
    {
        "resnum": 117, 
        "region_name": "TM", 
        "pymol": "/2RH1_Formoterol_edited_oriented//A/VAL`117/", 
        "ballesteros": "3.36", 
        "centrality_score": 0.30132450331125826, 
        "resname": "Val"
    }, 
    {
        "resnum": 118, 
        "region_name": "TM", 
        "pymol": "/2RH1_Formoterol_edited_oriented//A/THR`118/", 
        "ballesteros": "3.37", 
        "centrality_score": 0.28526645768025077, 
        "resname": "Thr"
    }, 
    {
        "resnum": 119, 
        "region_name": "TM", 
        "pymol": "/2RH1_Formoterol_edited_oriented//A/ALA`119/", 
        "ballesteros": "3.38", 
        "centrality_score": 0.27327327327327328, 
        "resname": "Ala"
    }, 
    {
        "resnum": 120, 
        "region_name": "TM", 
        "pymol": "/2RH1_Formoterol_edited_oriented//A/SER`120/", 
        "ballesteros": "3.39", 
        "centrality_score": 0.29967069154774972, 
        "resname": "Ser"
    }, 
    {
        "resnum": 121, 
        "region_name": "TM", 
        "pymol": "/2RH1_Formoterol_edited_oriented//A/ILE`121/", 
        "ballesteros": "3.40", 
        "centrality_score": 0.28319502074688796, 
        "resname": "Ile"
    }, 
    {
        "resnum": 122, 
        "region_name": "TM", 
        "pymol": "/2RH1_Formoterol_edited_oriented//A/GLU`122/", 
        "ballesteros": "3.41", 
        "centrality_score": 0.27857142857142858, 
        "resname": "Glu"
    }, 
    {
        "resnum": 123, 
        "region_name": "TM", 
        "pymol": "/2RH1_Formoterol_edited_oriented//A/THR`123/", 
        "ballesteros": "3.42", 
        "centrality_score": 0.28000000000000003, 
        "resname": "Thr"
    }, 
    {
        "resnum": 124, 
        "region_name": "TM", 
        "pymol": "/2RH1_Formoterol_edited_oriented//A/LEU`124/", 
        "ballesteros": "3.43", 
        "centrality_score": 0.28378378378378377, 
        "resname": "Leu"
    }, 
    {
        "resnum": 125, 
        "region_name": "TM", 
        "pymol": "/2RH1_Formoterol_edited_oriented//A/CYS`125/", 
        "ballesteros": "3.44", 
        "centrality_score": 0.25975261655566129, 
        "resname": "Cys"
    }, 
    {
        "resnum": 126, 
        "region_name": "TM", 
        "pymol": "/2RH1_Formoterol_edited_oriented//A/VAL`126/", 
        "ballesteros": "3.45", 
        "centrality_score": 0.26427879961277834, 
        "resname": "Val"
    }, 
    {
        "resnum": 127, 
        "region_name": "TM", 
        "pymol": "/2RH1_Formoterol_edited_oriented//A/ILE`127/", 
        "ballesteros": "3.46", 
        "centrality_score": 0.26896551724137929, 
        "resname": "Ile"
    }, 
    {
        "resnum": 128, 
        "region_name": "TM", 
        "pymol": "/2RH1_Formoterol_edited_oriented//A/ALA`128/", 
        "ballesteros": "3.47", 
        "centrality_score": 0.24795640326975477, 
        "resname": "Ala"
    }, 
    {
        "resnum": 129, 
        "region_name": "TM", 
        "pymol": "/2RH1_Formoterol_edited_oriented//A/VAL`129/", 
        "ballesteros": "3.48", 
        "centrality_score": 0.22693266832917705, 
        "resname": "Val"
    }, 
    {
        "resnum": 130, 
        "region_name": "TM", 
        "pymol": "/2RH1_Formoterol_edited_oriented//A/ASP`130/", 
        "ballesteros": "3.49", 
        "centrality_score": 0.24031690140845072, 
        "resname": "Asp"
    }, 
    {
        "resnum": 131, 
        "region_name": "TM", 
        "pymol": "/2RH1_Formoterol_edited_oriented//A/ARG`131/", 
        "ballesteros": "3.50", 
        "centrality_score": 0.23116003386960204, 
        "resname": "Arg"
    }, 
    {
        "resnum": 132, 
        "region_name": "TM", 
        "pymol": "/2RH1_Formoterol_edited_oriented//A/TYR`132/", 
        "ballesteros": "3.51", 
        "centrality_score": 0.21195652173913043, 
        "resname": "Tyr"
    }, 
    {
        "resnum": 133, 
        "region_name": "TM", 
        "pymol": "/2RH1_Formoterol_edited_oriented//A/PHE`133/", 
        "ballesteros": "3.52", 
        "centrality_score": 0.20388349514563106, 
        "resname": "Phe"
    }, 
    {
        "resnum": 134, 
        "region_name": "TM", 
        "pymol": "/2RH1_Formoterol_edited_oriented//A/ALA`134/", 
        "ballesteros": "3.53", 
        "centrality_score": 0.20495495495495494, 
        "resname": "Ala"
    }, 
    {
        "resnum": 135, 
        "region_name": "TM", 
        "pymol": "/2RH1_Formoterol_edited_oriented//A/ILE`135/", 
        "ballesteros": "3.54", 
        "centrality_score": 0.19569892473118281, 
        "resname": "Ile"
    }, 
    {
        "resnum": 136, 
        "region_name": "TM", 
        "pymol": "/2RH1_Formoterol_edited_oriented//A/THR`136/", 
        "ballesteros": "3.55", 
        "centrality_score": 0.18067504963600264, 
        "resname": "Thr"
    }, 
    {
        "resnum": 137, 
        "region_name": "IL", 
        "pymol": "/2RH1_Formoterol_edited_oriented//A/SER`137/", 
        "ballesteros": "", 
        "centrality_score": 0.17738791423001948, 
        "resname": "Ser"
    }, 
    {
        "resnum": 138, 
        "region_name": "IL", 
        "pymol": "/2RH1_Formoterol_edited_oriented//A/PRO`138/", 
        "ballesteros": "", 
        "centrality_score": 0.15626788780767029, 
        "resname": "Pro"
    }, 
    {
        "resnum": 139, 
        "region_name": "IL", 
        "pymol": "/2RH1_Formoterol_edited_oriented//A/PHE`139/", 
        "ballesteros": "", 
        "centrality_score": 0.17556270096463023, 
        "resname": "Phe"
    }, 
    {
        "resnum": 140, 
        "region_name": "IL", 
        "pymol": "/2RH1_Formoterol_edited_oriented//A/LYS`140/", 
        "ballesteros": "", 
        "centrality_score": 0.1746641074856046, 
        "resname": "Lys"
    }, 
    {
        "resnum": 141, 
        "region_name": "IL", 
        "pymol": "/2RH1_Formoterol_edited_oriented//A/TYR`141/", 
        "ballesteros": "", 
        "centrality_score": 0.1961206896551724, 
        "resname": "Tyr"
    }, 
    {
        "resnum": 142, 
        "region_name": "IL", 
        "pymol": "/2RH1_Formoterol_edited_oriented//A/GLN`142/", 
        "ballesteros": "", 
        "centrality_score": 0.17681347150259066, 
        "resname": "Gln"
    }, 
    {
        "resnum": 143, 
        "region_name": "IL", 
        "pymol": "/2RH1_Formoterol_edited_oriented//A/SER`143/", 
        "ballesteros": "", 
        "centrality_score": 0.20776255707762556, 
        "resname": "Ser"
    }, 
    {
        "resnum": 144, 
        "region_name": "IL", 
        "pymol": "/2RH1_Formoterol_edited_oriented//A/LEU`144/", 
        "ballesteros": "", 
        "centrality_score": 0.20132743362831859, 
        "resname": "Leu"
    }, 
    {
        "resnum": 145, 
        "region_name": "IL", 
        "pymol": "/2RH1_Formoterol_edited_oriented//A/LEU`145/", 
        "ballesteros": "", 
        "centrality_score": 0.23214285714285715, 
        "resname": "Leu"
    }, 
    {
        "resnum": 146, 
        "region_name": "IL", 
        "pymol": "/2RH1_Formoterol_edited_oriented//A/THR`146/", 
        "ballesteros": "", 
        "centrality_score": 0.20207253886010362, 
        "resname": "Thr"
    }, 
    {
        "resnum": 147, 
        "region_name": "TM", 
        "pymol": "/2RH1_Formoterol_edited_oriented//A/LYS`147/", 
        "ballesteros": "4.39", 
        "centrality_score": 0.20132743362831859, 
        "resname": "Lys"
    }, 
    {
        "resnum": 148, 
        "region_name": "TM", 
        "pymol": "/2RH1_Formoterol_edited_oriented//A/ASN`148/", 
        "ballesteros": "4.40", 
        "centrality_score": 0.18483412322274881, 
        "resname": "Asn"
    }, 
    {
        "resnum": 149, 
        "region_name": "TM", 
        "pymol": "/2RH1_Formoterol_edited_oriented//A/LYS`149/", 
        "ballesteros": "4.41", 
        "centrality_score": 0.19868995633187772, 
        "resname": "Lys"
    }, 
    {
        "resnum": 150, 
        "region_name": "TM", 
        "pymol": "/2RH1_Formoterol_edited_oriented//A/ALA`150/", 
        "ballesteros": "4.42", 
        "centrality_score": 0.22303921568627452, 
        "resname": "Ala"
    }, 
    {
        "resnum": 151, 
        "region_name": "TM", 
        "pymol": "/2RH1_Formoterol_edited_oriented//A/ARG`151/", 
        "ballesteros": "4.43", 
        "centrality_score": 0.20919540229885059, 
        "resname": "Arg"
    }, 
    {
        "resnum": 152, 
        "region_name": "TM", 
        "pymol": "/2RH1_Formoterol_edited_oriented//A/VAL`152/", 
        "ballesteros": "4.44", 
        "centrality_score": 0.20634920634920634, 
        "resname": "Val"
    }, 
    {
        "resnum": 153, 
        "region_name": "TM", 
        "pymol": "/2RH1_Formoterol_edited_oriented//A/ILE`153/", 
        "ballesteros": "4.45", 
        "centrality_score": 0.23393316195372751, 
        "resname": "Ile"
    }, 
    {
        "resnum": 154, 
        "region_name": "TM", 
        "pymol": "/2RH1_Formoterol_edited_oriented//A/ILE`154/", 
        "ballesteros": "4.46", 
        "centrality_score": 0.2490875912408759, 
        "resname": "Ile"
    }, 
    {
        "resnum": 155, 
        "region_name": "TM", 
        "pymol": "/2RH1_Formoterol_edited_oriented//A/LEU`155/", 
        "ballesteros": "4.47", 
        "centrality_score": 0.22618061309030654, 
        "resname": "Leu"
    }, 
    {
        "resnum": 156, 
        "region_name": "TM", 
        "pymol": "/2RH1_Formoterol_edited_oriented//A/MET`156/", 
        "ballesteros": "4.48", 
        "centrality_score": 0.21770334928229665, 
        "resname": "Met"
    }, 
    {
        "resnum": 157, 
        "region_name": "TM", 
        "pymol": "/2RH1_Formoterol_edited_oriented//A/VAL`157/", 
        "ballesteros": "4.49", 
        "centrality_score": 0.25901328273244784, 
        "resname": "Val"
    }, 
    {
        "resnum": 158, 
        "region_name": "TM", 
        "pymol": "/2RH1_Formoterol_edited_oriented//A/TRP`158/", 
        "ballesteros": "4.50", 
        "centrality_score": 0.27056491575817643, 
        "resname": "Trp"
    }, 
    {
        "resnum": 159, 
        "region_name": "TM", 
        "pymol": "/2RH1_Formoterol_edited_oriented//A/ILE`159/", 
        "ballesteros": "4.51", 
        "centrality_score": 0.22921914357682618, 
        "resname": "Ile"
    }, 
    {
        "resnum": 160, 
        "region_name": "TM", 
        "pymol": "/2RH1_Formoterol_edited_oriented//A/VAL`160/", 
        "ballesteros": "4.52", 
        "centrality_score": 0.23821989528795812, 
        "resname": "Val"
    }, 
    {
        "resnum": 161, 
        "region_name": "TM", 
        "pymol": "/2RH1_Formoterol_edited_oriented//A/SER`161/", 
        "ballesteros": "4.53", 
        "centrality_score": 0.26174496644295303, 
        "resname": "Ser"
    }, 
    {
        "resnum": 162, 
        "region_name": "TM", 
        "pymol": "/2RH1_Formoterol_edited_oriented//A/GLY`162/", 
        "ballesteros": "4.54", 
        "centrality_score": 0.23697916666666666, 
        "resname": "Gly"
    }, 
    {
        "resnum": 163, 
        "region_name": "TM", 
        "pymol": "/2RH1_Formoterol_edited_oriented//A/LEU`163/", 
        "ballesteros": "4.55", 
        "centrality_score": 0.22177091795288384, 
        "resname": "Leu"
    }, 
    {
        "resnum": 164, 
        "region_name": "TM", 
        "pymol": "/2RH1_Formoterol_edited_oriented//A/THR`164/", 
        "ballesteros": "4.56", 
        "centrality_score": 0.25950570342205326, 
        "resname": "Thr"
    }, 
    {
        "resnum": 165, 
        "region_name": "TM", 
        "pymol": "/2RH1_Formoterol_edited_oriented//A/SER`165/", 
        "ballesteros": "4.57", 
        "centrality_score": 0.24616771866546439, 
        "resname": "Ser"
    }, 
    {
        "resnum": 166, 
        "region_name": "TM", 
        "pymol": "/2RH1_Formoterol_edited_oriented//A/PHE`166/", 
        "ballesteros": "4.58", 
        "centrality_score": 0.22979797979797981, 
        "resname": "Phe"
    }, 
    {
        "resnum": 167, 
        "region_name": "TM", 
        "pymol": "/2RH1_Formoterol_edited_oriented//A/LEU`167/", 
        "ballesteros": "4.59", 
        "centrality_score": 0.21805111821086262, 
        "resname": "Leu"
    }, 
    {
        "resnum": 168, 
        "region_name": "TM", 
        "pymol": "/2RH1_Formoterol_edited_oriented//A/PRO`168/", 
        "ballesteros": "4.60", 
        "centrality_score": 0.2345360824742268, 
        "resname": "Pro"
    }, 
    {
        "resnum": 169, 
        "region_name": "TM", 
        "pymol": "/2RH1_Formoterol_edited_oriented//A/ILE`169/", 
        "ballesteros": "4.61", 
        "centrality_score": 0.22999157540016849, 
        "resname": "Ile"
    }, 
    {
        "resnum": 170, 
        "region_name": "TM", 
        "pymol": "/2RH1_Formoterol_edited_oriented//A/GLN`170/", 
        "ballesteros": "4.62", 
        "centrality_score": 0.2083969465648855, 
        "resname": "Gln"
    }, 
    {
        "resnum": 171, 
        "region_name": "EL", 
        "pymol": "/2RH1_Formoterol_edited_oriented//A/MET`171/", 
        "ballesteros": "", 
        "centrality_score": 0.19375443577004969, 
        "resname": "Met"
    }, 
    {
        "resnum": 172, 
        "region_name": "EL", 
        "pymol": "/2RH1_Formoterol_edited_oriented//A/HIS`172/", 
        "ballesteros": "", 
        "centrality_score": 0.20207253886010362, 
        "resname": "His"
    }, 
    {
        "resnum": 173, 
        "region_name": "EL", 
        "pymol": "/2RH1_Formoterol_edited_oriented//A/TRP`173/", 
        "ballesteros": "", 
        "centrality_score": 0.21892542101042503, 
        "resname": "Trp"
    }, 
    {
        "resnum": 174, 
        "region_name": "EL", 
        "pymol": "/2RH1_Formoterol_edited_oriented//A/TYR`174/", 
        "ballesteros": "", 
        "centrality_score": 0.22413793103448276, 
        "resname": "Tyr"
    }, 
    {
        "resnum": 175, 
        "region_name": "EL", 
        "pymol": "/2RH1_Formoterol_edited_oriented//A/ARG`175/", 
        "ballesteros": "", 
        "centrality_score": 0.19430604982206406, 
        "resname": "Arg"
    }, 
    {
        "resnum": 176, 
        "region_name": "EL", 
        "pymol": "/2RH1_Formoterol_edited_oriented//A/ALA`176/", 
        "ballesteros": "", 
        "centrality_score": 0.20619335347432025, 
        "resname": "Ala"
    }, 
    {
        "resnum": 177, 
        "region_name": "EL", 
        "pymol": "/2RH1_Formoterol_edited_oriented//A/THR`177/", 
        "ballesteros": "", 
        "centrality_score": 0.18421052631578946, 
        "resname": "Thr"
    }, 
    {
        "resnum": 178, 
        "region_name": "EL", 
        "pymol": "/2RH1_Formoterol_edited_oriented//A/HIS`178/", 
        "ballesteros": "", 
        "centrality_score": 0.20222222222222222, 
        "resname": "His"
    }, 
    {
        "resnum": 179, 
        "region_name": "EL", 
        "pymol": "/2RH1_Formoterol_edited_oriented//A/GLN`179/", 
        "ballesteros": "", 
        "centrality_score": 0.17202268431001891, 
        "resname": "Gln"
    }, 
    {
        "resnum": 180, 
        "region_name": "EL", 
        "pymol": "/2RH1_Formoterol_edited_oriented//A/GLU`180/", 
        "ballesteros": "", 
        "centrality_score": 0.20014662756598239, 
        "resname": "Glu"
    }, 
    {
        "resnum": 181, 
        "region_name": "EL", 
        "pymol": "/2RH1_Formoterol_edited_oriented//A/ALA`181/", 
        "ballesteros": "", 
        "centrality_score": 0.20088300220750552, 
        "resname": "Ala"
    }, 
    {
        "resnum": 182, 
        "region_name": "EL", 
        "pymol": "/2RH1_Formoterol_edited_oriented//A/ILE`182/", 
        "ballesteros": "", 
        "centrality_score": 0.17578879587894397, 
        "resname": "Ile"
    }, 
    {
        "resnum": 183, 
        "region_name": "EL", 
        "pymol": "/2RH1_Formoterol_edited_oriented//A/ASN`183/", 
        "ballesteros": "", 
        "centrality_score": 0.17322335025380711, 
        "resname": "Asn"
    }, 
    {
        "resnum": 184, 
        "region_name": "EL", 
        "pymol": "/2RH1_Formoterol_edited_oriented//A/CYS`184/", 
        "ballesteros": "", 
        "centrality_score": 0.20634920634920634, 
        "resname": "Cys"
    }, 
    {
        "resnum": 185, 
        "region_name": "EL", 
        "pymol": "/2RH1_Formoterol_edited_oriented//A/TYR`185/", 
        "ballesteros": "", 
        "centrality_score": 0.2088752869166029, 
        "resname": "Tyr"
    }, 
    {
        "resnum": 186, 
        "region_name": "EL", 
        "pymol": "/2RH1_Formoterol_edited_oriented//A/ALA`186/", 
        "ballesteros": "", 
        "centrality_score": 0.18079470198675496, 
        "resname": "Ala"
    }, 
    {
        "resnum": 187, 
        "region_name": "EL", 
        "pymol": "/2RH1_Formoterol_edited_oriented//A/GLU`187/", 
        "ballesteros": "", 
        "centrality_score": 0.18322147651006712, 
        "resname": "Glu"
    }, 
    {
        "resnum": 188, 
        "region_name": "EL", 
        "pymol": "/2RH1_Formoterol_edited_oriented//A/GLU`188/", 
        "ballesteros": "", 
        "centrality_score": 0.19104268719384185, 
        "resname": "Glu"
    }, 
    {
        "resnum": 189, 
        "region_name": "EL", 
        "pymol": "/2RH1_Formoterol_edited_oriented//A/THR`189/", 
        "ballesteros": "", 
        "centrality_score": 0.20903522205206737, 
        "resname": "Thr"
    }, 
    {
        "resnum": 190, 
        "region_name": "EL", 
        "pymol": "/2RH1_Formoterol_edited_oriented//A/CYS`190/", 
        "ballesteros": "", 
        "centrality_score": 0.21361502347417841, 
        "resname": "Cys"
    }, 
    {
        "resnum": 191, 
        "region_name": "EL", 
        "pymol": "/2RH1_Formoterol_edited_oriented//A/CYS`191/", 
        "ballesteros": "", 
        "centrality_score": 0.24683544303797469, 
        "resname": "Cys"
    }, 
    {
        "resnum": 192, 
        "region_name": "EL", 
        "pymol": "/2RH1_Formoterol_edited_oriented//A/ASP`192/", 
        "ballesteros": "", 
        "centrality_score": 0.24931506849315069, 
        "resname": "Asp"
    }, 
    {
        "resnum": 193, 
        "region_name": "EL", 
        "pymol": "/2RH1_Formoterol_edited_oriented//A/PHE`193/", 
        "ballesteros": "", 
        "centrality_score": 0.2556179775280899, 
        "resname": "Phe"
    }, 
    {
        "resnum": 194, 
        "region_name": "EL", 
        "pymol": "/2RH1_Formoterol_edited_oriented//A/PHE`194/", 
        "ballesteros": "", 
        "centrality_score": 0.24550359712230216, 
        "resname": "Phe"
    }, 
    {
        "resnum": 195, 
        "region_name": "EL", 
        "pymol": "/2RH1_Formoterol_edited_oriented//A/THR`195/", 
        "ballesteros": "", 
        "centrality_score": 0.22159090909090909, 
        "resname": "Thr"
    }, 
    {
        "resnum": 196, 
        "region_name": "EL", 
        "pymol": "/2RH1_Formoterol_edited_oriented//A/ASN`196/", 
        "ballesteros": "", 
        "centrality_score": 0.21910112359550563, 
        "resname": "Asn"
    }, 
    {
        "resnum": 197, 
        "region_name": "TM", 
        "pymol": "/2RH1_Formoterol_edited_oriented//A/GLN`197/", 
        "ballesteros": "5.36", 
        "centrality_score": 0.19883466860888566, 
        "resname": "Gln"
    }, 
    {
        "resnum": 198, 
        "region_name": "TM", 
        "pymol": "/2RH1_Formoterol_edited_oriented//A/ALA`198/", 
        "ballesteros": "5.37", 
        "centrality_score": 0.2161520190023753, 
        "resname": "Ala"
    }, 
    {
        "resnum": 199, 
        "region_name": "TM", 
        "pymol": "/2RH1_Formoterol_edited_oriented//A/TYR`199/", 
        "ballesteros": "5.38", 
        "centrality_score": 0.26074498567335241, 
        "resname": "Tyr"
    }, 
    {
        "resnum": 200, 
        "region_name": "TM", 
        "pymol": "/2RH1_Formoterol_edited_oriented//A/ALA`200/", 
        "ballesteros": "5.39", 
        "centrality_score": 0.22826086956521738, 
        "resname": "Ala"
    }, 
    {
        "resnum": 201, 
        "region_name": "TM", 
        "pymol": "/2RH1_Formoterol_edited_oriented//A/ILE`201/", 
        "ballesteros": "5.40", 
        "centrality_score": 0.22123176661264182, 
        "resname": "Ile"
    }, 
    {
        "resnum": 202, 
        "region_name": "TM", 
        "pymol": "/2RH1_Formoterol_edited_oriented//A/ALA`202/", 
        "ballesteros": "5.41", 
        "centrality_score": 0.23096446700507614, 
        "resname": "Ala"
    }, 
    {
        "resnum": 203, 
        "region_name": "TM", 
        "pymol": "/2RH1_Formoterol_edited_oriented//A/SER`203/", 
        "ballesteros": "5.42", 
        "centrality_score": 0.26174496644295303, 
        "resname": "Ser"
    }, 
    {
        "resnum": 204, 
        "region_name": "TM", 
        "pymol": "/2RH1_Formoterol_edited_oriented//A/SER`204/", 
        "ballesteros": "5.43", 
        "centrality_score": 0.26479146459747815, 
        "resname": "Ser"
    }, 
    {
        "resnum": 205, 
        "region_name": "TM", 
        "pymol": "/2RH1_Formoterol_edited_oriented//A/ILE`205/", 
        "ballesteros": "5.44", 
        "centrality_score": 0.23514211886304909, 
        "resname": "Ile"
    }, 
    {
        "resnum": 206, 
        "region_name": "TM", 
        "pymol": "/2RH1_Formoterol_edited_oriented//A/VAL`206/", 
        "ballesteros": "5.45", 
        "centrality_score": 0.25633802816901408, 
        "resname": "Val"
    }, 
    {
        "resnum": 207, 
        "region_name": "TM", 
        "pymol": "/2RH1_Formoterol_edited_oriented//A/SER`207/", 
        "ballesteros": "5.46", 
        "centrality_score": 0.27942681678607983, 
        "resname": "Ser"
    }, 
    {
        "resnum": 208, 
        "region_name": "TM", 
        "pymol": "/2RH1_Formoterol_edited_oriented//A/PHE`208/", 
        "ballesteros": "5.47", 
        "centrality_score": 0.27885597548518898, 
        "resname": "Phe"
    }, 
    {
        "resnum": 209, 
        "region_name": "TM", 
        "pymol": "/2RH1_Formoterol_edited_oriented//A/TYR`209/", 
        "ballesteros": "5.48", 
        "centrality_score": 0.24750679963735267, 
        "resname": "Tyr"
    }, 
    {
        "resnum": 210, 
        "region_name": "TM", 
        "pymol": "/2RH1_Formoterol_edited_oriented//A/VAL`210/", 
        "ballesteros": "5.49", 
        "centrality_score": 0.2259933774834437, 
        "resname": "Val"
    }, 
    {
        "resnum": 211, 
        "region_name": "TM", 
        "pymol": "/2RH1_Formoterol_edited_oriented//A/PRO`211/", 
        "ballesteros": "5.50", 
        "centrality_score": 0.26351351351351349, 
        "resname": "Pro"
    }, 
    {
        "resnum": 212, 
        "region_name": "TM", 
        "pymol": "/2RH1_Formoterol_edited_oriented//A/LEU`212/", 
        "ballesteros": "5.51", 
        "centrality_score": 0.25852272727272729, 
        "resname": "Leu"
    }, 
    {
        "resnum": 213, 
        "region_name": "TM", 
        "pymol": "/2RH1_Formoterol_edited_oriented//A/VAL`213/", 
        "ballesteros": "5.52", 
        "centrality_score": 0.23433476394849787, 
        "resname": "Val"
    }, 
    {
        "resnum": 214, 
        "region_name": "TM", 
        "pymol": "/2RH1_Formoterol_edited_oriented//A/ILE`214/", 
        "ballesteros": "5.53", 
        "centrality_score": 0.23801220575414123, 
        "resname": "Ile"
    }, 
    {
        "resnum": 215, 
        "region_name": "TM", 
        "pymol": "/2RH1_Formoterol_edited_oriented//A/MET`215/", 
        "ballesteros": "5.54", 
        "centrality_score": 0.25585754451733833, 
        "resname": "Met"
    }, 
    {
        "resnum": 216, 
        "region_name": "TM", 
        "pymol": "/2RH1_Formoterol_edited_oriented//A/VAL`216/", 
        "ballesteros": "5.55", 
        "centrality_score": 0.23076923076923078, 
        "resname": "Val"
    }, 
    {
        "resnum": 217, 
        "region_name": "TM", 
        "pymol": "/2RH1_Formoterol_edited_oriented//A/PHE`217/", 
        "ballesteros": "5.56", 
        "centrality_score": 0.21113689095127611, 
        "resname": "Phe"
    }, 
    {
        "resnum": 218, 
        "region_name": "TM", 
        "pymol": "/2RH1_Formoterol_edited_oriented//A/VAL`218/", 
        "ballesteros": "5.57", 
        "centrality_score": 0.22487644151565075, 
        "resname": "Val"
    }, 
    {
        "resnum": 219, 
        "region_name": "TM", 
        "pymol": "/2RH1_Formoterol_edited_oriented//A/TYR`219/", 
        "ballesteros": "5.58", 
        "centrality_score": 0.24594594594594596, 
        "resname": "Tyr"
    }, 
    {
        "resnum": 220, 
        "region_name": "TM", 
        "pymol": "/2RH1_Formoterol_edited_oriented//A/SER`220/", 
        "ballesteros": "5.59", 
        "centrality_score": 0.2072892938496583, 
        "resname": "Ser"
    }, 
    {
        "resnum": 221, 
        "region_name": "TM", 
        "pymol": "/2RH1_Formoterol_edited_oriented//A/ARG`221/", 
        "ballesteros": "5.60", 
        "centrality_score": 0.19306930693069307, 
        "resname": "Arg"
    }, 
    {
        "resnum": 222, 
        "region_name": "TM", 
        "pymol": "/2RH1_Formoterol_edited_oriented//A/VAL`222/", 
        "ballesteros": "5.61", 
        "centrality_score": 0.21361502347417841, 
        "resname": "Val"
    }, 
    {
        "resnum": 223, 
        "region_name": "TM", 
        "pymol": "/2RH1_Formoterol_edited_oriented//A/PHE`223/", 
        "ballesteros": "5.62", 
        "centrality_score": 0.20807926829268292, 
        "resname": "Phe"
    }, 
    {
        "resnum": 224, 
        "region_name": "TM", 
        "pymol": "/2RH1_Formoterol_edited_oriented//A/GLN`224/", 
        "ballesteros": "5.63", 
        "centrality_score": 0.17843137254901961, 
        "resname": "Gln"
    }, 
    {
        "resnum": 225, 
        "region_name": "TM", 
        "pymol": "/2RH1_Formoterol_edited_oriented//A/GLU`225/", 
        "ballesteros": "5.64", 
        "centrality_score": 0.18495934959349594, 
        "resname": "Glu"
    }, 
    {
        "resnum": 226, 
        "region_name": "TM", 
        "pymol": "/2RH1_Formoterol_edited_oriented//A/ALA`226/", 
        "ballesteros": "5.65", 
        "centrality_score": 0.18971507991660877, 
        "resname": "Ala"
    }, 
    {
        "resnum": 227, 
        "region_name": "TM", 
        "pymol": "/2RH1_Formoterol_edited_oriented//A/LYS`227/", 
        "ballesteros": "5.66", 
        "centrality_score": 0.17590206185567012, 
        "resname": "Lys"
    }, 
    {
        "resnum": 266, 
        "region_name": "IL", 
        "pymol": "/2RH1_Formoterol_edited_oriented//A/LEU`266/", 
        "ballesteros": "", 
        "centrality_score": 0.17567567567567569, 
        "resname": "Leu"
    }, 
    {
        "resnum": 267, 
        "region_name": "TM", 
        "pymol": "/2RH1_Formoterol_edited_oriented//A/LYS`267/", 
        "ballesteros": "6.29", 
        "centrality_score": 0.18187874750166555, 
        "resname": "Lys"
    }, 
    {
        "resnum": 268, 
        "region_name": "TM", 
        "pymol": "/2RH1_Formoterol_edited_oriented//A/GLU`268/", 
        "ballesteros": "6.30", 
        "centrality_score": 0.18673050615595074, 
        "resname": "Glu"
    }, 
    {
        "resnum": 269, 
        "region_name": "TM", 
        "pymol": "/2RH1_Formoterol_edited_oriented//A/HIS`269/", 
        "ballesteros": "6.31", 
        "centrality_score": 0.18814610613370089, 
        "resname": "His"
    }, 
    {
        "resnum": 270, 
        "region_name": "TM", 
        "pymol": "/2RH1_Formoterol_edited_oriented//A/LYS`270/", 
        "ballesteros": "6.32", 
        "centrality_score": 0.20297397769516728, 
        "resname": "Lys"
    }, 
    {
        "resnum": 271, 
        "region_name": "TM", 
        "pymol": "/2RH1_Formoterol_edited_oriented//A/ALA`271/", 
        "ballesteros": "6.33", 
        "centrality_score": 0.21146398140975989, 
        "resname": "Ala"
    }, 
    {
        "resnum": 272, 
        "region_name": "TM", 
        "pymol": "/2RH1_Formoterol_edited_oriented//A/LEU`272/", 
        "ballesteros": "6.34", 
        "centrality_score": 0.21980676328502416, 
        "resname": "Leu"
    }, 
    {
        "resnum": 273, 
        "region_name": "TM", 
        "pymol": "/2RH1_Formoterol_edited_oriented//A/LYS`273/", 
        "ballesteros": "6.35", 
        "centrality_score": 0.21016166281755197, 
        "resname": "Lys"
    }, 
    {
        "resnum": 274, 
        "region_name": "TM", 
        "pymol": "/2RH1_Formoterol_edited_oriented//A/THR`274/", 
        "ballesteros": "6.36", 
        "centrality_score": 0.24180690876882197, 
        "resname": "Thr"
    }, 
    {
        "resnum": 275, 
        "region_name": "TM", 
        "pymol": "/2RH1_Formoterol_edited_oriented//A/LEU`275/", 
        "ballesteros": "6.37", 
        "centrality_score": 0.25706214689265539, 
        "resname": "Leu"
    }, 
    {
        "resnum": 276, 
        "region_name": "TM", 
        "pymol": "/2RH1_Formoterol_edited_oriented//A/GLY`276/", 
        "ballesteros": "6.38", 
        "centrality_score": 0.23636363636363636, 
        "resname": "Gly"
    }, 
    {
        "resnum": 277, 
        "region_name": "TM", 
        "pymol": "/2RH1_Formoterol_edited_oriented//A/ILE`277/", 
        "ballesteros": "6.39", 
        "centrality_score": 0.23615916955017302, 
        "resname": "Ile"
    }, 
    {
        "resnum": 278, 
        "region_name": "TM", 
        "pymol": "/2RH1_Formoterol_edited_oriented//A/ILE`278/", 
        "ballesteros": "6.40", 
        "centrality_score": 0.28260869565217389, 
        "resname": "Ile"
    }, 
    {
        "resnum": 279, 
        "region_name": "TM", 
        "pymol": "/2RH1_Formoterol_edited_oriented//A/MET`279/", 
        "ballesteros": "6.41", 
        "centrality_score": 0.27083333333333331, 
        "resname": "Met"
    }, 
    {
        "resnum": 280, 
        "region_name": "TM", 
        "pymol": "/2RH1_Formoterol_edited_oriented//A/GLY`280/", 
        "ballesteros": "6.42", 
        "centrality_score": 0.24116607773851589, 
        "resname": "Gly"
    }, 
    {
        "resnum": 281, 
        "region_name": "TM", 
        "pymol": "/2RH1_Formoterol_edited_oriented//A/THR`281/", 
        "ballesteros": "6.43", 
        "centrality_score": 0.2614942528735632, 
        "resname": "Thr"
    }, 
    {
        "resnum": 282, 
        "region_name": "TM", 
        "pymol": "/2RH1_Formoterol_edited_oriented//A/PHE`282/", 
        "ballesteros": "6.44", 
        "centrality_score": 0.30299667036625971, 
        "resname": "Phe"
    }, 
    {
        "resnum": 283, 
        "region_name": "TM", 
        "pymol": "/2RH1_Formoterol_edited_oriented//A/THR`283/", 
        "ballesteros": "6.45", 
        "centrality_score": 0.26074498567335241, 
        "resname": "Thr"
    }, 
    {
        "resnum": 284, 
        "region_name": "TM", 
        "pymol": "/2RH1_Formoterol_edited_oriented//A/LEU`284/", 
        "ballesteros": "6.46", 
        "centrality_score": 0.24594594594594596, 
        "resname": "Leu"
    }, 
    {
        "resnum": 285, 
        "region_name": "TM", 
        "pymol": "/2RH1_Formoterol_edited_oriented//A/CYS`285/", 
        "ballesteros": "6.47", 
        "centrality_score": 0.27300000000000002, 
        "resname": "Cys"
    }, 
    {
        "resnum": 286, 
        "region_name": "TM", 
        "pymol": "/2RH1_Formoterol_edited_oriented//A/TRP`286/", 
        "ballesteros": "6.48", 
        "centrality_score": 0.3046875, 
        "resname": "Trp"
    }, 
    {
        "resnum": 287, 
        "region_name": "TM", 
        "pymol": "/2RH1_Formoterol_edited_oriented//A/LEU`287/", 
        "ballesteros": "6.49", 
        "centrality_score": 0.25827814569536423, 
        "resname": "Leu"
    }, 
    {
        "resnum": 288, 
        "region_name": "TM", 
        "pymol": "/2RH1_Formoterol_edited_oriented//A/PRO`288/", 
        "ballesteros": "6.50", 
        "centrality_score": 0.25138121546961328, 
        "resname": "Pro"
    }, 
    {
        "resnum": 289, 
        "region_name": "TM", 
        "pymol": "/2RH1_Formoterol_edited_oriented//A/PHE`289/", 
        "ballesteros": "6.51", 
        "centrality_score": 0.26530612244897961, 
        "resname": "Phe"
    }, 
    {
        "resnum": 290, 
        "region_name": "TM", 
        "pymol": "/2RH1_Formoterol_edited_oriented//A/PHE`290/", 
        "ballesteros": "6.52", 
        "centrality_score": 0.27327327327327328, 
        "resname": "Phe"
    }, 
    {
        "resnum": 291, 
        "region_name": "TM", 
        "pymol": "/2RH1_Formoterol_edited_oriented//A/ILE`291/", 
        "ballesteros": "6.53", 
        "centrality_score": 0.23135593220338982, 
        "resname": "Ile"
    }, 
    {
        "resnum": 292, 
        "region_name": "TM", 
        "pymol": "/2RH1_Formoterol_edited_oriented//A/VAL`292/", 
        "ballesteros": "6.54", 
        "centrality_score": 0.22580645161290322, 
        "resname": "Val"
    }, 
    {
        "resnum": 293, 
        "region_name": "TM", 
        "pymol": "/2RH1_Formoterol_edited_oriented//A/ASN`293/", 
        "ballesteros": "6.55", 
        "centrality_score": 0.24572457245724572, 
        "resname": "Asn"
    }, 
    {
        "resnum": 294, 
        "region_name": "TM", 
        "pymol": "/2RH1_Formoterol_edited_oriented//A/ILE`294/", 
        "ballesteros": "6.56", 
        "centrality_score": 0.23194562446898895, 
        "resname": "Ile"
    }, 
    {
        "resnum": 295, 
        "region_name": "TM", 
        "pymol": "/2RH1_Formoterol_edited_oriented//A/VAL`295/", 
        "ballesteros": "6.57", 
        "centrality_score": 0.20000000000000001, 
        "resname": "Val"
    }, 
    {
        "resnum": 296, 
        "region_name": "TM", 
        "pymol": "/2RH1_Formoterol_edited_oriented//A/HIS`296/", 
        "ballesteros": "6.58", 
        "centrality_score": 0.21228615863141523, 
        "resname": "His"
    }, 
    {
        "resnum": 297, 
        "region_name": "TM", 
        "pymol": "/2RH1_Formoterol_edited_oriented//A/VAL`297/", 
        "ballesteros": "6.59", 
        "centrality_score": 0.20919540229885059, 
        "resname": "Val"
    }, 
    {
        "resnum": 298, 
        "region_name": "TM", 
        "pymol": "/2RH1_Formoterol_edited_oriented//A/ILE`298/", 
        "ballesteros": "6.60", 
        "centrality_score": 0.19293286219081271, 
        "resname": "Ile"
    }, 
    {
        "resnum": 299, 
        "region_name": "EL", 
        "pymol": "/2RH1_Formoterol_edited_oriented//A/GLN`299/", 
        "ballesteros": "", 
        "centrality_score": 0.17715768981181051, 
        "resname": "Gln"
    }, 
    {
        "resnum": 300, 
        "region_name": "EL", 
        "pymol": "/2RH1_Formoterol_edited_oriented//A/ASP`300/", 
        "ballesteros": "", 
        "centrality_score": 0.17590206185567012, 
        "resname": "Asp"
    }, 
    {
        "resnum": 301, 
        "region_name": "EL", 
        "pymol": "/2RH1_Formoterol_edited_oriented//A/ASN`301/", 
        "ballesteros": "", 
        "centrality_score": 0.17761873780091086, 
        "resname": "Asn"
    }, 
    {
        "resnum": 302, 
        "region_name": "EL", 
        "pymol": "/2RH1_Formoterol_edited_oriented//A/LEU`302/", 
        "ballesteros": "", 
        "centrality_score": 0.17913385826771652, 
        "resname": "Leu"
    }, 
    {
        "resnum": 303, 
        "region_name": "EL", 
        "pymol": "/2RH1_Formoterol_edited_oriented//A/ILE`303/", 
        "ballesteros": "", 
        "centrality_score": 0.2072892938496583, 
        "resname": "Ile"
    }, 
    {
        "resnum": 304, 
        "region_name": "EL", 
        "pymol": "/2RH1_Formoterol_edited_oriented//A/ARG`304/", 
        "ballesteros": "", 
        "centrality_score": 0.20192307692307693, 
        "resname": "Arg"
    }, 
    {
        "resnum": 305, 
        "region_name": "TM", 
        "pymol": "/2RH1_Formoterol_edited_oriented//A/LYS`305/", 
        "ballesteros": "7.32", 
        "centrality_score": 0.24180690876882197, 
        "resname": "Lys"
    }, 
    {
        "resnum": 306, 
        "region_name": "TM", 
        "pymol": "/2RH1_Formoterol_edited_oriented//A/GLU`306/", 
        "ballesteros": "7.33", 
        "centrality_score": 0.21195652173913043, 
        "resname": "Glu"
    }, 
    {
        "resnum": 307, 
        "region_name": "TM", 
        "pymol": "/2RH1_Formoterol_edited_oriented//A/VAL`307/", 
        "ballesteros": "7.34", 
        "centrality_score": 0.21805111821086262, 
        "resname": "Val"
    }, 
    {
        "resnum": 308, 
        "region_name": "TM", 
        "pymol": "/2RH1_Formoterol_edited_oriented//A/TYR`308/", 
        "ballesteros": "7.35", 
        "centrality_score": 0.24683544303797469, 
        "resname": "Tyr"
    }, 
    {
        "resnum": 309, 
        "region_name": "TM", 
        "pymol": "/2RH1_Formoterol_edited_oriented//A/ILE`309/", 
        "ballesteros": "7.36", 
        "centrality_score": 0.24683544303797469, 
        "resname": "Ile"
    }, 
    {
        "resnum": 310, 
        "region_name": "TM", 
        "pymol": "/2RH1_Formoterol_edited_oriented//A/LEU`310/", 
        "ballesteros": "7.37", 
        "centrality_score": 0.233134073441503, 
        "resname": "Leu"
    }, 
    {
        "resnum": 311, 
        "region_name": "TM", 
        "pymol": "/2RH1_Formoterol_edited_oriented//A/LEU`311/", 
        "ballesteros": "7.38", 
        "centrality_score": 0.24528301886792453, 
        "resname": "Leu"
    }, 
    {
        "resnum": 312, 
        "region_name": "TM", 
        "pymol": "/2RH1_Formoterol_edited_oriented//A/ASN`312/", 
        "ballesteros": "7.39", 
        "centrality_score": 0.26738491674828602, 
        "resname": "Asn"
    }, 
    {
        "resnum": 313, 
        "region_name": "TM", 
        "pymol": "/2RH1_Formoterol_edited_oriented//A/TRP`313/", 
        "ballesteros": "7.40", 
        "centrality_score": 0.26870078740157483, 
        "resname": "Trp"
    }, 
    {
        "resnum": 314, 
        "region_name": "TM", 
        "pymol": "/2RH1_Formoterol_edited_oriented//A/ILE`314/", 
        "ballesteros": "7.41", 
        "centrality_score": 0.26275264677574589, 
        "resname": "Ile"
    }, 
    {
        "resnum": 315, 
        "region_name": "TM", 
        "pymol": "/2RH1_Formoterol_edited_oriented//A/GLY`315/", 
        "ballesteros": "7.42", 
        "centrality_score": 0.25852272727272729, 
        "resname": "Gly"
    }, 
    {
        "resnum": 316, 
        "region_name": "TM", 
        "pymol": "/2RH1_Formoterol_edited_oriented//A/TYR`316/", 
        "ballesteros": "7.43", 
        "centrality_score": 0.29042553191489362, 
        "resname": "Tyr"
    }, 
    {
        "resnum": 317, 
        "region_name": "TM", 
        "pymol": "/2RH1_Formoterol_edited_oriented//A/VAL`317/", 
        "ballesteros": "7.44", 
        "centrality_score": 0.261244019138756, 
        "resname": "Val"
    }, 
    {
        "resnum": 318, 
        "region_name": "TM", 
        "pymol": "/2RH1_Formoterol_edited_oriented//A/ASN`318/", 
        "ballesteros": "7.45", 
        "centrality_score": 0.2777212614445575, 
        "resname": "Asn"
    }, 
    {
        "resnum": 319, 
        "region_name": "TM", 
        "pymol": "/2RH1_Formoterol_edited_oriented//A/SER`319/", 
        "ballesteros": "7.46", 
        "centrality_score": 0.28260869565217389, 
        "resname": "Ser"
    }, 
    {
        "resnum": 320, 
        "region_name": "TM", 
        "pymol": "/2RH1_Formoterol_edited_oriented//A/GLY`320/", 
        "ballesteros": "7.47", 
        "centrality_score": 0.25537885874649202, 
        "resname": "Gly"
    }, 
    {
        "resnum": 321, 
        "region_name": "TM", 
        "pymol": "/2RH1_Formoterol_edited_oriented//A/PHE`321/", 
        "ballesteros": "7.48", 
        "centrality_score": 0.25827814569536423, 
        "resname": "Phe"
    }, 
    {
        "resnum": 322, 
        "region_name": "TM", 
        "pymol": "/2RH1_Formoterol_edited_oriented//A/ASN`322/", 
        "ballesteros": "7.49", 
        "centrality_score": 0.27715736040609135, 
        "resname": "Asn"
    }, 
    {
        "resnum": 323, 
        "region_name": "TM", 
        "pymol": "/2RH1_Formoterol_edited_oriented//A/PRO`323/", 
        "ballesteros": "7.50", 
        "centrality_score": 0.26870078740157483, 
        "resname": "Pro"
    }, 
    {
        "resnum": 324, 
        "region_name": "TM", 
        "pymol": "/2RH1_Formoterol_edited_oriented//A/LEU`324/", 
        "ballesteros": "7.51", 
        "centrality_score": 0.23214285714285715, 
        "resname": "Leu"
    }, 
    {
        "resnum": 325, 
        "region_name": "TM", 
        "pymol": "/2RH1_Formoterol_edited_oriented//A/ILE`325/", 
        "ballesteros": "7.52", 
        "centrality_score": 0.24683544303797469, 
        "resname": "Ile"
    }, 
    {
        "resnum": 326, 
        "region_name": "TM", 
        "pymol": "/2RH1_Formoterol_edited_oriented//A/TYR`326/", 
        "ballesteros": "7.53", 
        "centrality_score": 0.2650485436893204, 
        "resname": "Tyr"
    }, 
    {
        "resnum": 327, 
        "region_name": "TM", 
        "pymol": "/2RH1_Formoterol_edited_oriented//A/CYS`327/", 
        "ballesteros": "7.54", 
        "centrality_score": 0.23433476394849787, 
        "resname": "Cys"
    }, 
    {
        "resnum": 328, 
        "region_name": "TM", 
        "pymol": "/2RH1_Formoterol_edited_oriented//A/ARG`328/", 
        "ballesteros": "7.55", 
        "centrality_score": 0.2263681592039801, 
        "resname": "Arg"
    }, 
    {
        "resnum": 329, 
        "region_name": "H", 
        "pymol": "/2RH1_Formoterol_edited_oriented//A/SER`329/", 
        "ballesteros": "", 
        "centrality_score": 0.21770334928229665, 
        "resname": "Ser"
    }, 
    {
        "resnum": 330, 
        "region_name": "H", 
        "pymol": "/2RH1_Formoterol_edited_oriented//A/PRO`330/", 
        "ballesteros": "", 
        "centrality_score": 0.19444444444444445, 
        "resname": "Pro"
    }, 
    {
        "resnum": 331, 
        "region_name": "H", 
        "pymol": "/2RH1_Formoterol_edited_oriented//A/ASP`331/", 
        "ballesteros": "", 
        "centrality_score": 0.18827586206896552, 
        "resname": "Asp"
    }, 
    {
        "resnum": 332, 
        "region_name": "H", 
        "pymol": "/2RH1_Formoterol_edited_oriented//A/PHE`332/", 
        "ballesteros": "", 
        "centrality_score": 0.22377049180327868, 
        "resname": "Phe"
    }, 
    {
        "resnum": 333, 
        "region_name": "H", 
        "pymol": "/2RH1_Formoterol_edited_oriented//A/ARG`333/", 
        "ballesteros": "", 
        "centrality_score": 0.21910112359550563, 
        "resname": "Arg"
    }, 
    {
        "resnum": 334, 
        "region_name": "H", 
        "pymol": "/2RH1_Formoterol_edited_oriented//A/ILE`334/", 
        "ballesteros": "", 
        "centrality_score": 0.18814610613370089, 
        "resname": "Ile"
    }, 
    {
        "resnum": 335, 
        "region_name": "H", 
        "pymol": "/2RH1_Formoterol_edited_oriented//A/ALA`335/", 
        "ballesteros": "", 
        "centrality_score": 0.20480120030007501, 
        "resname": "Ala"
    }, 
    {
        "resnum": 336, 
        "region_name": "H", 
        "pymol": "/2RH1_Formoterol_edited_oriented//A/PHE`336/", 
        "ballesteros": "", 
        "centrality_score": 0.23821989528795812, 
        "resname": "Phe"
    }, 
    {
        "resnum": 337, 
        "region_name": "H", 
        "pymol": "/2RH1_Formoterol_edited_oriented//A/GLN`337/", 
        "ballesteros": "", 
        "centrality_score": 0.19985358711566617, 
        "resname": "Gln"
    }, 
    {
        "resnum": 338, 
        "region_name": "H", 
        "pymol": "/2RH1_Formoterol_edited_oriented//A/GLU`338/", 
        "ballesteros": "", 
        "centrality_score": 0.19883466860888566, 
        "resname": "Glu"
    }, 
    {
        "resnum": 339, 
        "region_name": "H", 
        "pymol": "/2RH1_Formoterol_edited_oriented//A/LEU`339/", 
        "ballesteros": "", 
        "centrality_score": 0.20388349514563106, 
        "resname": "Leu"
    }, 
    {
        "resnum": 340, 
        "region_name": "H", 
        "pymol": "/2RH1_Formoterol_edited_oriented//A/LEU`340/", 
        "ballesteros": "", 
        "centrality_score": 0.2060377358490566, 
        "resname": "Leu"
    }, 
    {
        "resnum": 341, 
        "region_name": "H", 
        "pymol": "/2RH1_Formoterol_edited_oriented//A/CYS`341/", 
        "ballesteros": "", 
        "centrality_score": 0.17544987146529564, 
        "resname": "Cys"
    }, 
    {
        "resnum": 342, 
        "region_name": "Ct", 
        "pymol": "/2RH1_Formoterol_edited_oriented//A/LEU`342/", 
        "ballesteros": "", 
        "centrality_score": 0.17544987146529564, 
        "resname": "Leu"
    }, 
    {
        "resnum": 900, 
        "region_name": "", 
        "pymol": "/2RH1_Formoterol_edited_oriented///UNK`900/", 
        "ballesteros": "", 
        "centrality_score": 0.30502793296089387, 
        "resname": "Unk"
    }
]