pymol,resnum,resname,region_name,ballesteros,centrality_score
/2RH1_Bevantolol_edited_oriented//A/TRP`32/,32,Trp,TM,1.32,0.203883495146
/2RH1_Bevantolol_edited_oriented//A/VAL`33/,33,Val,TM,1.33,0.182364729459
/2RH1_Bevantolol_edited_oriented//A/VAL`34/,34,Val,TM,1.34,0.182242990654
/2RH1_Bevantolol_edited_oriented//A/GLY`35/,35,Gly,TM,1.35,0.185210312076
/2RH1_Bevantolol_edited_oriented//A/MET`36/,36,Met,TM,1.36,0.210973724884
/2RH1_Bevantolol_edited_oriented//A/GLY`37/,37,Gly,TM,1.37,0.193205944798
/2RH1_Bevantolol_edited_oriented//A/ILE`38/,38,Ile,TM,1.38,0.18558803535
/2RH1_Bevantolol_edited_oriented//A/VAL`39/,39,Val,TM,1.39,0.207604562738
/2RH1_Bevantolol_edited_oriented//A/MET`40/,40,Met,TM,1.40,0.232340425532
/2RH1_Bevantolol_edited_oriented//A/SER`41/,41,Ser,TM,1.41,0.210161662818
/2RH1_Bevantolol_edited_oriented//A/LEU`42/,42,Leu,TM,1.42,0.21875
/2RH1_Bevantolol_edited_oriented//A/ILE`43/,43,Ile,TM,1.43,0.254189944134
/2RH1_Bevantolol_edited_oriented//A/VAL`44/,44,Val,TM,1.44,0.23595505618
/2RH1_Bevantolol_edited_oriented//A/LEU`45/,45,Leu,TM,1.45,0.225061830173
/2RH1_Bevantolol_edited_oriented//A/ALA`46/,46,Ala,TM,1.46,0.242882562278
/2RH1_Bevantolol_edited_oriented//A/ILE`47/,47,Ile,TM,1.47,0.276595744681
/2RH1_Bevantolol_edited_oriented//A/VAL`48/,48,Val,TM,1.48,0.239054290718
/2RH1_Bevantolol_edited_oriented//A/PHE`49/,49,Phe,TM,1.49,0.215130023641
/2RH1_Bevantolol_edited_oriented//A/GLY`50/,50,Gly,TM,1.50,0.231748726655
/2RH1_Bevantolol_edited_oriented//A/ASN`51/,51,Asn,TM,1.51,0.264791464597
/2RH1_Bevantolol_edited_oriented//A/VAL`52/,52,Val,TM,1.52,0.23155216285
/2RH1_Bevantolol_edited_oriented//A/LEU`53/,53,Leu,TM,1.53,0.232538330494
/2RH1_Bevantolol_edited_oriented//A/VAL`54/,54,Val,TM,1.54,0.25
/2RH1_Bevantolol_edited_oriented//A/ILE`55/,55,Ile,TM,1.55,0.247731397459
/2RH1_Bevantolol_edited_oriented//A/THR`56/,56,Thr,TM,1.56,0.209035222052
/2RH1_Bevantolol_edited_oriented//A/ALA`57/,57,Ala,TM,1.57,0.217703349282
/2RH1_Bevantolol_edited_oriented//A/ILE`58/,58,Ile,TM,1.58,0.232340425532
/2RH1_Bevantolol_edited_oriented//A/ALA`59/,59,Ala,TM,1.59,0.21546961326
/2RH1_Bevantolol_edited_oriented//A/LYS`60/,60,Lys,TM,1.60,0.188796680498
/2RH1_Bevantolol_edited_oriented//A/PHE`61/,61,Phe,IL,,0.195418754474
/2RH1_Bevantolol_edited_oriented//A/GLU`62/,62,Glu,IL,,0.175902061856
/2RH1_Bevantolol_edited_oriented//A/ARG`63/,63,Arg,IL,,0.18622100955
/2RH1_Bevantolol_edited_oriented//A/LEU`64/,64,Leu,IL,,0.201327433628
/2RH1_Bevantolol_edited_oriented//A/GLN`65/,65,Gln,IL,,0.205263157895
/2RH1_Bevantolol_edited_oriented//A/THR`66/,66,Thr,IL,,0.206193353474
/2RH1_Bevantolol_edited_oriented//A/VAL`67/,67,Val,TM,2.38,0.222493887531
/2RH1_Bevantolol_edited_oriented//A/THR`68/,68,Thr,TM,2.39,0.232340425532
/2RH1_Bevantolol_edited_oriented//A/ASN`69/,69,Asn,TM,2.40,0.229026845638
/2RH1_Bevantolol_edited_oriented//A/TYR`70/,70,Tyr,TM,2.41,0.232340425532
/2RH1_Bevantolol_edited_oriented//A/PHE`71/,71,Phe,TM,2.42,0.258767772512
/2RH1_Bevantolol_edited_oriented//A/ILE`72/,72,Ile,TM,2.43,0.261494252874
/2RH1_Bevantolol_edited_oriented//A/THR`73/,73,Thr,TM,2.44,0.246612466125
/2RH1_Bevantolol_edited_oriented//A/SER`74/,74,Ser,TM,2.45,0.261244019139
/2RH1_Bevantolol_edited_oriented//A/LEU`75/,75,Leu,TM,2.46,0.292291220557
/2RH1_Bevantolol_edited_oriented//A/ALA`76/,76,Ala,TM,2.47,0.259259259259
/2RH1_Bevantolol_edited_oriented//A/CYS`77/,77,Cys,TM,2.48,0.266081871345
/2RH1_Bevantolol_edited_oriented//A/ALA`78/,78,Ala,TM,2.49,0.276315789474
/2RH1_Bevantolol_edited_oriented//A/ASP`79/,79,Asp,TM,2.50,0.283195020747
/2RH1_Bevantolol_edited_oriented//A/LEU`80/,80,Leu,TM,2.51,0.265564202335
/2RH1_Bevantolol_edited_oriented//A/VAL`81/,81,Val,TM,2.52,0.270564915758
/2RH1_Bevantolol_edited_oriented//A/MET`82/,82,Met,TM,2.53,0.284671532847
/2RH1_Bevantolol_edited_oriented//A/GLY`83/,83,Gly,TM,2.54,0.258522727273
/2RH1_Bevantolol_edited_oriented//A/LEU`84/,84,Leu,TM,2.55,0.249087591241
/2RH1_Bevantolol_edited_oriented//A/ALA`85/,85,Ala,TM,2.56,0.249542961609
/2RH1_Bevantolol_edited_oriented//A/VAL`86/,86,Val,TM,2.57,0.26
/2RH1_Bevantolol_edited_oriented//A/VAL`87/,87,Val,TM,2.58,0.256578947368
/2RH1_Bevantolol_edited_oriented//A/PRO`88/,88,Pro,TM,2.59,0.235142118863
/2RH1_Bevantolol_edited_oriented//A/PHE`89/,89,Phe,TM,2.60,0.241379310345
/2RH1_Bevantolol_edited_oriented//A/GLY`90/,90,Gly,TM,2.61,0.246167718665
/2RH1_Bevantolol_edited_oriented//A/ALA`91/,91,Ala,TM,2.62,0.234536082474
/2RH1_Bevantolol_edited_oriented//A/ALA`92/,92,Ala,TM,2.63,0.223587223587
/2RH1_Bevantolol_edited_oriented//A/HIS`93/,93,His,TM,2.64,0.254426840634
/2RH1_Bevantolol_edited_oriented//A/ILE`94/,94,Ile,TM,2.65,0.251612903226
/2RH1_Bevantolol_edited_oriented//A/LEU`95/,95,Leu,TM,2.66,0.21394984326
/2RH1_Bevantolol_edited_oriented//A/MET`96/,96,Met,TM,2.67,0.18892733564
/2RH1_Bevantolol_edited_oriented//A/LYS`97/,97,Lys,EL,,0.209838585703
/2RH1_Bevantolol_edited_oriented//A/MET`98/,98,Met,EL,,0.207132018209
/2RH1_Bevantolol_edited_oriented//A/TRP`99/,99,Trp,EL,,0.225993377483
/2RH1_Bevantolol_edited_oriented//A/THR`100/,100,Thr,EL,,0.188535911602
/2RH1_Bevantolol_edited_oriented//A/PHE`101/,101,Phe,EL,,0.219453376206
/2RH1_Bevantolol_edited_oriented//A/GLY`102/,102,Gly,TM,3.21,0.198545454545
/2RH1_Bevantolol_edited_oriented//A/ASN`103/,103,Asn,TM,3.22,0.195139385275
/2RH1_Bevantolol_edited_oriented//A/PHE`104/,104,Phe,TM,3.23,0.198113207547
/2RH1_Bevantolol_edited_oriented//A/TRP`105/,105,Trp,TM,3.24,0.234133790738
/2RH1_Bevantolol_edited_oriented//A/CYS`106/,106,Cys,TM,3.25,0.222857142857
/2RH1_Bevantolol_edited_oriented//A/GLU`107/,107,Glu,TM,3.26,0.2184
/2RH1_Bevantolol_edited_oriented//A/PHE`108/,108,Phe,TM,3.27,0.230379746835
/2RH1_Bevantolol_edited_oriented//A/TRP`109/,109,Trp,TM,3.28,0.267647058824
/2RH1_Bevantolol_edited_oriented//A/THR`110/,110,Thr,TM,3.29,0.252077562327
/2RH1_Bevantolol_edited_oriented//A/SER`111/,111,Ser,TM,3.30,0.241166077739
/2RH1_Bevantolol_edited_oriented//A/ILE`112/,112,Ile,TM,3.31,0.257304429783
/2RH1_Bevantolol_edited_oriented//A/ASP`113/,113,Asp,TM,3.32,0.280864197531
/2RH1_Bevantolol_edited_oriented//A/VAL`114/,114,Val,TM,3.33,0.278855975485
/2RH1_Bevantolol_edited_oriented//A/LEU`115/,115,Leu,TM,3.34,0.266081871345
/2RH1_Bevantolol_edited_oriented//A/CYS`116/,116,Cys,TM,3.35,0.280287474333
/2RH1_Bevantolol_edited_oriented//A/VAL`117/,117,Val,TM,3.36,0.302996670366
/2RH1_Bevantolol_edited_oriented//A/THR`118/,118,Thr,TM,3.37,0.284671532847
/2RH1_Bevantolol_edited_oriented//A/ALA`119/,119,Ala,TM,3.38,0.273
/2RH1_Bevantolol_edited_oriented//A/SER`120/,120,Ser,TM,3.39,0.299670691548
/2RH1_Bevantolol_edited_oriented//A/ILE`121/,121,Ile,TM,3.40,0.282024793388
/2RH1_Bevantolol_edited_oriented//A/GLU`122/,122,Glu,TM,3.41,0.277157360406
/2RH1_Bevantolol_edited_oriented//A/THR`123/,123,Thr,TM,3.42,0.279141104294
/2RH1_Bevantolol_edited_oriented//A/LEU`124/,124,Leu,TM,3.43,0.282901554404
/2RH1_Bevantolol_edited_oriented//A/CYS`125/,125,Cys,TM,3.44,0.258522727273
/2RH1_Bevantolol_edited_oriented//A/VAL`126/,126,Val,TM,3.45,0.263005780347
/2RH1_Bevantolol_edited_oriented//A/ILE`127/,127,Ile,TM,3.46,0.268172888016
/2RH1_Bevantolol_edited_oriented//A/ALA`128/,128,Ala,TM,3.47,0.247282608696
/2RH1_Bevantolol_edited_oriented//A/VAL`129/,129,Val,TM,3.48,0.225993377483
/2RH1_Bevantolol_edited_oriented//A/ASP`130/,130,Asp,TM,3.49,0.239473684211
/2RH1_Bevantolol_edited_oriented//A/ARG`131/,131,Arg,TM,3.50,0.230574324324
/2RH1_Bevantolol_edited_oriented//A/TYR`132/,132,Tyr,TM,3.51,0.21146398141
/2RH1_Bevantolol_edited_oriented//A/PHE`133/,133,Phe,TM,3.52,0.203276247208
/2RH1_Bevantolol_edited_oriented//A/ALA`134/,134,Ala,TM,3.53,0.204341317365
/2RH1_Bevantolol_edited_oriented//A/ILE`135/,135,Ile,TM,3.54,0.195278969957
/2RH1_Bevantolol_edited_oriented//A/THR`136/,136,Thr,TM,3.55,0.180317040951
/2RH1_Bevantolol_edited_oriented//A/SER`137/,137,Ser,IL,,0.176928062216
/2RH1_Bevantolol_edited_oriented//A/PRO`138/,138,Pro,IL,,0.156
/2RH1_Bevantolol_edited_oriented//A/PHE`139/,139,Phe,IL,,0.175112251443
/2RH1_Bevantolol_edited_oriented//A/LYS`140/,140,Lys,IL,,0.174218251436
/2RH1_Bevantolol_edited_oriented//A/TYR`141/,141,Tyr,IL,,0.195698924731
/2RH1_Bevantolol_edited_oriented//A/GLN`142/,142,Gln,IL,,0.176356589147
/2RH1_Bevantolol_edited_oriented//A/SER`143/,143,Ser,IL,,0.207132018209
/2RH1_Bevantolol_edited_oriented//A/LEU`144/,144,Leu,IL,,0.200735294118
/2RH1_Bevantolol_edited_oriented//A/LEU`145/,145,Leu,IL,,0.23116003387
/2RH1_Bevantolol_edited_oriented//A/THR`146/,146,Thr,IL,,0.20147601476
/2RH1_Bevantolol_edited_oriented//A/LYS`147/,147,Lys,TM,4.39,0.201327433628
/2RH1_Bevantolol_edited_oriented//A/ASN`148/,148,Asn,TM,4.40,0.184834123223
/2RH1_Bevantolol_edited_oriented//A/LYS`149/,149,Lys,TM,4.41,0.198113207547
/2RH1_Bevantolol_edited_oriented//A/ALA`150/,150,Ala,TM,4.42,0.223039215686
/2RH1_Bevantolol_edited_oriented//A/ARG`151/,151,Arg,TM,4.43,0.209195402299
/2RH1_Bevantolol_edited_oriented//A/VAL`152/,152,Val,TM,4.44,0.206349206349
/2RH1_Bevantolol_edited_oriented//A/ILE`153/,153,Ile,TM,4.45,0.233134073442
/2RH1_Bevantolol_edited_oriented//A/ILE`154/,154,Ile,TM,4.46,0.249087591241
/2RH1_Bevantolol_edited_oriented//A/LEU`155/,155,Leu,TM,4.47,0.22618061309
/2RH1_Bevantolol_edited_oriented//A/MET`156/,156,Met,TM,4.48,0.217529880478
/2RH1_Bevantolol_edited_oriented//A/VAL`157/,157,Val,TM,4.49,0.258034026465
/2RH1_Bevantolol_edited_oriented//A/TRP`158/,158,Trp,TM,4.50,0.270564915758
/2RH1_Bevantolol_edited_oriented//A/ILE`159/,159,Ile,TM,4.51,0.229219143577
/2RH1_Bevantolol_edited_oriented//A/VAL`160/,160,Val,TM,4.52,0.237804878049
/2RH1_Bevantolol_edited_oriented//A/SER`161/,161,Ser,TM,4.53,0.260496183206
/2RH1_Bevantolol_edited_oriented//A/GLY`162/,162,Gly,TM,4.54,0.236773633998
/2RH1_Bevantolol_edited_oriented//A/LEU`163/,163,Leu,TM,4.55,0.221411192214
/2RH1_Bevantolol_edited_oriented//A/THR`164/,164,Thr,TM,4.56,0.259013282732
/2RH1_Bevantolol_edited_oriented//A/SER`165/,165,Ser,TM,4.57,0.245724572457
/2RH1_Bevantolol_edited_oriented//A/PHE`166/,166,Phe,TM,4.58,0.229797979798
/2RH1_Bevantolol_edited_oriented//A/LEU`167/,167,Leu,TM,4.59,0.217877094972
/2RH1_Bevantolol_edited_oriented//A/PRO`168/,168,Pro,TM,4.60,0.234133790738
/2RH1_Bevantolol_edited_oriented//A/ILE`169/,169,Ile,TM,4.61,0.235344827586
/2RH1_Bevantolol_edited_oriented//A/GLN`170/,170,Gln,TM,4.62,0.210161662818
/2RH1_Bevantolol_edited_oriented//A/MET`171/,171,Met,EL,,0.193617021277
/2RH1_Bevantolol_edited_oriented//A/HIS`172/,172,His,EL,,0.204494382022
/2RH1_Bevantolol_edited_oriented//A/TRP`173/,173,Trp,EL,,0.218574859888
/2RH1_Bevantolol_edited_oriented//A/TYR`174/,174,Tyr,EL,,0.223954060705
/2RH1_Bevantolol_edited_oriented//A/ARG`175/,175,Arg,EL,,0.194167852063
/2RH1_Bevantolol_edited_oriented//A/ALA`176/,176,Ala,EL,,0.205882352941
/2RH1_Bevantolol_edited_oriented//A/THR`177/,177,Thr,EL,,0.183962264151
/2RH1_Bevantolol_edited_oriented//A/HIS`178/,178,His,EL,,0.201923076923
/2RH1_Bevantolol_edited_oriented//A/GLN`179/,179,Gln,EL,,0.171806167401
/2RH1_Bevantolol_edited_oriented//A/GLU`180/,180,Glu,EL,,0.177850162866
/2RH1_Bevantolol_edited_oriented//A/ALA`181/,181,Ala,EL,,0.178431372549
/2RH1_Bevantolol_edited_oriented//A/ILE`182/,182,Ile,EL,,0.175675675676
/2RH1_Bevantolol_edited_oriented//A/ASN`183/,183,Asn,EL,,0.173113506658
/2RH1_Bevantolol_edited_oriented//A/CYS`184/,184,Cys,EL,,0.206193353474
/2RH1_Bevantolol_edited_oriented//A/TYR`185/,185,Tyr,EL,,0.20871559633
/2RH1_Bevantolol_edited_oriented//A/ALA`186/,186,Ala,EL,,0.180675049636
/2RH1_Bevantolol_edited_oriented//A/GLU`187/,187,Glu,EL,,0.18322147651
/2RH1_Bevantolol_edited_oriented//A/GLU`188/,188,Glu,EL,,0.191042687194
/2RH1_Bevantolol_edited_oriented//A/THR`189/,189,Thr,EL,,0.209035222052
/2RH1_Bevantolol_edited_oriented//A/CYS`190/,190,Cys,EL,,0.213615023474
/2RH1_Bevantolol_edited_oriented//A/CYS`191/,191,Cys,EL,,0.246612466125
/2RH1_Bevantolol_edited_oriented//A/ASP`192/,192,Asp,EL,,0.249315068493
/2RH1_Bevantolol_edited_oriented//A/PHE`193/,193,Phe,EL,,0.252543940796
/2RH1_Bevantolol_edited_oriented//A/PHE`194/,194,Phe,EL,,0.212121212121
/2RH1_Bevantolol_edited_oriented//A/THR`195/,195,Thr,EL,,0.246612466125
/2RH1_Bevantolol_edited_oriented//A/ASN`196/,196,Asn,EL,,0.21875
/2RH1_Bevantolol_edited_oriented//A/GLN`197/,197,Gln,TM,5.36,0.208875286917
/2RH1_Bevantolol_edited_oriented//A/ALA`198/,198,Ala,TM,5.37,0.21581027668
/2RH1_Bevantolol_edited_oriented//A/TYR`199/,199,Tyr,TM,5.38,0.2602478551
/2RH1_Bevantolol_edited_oriented//A/ALA`200/,200,Ala,TM,5.39,0.247506799637
/2RH1_Bevantolol_edited_oriented//A/ILE`201/,201,Ile,TM,5.40,0.220695230396
/2RH1_Bevantolol_edited_oriented//A/ALA`202/,202,Ala,TM,5.41,0.230574324324
/2RH1_Bevantolol_edited_oriented//A/SER`203/,203,Ser,TM,5.42,0.259752616556
/2RH1_Bevantolol_edited_oriented//A/SER`204/,204,Ser,TM,5.43,0.263259402122
/2RH1_Bevantolol_edited_oriented//A/ILE`205/,205,Ile,TM,5.44,0.234133790738
/2RH1_Bevantolol_edited_oriented//A/VAL`206/,206,Val,TM,5.45,0.254901960784
/2RH1_Bevantolol_edited_oriented//A/SER`207/,207,Ser,TM,5.46,0.276876267748
/2RH1_Bevantolol_edited_oriented//A/PHE`208/,208,Phe,TM,5.47,0.27800407332
/2RH1_Bevantolol_edited_oriented//A/TYR`209/,209,Tyr,TM,5.48,0.246389891697
/2RH1_Bevantolol_edited_oriented//A/VAL`210/,210,Val,TM,5.49,0.225061830173
/2RH1_Bevantolol_edited_oriented//A/PRO`211/,211,Pro,TM,5.50,0.2625
/2RH1_Bevantolol_edited_oriented//A/LEU`212/,212,Leu,TM,5.51,0.257790368272
/2RH1_Bevantolol_edited_oriented//A/VAL`213/,213,Val,TM,5.52,0.233333333333
/2RH1_Bevantolol_edited_oriented//A/ILE`214/,214,Ile,TM,5.53,0.237185056473
/2RH1_Bevantolol_edited_oriented//A/MET`215/,215,Met,TM,5.54,0.255140186916
/2RH1_Bevantolol_edited_oriented//A/VAL`216/,216,Val,TM,5.55,0.23018549747
/2RH1_Bevantolol_edited_oriented//A/PHE`217/,217,Phe,TM,5.56,0.210485736315
/2RH1_Bevantolol_edited_oriented//A/VAL`218/,218,Val,TM,5.57,0.224322103533
/2RH1_Bevantolol_edited_oriented//A/TYR`219/,219,Tyr,TM,5.58,0.245503597122
/2RH1_Bevantolol_edited_oriented//A/SER`220/,220,Ser,TM,5.59,0.206818181818
/2RH1_Bevantolol_edited_oriented//A/ARG`221/,221,Arg,TM,5.60,0.192524682652
/2RH1_Bevantolol_edited_oriented//A/VAL`222/,222,Val,TM,5.61,0.213114754098
/2RH1_Bevantolol_edited_oriented//A/PHE`223/,223,Phe,TM,5.62,0.207762557078
/2RH1_Bevantolol_edited_oriented//A/GLN`224/,224,Gln,TM,5.63,0.178082191781
/2RH1_Bevantolol_edited_oriented//A/GLU`225/,225,Glu,TM,5.64,0.184584178499
/2RH1_Bevantolol_edited_oriented//A/ALA`226/,226,Ala,TM,5.65,0.18932038835
/2RH1_Bevantolol_edited_oriented//A/LYS`227/,227,Lys,TM,5.66,0.175675675676
/2RH1_Bevantolol_edited_oriented//A/LEU`266/,266,Leu,IL,,0.175902061856
/2RH1_Bevantolol_edited_oriented//A/LYS`267/,267,Lys,TM,6.29,0.181878747502
/2RH1_Bevantolol_edited_oriented//A/GLU`268/,268,Glu,TM,6.30,0.186475409836
/2RH1_Bevantolol_edited_oriented//A/HIS`269/,269,His,TM,6.31,0.187887130076
/2RH1_Bevantolol_edited_oriented//A/LYS`270/,270,Lys,TM,6.32,0.203276247208
/2RH1_Bevantolol_edited_oriented//A/ALA`271/,271,Ala,TM,6.33,0.21146398141
/2RH1_Bevantolol_edited_oriented//A/LEU`272/,272,Leu,TM,6.34,0.219453376206
/2RH1_Bevantolol_edited_oriented//A/LYS`273/,273,Lys,TM,6.35,0.210485736315
/2RH1_Bevantolol_edited_oriented//A/THR`274/,274,Thr,TM,6.36,0.242236024845
/2RH1_Bevantolol_edited_oriented//A/LEU`275/,275,Leu,TM,6.37,0.257062146893
/2RH1_Bevantolol_edited_oriented//A/GLY`276/,276,Gly,TM,6.38,0.236773633998
/2RH1_Bevantolol_edited_oriented//A/ILE`277/,277,Ile,TM,6.39,0.236568457539
/2RH1_Bevantolol_edited_oriented//A/ILE`278/,278,Ile,TM,6.40,0.283195020747
/2RH1_Bevantolol_edited_oriented//A/MET`279/,279,Met,TM,6.41,0.271371769384
/2RH1_Bevantolol_edited_oriented//A/GLY`280/,280,Gly,TM,6.42,0.240528634361
/2RH1_Bevantolol_edited_oriented//A/THR`281/,281,Thr,TM,6.43,0.262752646776
/2RH1_Bevantolol_edited_oriented//A/PHE`282/,282,Phe,TM,6.44,0.3046875
/2RH1_Bevantolol_edited_oriented//A/THR`283/,283,Thr,TM,6.45,0.26
/2RH1_Bevantolol_edited_oriented//A/LEU`284/,284,Leu,TM,6.46,0.245503597122
/2RH1_Bevantolol_edited_oriented//A/CYS`285/,285,Cys,TM,6.47,0.27245508982
/2RH1_Bevantolol_edited_oriented//A/TRP`286/,286,Trp,TM,6.48,0.3046875
/2RH1_Bevantolol_edited_oriented//A/LEU`287/,287,Leu,TM,6.49,0.257790368272
/2RH1_Bevantolol_edited_oriented//A/PRO`288/,288,Pro,TM,6.50,0.250919117647
/2RH1_Bevantolol_edited_oriented//A/PHE`289/,289,Phe,TM,6.51,0.264534883721
/2RH1_Bevantolol_edited_oriented//A/PHE`290/,290,Phe,TM,6.52,0.272183449651
/2RH1_Bevantolol_edited_oriented//A/ILE`291/,291,Ile,TM,6.53,0.230769230769
/2RH1_Bevantolol_edited_oriented//A/VAL`292/,292,Val,TM,6.54,0.225619834711
/2RH1_Bevantolol_edited_oriented//A/ASN`293/,293,Asn,TM,6.55,0.244623655914
/2RH1_Bevantolol_edited_oriented//A/ILE`294/,294,Ile,TM,6.56,0.230769230769
/2RH1_Bevantolol_edited_oriented//A/VAL`295/,295,Val,TM,6.57,0.199707388442
/2RH1_Bevantolol_edited_oriented//A/HIS`296/,296,His,TM,6.58,0.212121212121
/2RH1_Bevantolol_edited_oriented//A/VAL`297/,297,Val,TM,6.59,0.20871559633
/2RH1_Bevantolol_edited_oriented//A/ILE`298/,298,Ile,TM,6.60,0.192524682652
/2RH1_Bevantolol_edited_oriented//A/GLN`299/,299,Gln,EL,,0.177042801556
/2RH1_Bevantolol_edited_oriented//A/ASP`300/,300,Asp,EL,,0.175788795879
/2RH1_Bevantolol_edited_oriented//A/ASN`301/,301,Asn,EL,,0.177503250975
/2RH1_Bevantolol_edited_oriented//A/LEU`302/,302,Leu,EL,,0.179016393443
/2RH1_Bevantolol_edited_oriented//A/ILE`303/,303,Ile,EL,,0.207132018209
/2RH1_Bevantolol_edited_oriented//A/ARG`304/,304,Arg,EL,,0.20177383592
/2RH1_Bevantolol_edited_oriented//A/LYS`305/,305,Lys,TM,7.32,0.242021276596
/2RH1_Bevantolol_edited_oriented//A/GLU`306/,306,Glu,TM,7.33,0.212286158631
/2RH1_Bevantolol_edited_oriented//A/VAL`307/,307,Val,TM,7.34,0.218051118211
/2RH1_Bevantolol_edited_oriented//A/TYR`308/,308,Tyr,TM,7.35,0.246612466125
/2RH1_Bevantolol_edited_oriented//A/ILE`309/,309,Ile,TM,7.36,0.246612466125
/2RH1_Bevantolol_edited_oriented//A/LEU`310/,310,Leu,TM,7.37,0.232935153584
/2RH1_Bevantolol_edited_oriented//A/LEU`311/,311,Leu,TM,7.38,0.245283018868
/2RH1_Bevantolol_edited_oriented//A/ASN`312/,312,Asn,TM,7.39,0.267123287671
/2RH1_Bevantolol_edited_oriented//A/TRP`313/,313,Trp,TM,7.40,0.248860528715
/2RH1_Bevantolol_edited_oriented//A/ILE`314/,314,Ile,TM,7.41,0.253953488372
/2RH1_Bevantolol_edited_oriented//A/GLY`315/,315,Gly,TM,7.42,0.258278145695
/2RH1_Bevantolol_edited_oriented//A/TYR`316/,316,Tyr,TM,7.43,0.290425531915
/2RH1_Bevantolol_edited_oriented//A/VAL`317/,317,Val,TM,7.44,0.261244019139
/2RH1_Bevantolol_edited_oriented//A/ASN`318/,318,Asn,TM,7.45,0.277721261445
/2RH1_Bevantolol_edited_oriented//A/SER`319/,319,Ser,TM,7.46,0.282608695652
/2RH1_Bevantolol_edited_oriented//A/GLY`320/,320,Gly,TM,7.47,0.255378858746
/2RH1_Bevantolol_edited_oriented//A/PHE`321/,321,Phe,TM,7.48,0.257790368272
/2RH1_Bevantolol_edited_oriented//A/ASN`322/,322,Asn,TM,7.49,0.27800407332
/2RH1_Bevantolol_edited_oriented//A/PRO`323/,323,Pro,TM,7.50,0.268700787402
/2RH1_Bevantolol_edited_oriented//A/LEU`324/,324,Leu,TM,7.51,0.231748726655
/2RH1_Bevantolol_edited_oriented//A/ILE`325/,325,Ile,TM,7.52,0.247058823529
/2RH1_Bevantolol_edited_oriented//A/TYR`326/,326,Tyr,TM,7.53,0.264534883721
/2RH1_Bevantolol_edited_oriented//A/CYS`327/,327,Cys,TM,7.54,0.234334763948
/2RH1_Bevantolol_edited_oriented//A/ARG`328/,328,Arg,TM,7.55,0.225993377483
/2RH1_Bevantolol_edited_oriented//A/SER`329/,329,Ser,H,,0.217356687898
/2RH1_Bevantolol_edited_oriented//A/PRO`330/,330,Pro,H,,0.194167852063
/2RH1_Bevantolol_edited_oriented//A/ASP`331/,331,Asp,H,,0.188016528926
/2RH1_Bevantolol_edited_oriented//A/PHE`332/,332,Phe,H,,0.223404255319
/2RH1_Bevantolol_edited_oriented//A/ARG`333/,333,Arg,H,,0.21875
/2RH1_Bevantolol_edited_oriented//A/ILE`334/,334,Ile,H,,0.187887130076
/2RH1_Bevantolol_edited_oriented//A/ALA`335/,335,Ala,H,,0.2048012003
/2RH1_Bevantolol_edited_oriented//A/PHE`336/,336,Phe,H,,0.238219895288
/2RH1_Bevantolol_edited_oriented//A/GLN`337/,337,Gln,H,,0.199853587116
/2RH1_Bevantolol_edited_oriented//A/GLU`338/,338,Glu,H,,0.198834668609
/2RH1_Bevantolol_edited_oriented//A/LEU`339/,339,Leu,H,,0.203883495146
/2RH1_Bevantolol_edited_oriented//A/LEU`340/,340,Leu,H,,0.206037735849
/2RH1_Bevantolol_edited_oriented//A/CYS`341/,341,Cys,H,,0.175449871465
/2RH1_Bevantolol_edited_oriented//A/LEU`342/,342,Leu,Ct,,0.175449871465
/2RH1_Bevantolol_edited_oriented///UNK`900/,900,Unk,,,0.304347826087
