pymol,resnum,resname,region_name,ballesteros,centrality_score
/3PDS_eo_nohet//A/TRP`32/,32,Trp,TM,1.32,0.171284634761
/3PDS_eo_nohet//A/VAL`33/,33,Val,TM,1.33,0.183041722746
/3PDS_eo_nohet//A/VAL`34/,34,Val,TM,1.34,0.175144880876
/3PDS_eo_nohet//A/GLY`35/,35,Gly,TM,1.35,0.180251822399
/3PDS_eo_nohet//A/MET`36/,36,Met,TM,1.36,0.205748865356
/3PDS_eo_nohet//A/GLY`37/,37,Gly,TM,1.37,0.191549295775
/3PDS_eo_nohet//A/ILE`38/,38,Ile,TM,1.38,0.190609670638
/3PDS_eo_nohet//A/VAL`39/,39,Val,TM,1.39,0.20133234641
/3PDS_eo_nohet//A/MET`40/,40,Met,TM,1.40,0.22479338843
/3PDS_eo_nohet//A/SER`41/,41,Ser,TM,1.41,0.20178041543
/3PDS_eo_nohet//A/LEU`42/,42,Leu,TM,1.42,0.211016291699
/3PDS_eo_nohet//A/ILE`43/,43,Ile,TM,1.43,0.241563055062
/3PDS_eo_nohet//A/VAL`44/,44,Val,TM,1.44,0.230118443316
/3PDS_eo_nohet//A/LEU`45/,45,Leu,TM,1.45,0.216216216216
/3PDS_eo_nohet//A/ALA`46/,46,Ala,TM,1.46,0.239436619718
/3PDS_eo_nohet//A/ILE`47/,47,Ile,TM,1.47,0.271186440678
/3PDS_eo_nohet//A/VAL`48/,48,Val,TM,1.48,0.235090751945
/3PDS_eo_nohet//A/PHE`49/,49,Phe,TM,1.49,0.214004720692
/3PDS_eo_nohet//A/GLY`50/,50,Gly,TM,1.50,0.232280102477
/3PDS_eo_nohet//A/ASN`51/,51,Asn,TM,1.51,0.26614481409
/3PDS_eo_nohet//A/VAL`52/,52,Val,TM,1.52,0.237347294939
/3PDS_eo_nohet//A/LEU`53/,53,Leu,TM,1.53,0.225352112676
/3PDS_eo_nohet//A/VAL`54/,54,Val,TM,1.54,0.244384546271
/3PDS_eo_nohet//A/ILE`55/,55,Ile,TM,1.55,0.246823956443
/3PDS_eo_nohet//A/THR`56/,56,Thr,TM,1.56,0.207159177456
/3PDS_eo_nohet//A/ALA`57/,57,Ala,TM,1.57,0.2176
/3PDS_eo_nohet//A/ILE`58/,58,Ile,TM,1.58,0.232280102477
/3PDS_eo_nohet//A/ALA`59/,59,Ala,TM,1.59,0.215530903328
/3PDS_eo_nohet//A/LYS`60/,60,Lys,TM,1.60,0.184281842818
/3PDS_eo_nohet//A/PHE`61/,61,Phe,IL,,0.19512195122
/3PDS_eo_nohet//A/GLU`62/,62,Glu,IL,,0.175370728562
/3PDS_eo_nohet//A/ARG`63/,63,Arg,IL,,0.186813186813
/3PDS_eo_nohet//A/LEU`64/,64,Leu,IL,,0.203288490284
/3PDS_eo_nohet//A/GLN`65/,65,Gln,IL,,0.203745318352
/3PDS_eo_nohet//A/THR`66/,66,Thr,IL,,0.204665161776
/3PDS_eo_nohet//A/VAL`67/,67,Val,TM,2.38,0.215701823949
/3PDS_eo_nohet//A/THR`68/,68,Thr,TM,2.39,0.231884057971
/3PDS_eo_nohet//A/ASN`69/,69,Asn,TM,2.40,0.229535864979
/3PDS_eo_nohet//A/TYR`70/,70,Tyr,TM,2.41,0.232081911263
/3PDS_eo_nohet//A/PHE`71/,71,Phe,TM,2.42,0.253023255814
/3PDS_eo_nohet//A/ILE`72/,72,Ile,TM,2.43,0.26103646833
/3PDS_eo_nohet//A/THR`73/,73,Thr,TM,2.44,0.244165170557
/3PDS_eo_nohet//A/SER`74/,74,Ser,TM,2.45,0.25880114177
/3PDS_eo_nohet//A/LEU`75/,75,Leu,TM,2.46,0.27868852459
/3PDS_eo_nohet//A/ALA`76/,76,Ala,TM,2.47,0.260786193672
/3PDS_eo_nohet//A/CYS`77/,77,Cys,TM,2.48,0.264334305151
/3PDS_eo_nohet//A/ALA`78/,78,Ala,TM,2.49,0.282157676349
/3PDS_eo_nohet//A/ASP`79/,79,Asp,TM,2.50,0.279260780287
/3PDS_eo_nohet//A/LEU`80/,80,Leu,TM,2.51,0.271186440678
/3PDS_eo_nohet//A/VAL`81/,81,Val,TM,2.52,0.269306930693
/3PDS_eo_nohet//A/MET`82/,82,Met,TM,2.53,0.283924843424
/3PDS_eo_nohet//A/GLY`83/,83,Gly,TM,2.54,0.257819905213
/3PDS_eo_nohet//A/LEU`84/,84,Leu,TM,2.55,0.254205607477
/3PDS_eo_nohet//A/ALA`85/,85,Ala,TM,2.56,0.236933797909
/3PDS_eo_nohet//A/VAL`86/,86,Val,TM,2.57,0.25468164794
/3PDS_eo_nohet//A/VAL`87/,87,Val,TM,2.58,0.252085264133
/3PDS_eo_nohet//A/PRO`88/,88,Pro,TM,2.59,0.233877901978
/3PDS_eo_nohet//A/PHE`89/,89,Phe,TM,2.60,0.234079173838
/3PDS_eo_nohet//A/GLY`90/,90,Gly,TM,2.61,0.239858906526
/3PDS_eo_nohet//A/ALA`91/,91,Ala,TM,2.62,0.224237427865
/3PDS_eo_nohet//A/ALA`92/,92,Ala,TM,2.63,0.217774219376
/3PDS_eo_nohet//A/CYS`93/,93,Cys,TM,2.64,0.227045075125
/3PDS_eo_nohet//A/ILE`94/,94,Ile,TM,2.65,0.219001610306
/3PDS_eo_nohet//A/LEU`95/,95,Leu,TM,2.66,0.20029455081
/3PDS_eo_nohet//A/MET`96/,96,Met,TM,2.67,0.18797512094
/3PDS_eo_nohet//A/LYS`97/,97,Lys,EL,,0.20073800738
/3PDS_eo_nohet//A/MET`98/,98,Met,EL,,0.193181818182
/3PDS_eo_nohet//A/TRP`99/,99,Trp,EL,,0.222768222768
/3PDS_eo_nohet//A/THR`100/,100,Thr,EL,,0.19020979021
/3PDS_eo_nohet//A/PHE`101/,101,Phe,EL,,0.207159177456
/3PDS_eo_nohet//A/GLY`102/,102,Gly,TM,3.21,0.197244379985
/3PDS_eo_nohet//A/ASN`103/,103,Asn,TM,3.22,0.201630837658
/3PDS_eo_nohet//A/PHE`104/,104,Phe,TM,3.23,0.201183431953
/3PDS_eo_nohet//A/TRP`105/,105,Trp,TM,3.24,0.225165562914
/3PDS_eo_nohet//A/CYS`106/,106,Cys,TM,3.25,0.221678891606
/3PDS_eo_nohet//A/GLU`107/,107,Glu,TM,3.26,0.22024291498
/3PDS_eo_nohet//A/PHE`108/,108,Phe,TM,3.27,0.227996647108
/3PDS_eo_nohet//A/TRP`109/,109,Trp,TM,3.28,0.254443405051
/3PDS_eo_nohet//A/THR`110/,110,Thr,TM,3.29,0.25
/3PDS_eo_nohet//A/SER`111/,111,Ser,TM,3.30,0.238387379492
/3PDS_eo_nohet//A/ILE`112/,112,Ile,TM,3.31,0.258309591643
/3PDS_eo_nohet//A/ASP`113/,113,Asp,TM,3.32,0.281865284974
/3PDS_eo_nohet//A/VAL`114/,114,Val,TM,3.33,0.272272272272
/3PDS_eo_nohet//A/LEU`115/,115,Leu,TM,3.34,0.261790182868
/3PDS_eo_nohet//A/CYS`116/,116,Cys,TM,3.35,0.283628779979
/3PDS_eo_nohet//A/VAL`117/,117,Val,TM,3.36,0.289978678038
/3PDS_eo_nohet//A/THR`118/,118,Thr,TM,3.37,0.265365853659
/3PDS_eo_nohet//A/ALA`119/,119,Ala,TM,3.38,0.26103646833
/3PDS_eo_nohet//A/SER`120/,120,Ser,TM,3.39,0.284221525601
/3PDS_eo_nohet//A/ILE`121/,121,Ile,TM,3.40,0.278118609407
/3PDS_eo_nohet//A/GLU`122/,122,Glu,TM,3.41,0.267453294002
/3PDS_eo_nohet//A/THR`123/,123,Thr,TM,3.42,0.265107212476
/3PDS_eo_nohet//A/LEU`124/,124,Leu,TM,3.43,0.275862068966
/3PDS_eo_nohet//A/CYS`125/,125,Cys,TM,3.44,0.255879586077
/3PDS_eo_nohet//A/VAL`126/,126,Val,TM,3.45,0.25
/3PDS_eo_nohet//A/ILE`127/,127,Ile,TM,3.46,0.260536398467
/3PDS_eo_nohet//A/ALA`128/,128,Ala,TM,3.47,0.241992882562
/3PDS_eo_nohet//A/VAL`129/,129,Val,TM,3.48,0.224237427865
/3PDS_eo_nohet//A/ASP`130/,130,Asp,TM,3.49,0.232677502139
/3PDS_eo_nohet//A/ARG`131/,131,Arg,TM,3.50,0.227045075125
/3PDS_eo_nohet//A/TYR`132/,132,Tyr,TM,3.51,0.209069946195
/3PDS_eo_nohet//A/PHE`133/,133,Phe,TM,3.52,0.205283018868
/3PDS_eo_nohet//A/ALA`134/,134,Ala,TM,3.53,0.200442151805
/3PDS_eo_nohet//A/ILE`135/,135,Ile,TM,3.54,0.193319118692
/3PDS_eo_nohet//A/THR`136/,136,Thr,TM,3.55,0.178360655738
/3PDS_eo_nohet//A/SER`137/,137,Ser,IL,,0.176968119714
/3PDS_eo_nohet//A/PRO`138/,138,Pro,IL,,0.153933220147
/3PDS_eo_nohet//A/PHE`139/,139,Phe,IL,,0.166462668299
/3PDS_eo_nohet//A/LYS`140/,140,Lys,IL,,0.173469387755
/3PDS_eo_nohet//A/TYR`141/,141,Tyr,IL,,0.193456614509
/3PDS_eo_nohet//A/GLN`142/,142,Gln,IL,,0.173913043478
/3PDS_eo_nohet//A/SER`143/,143,Ser,IL,,0.20178041543
/3PDS_eo_nohet//A/LEU`144/,144,Leu,IL,,0.19512195122
/3PDS_eo_nohet//A/LEU`145/,145,Leu,IL,,0.22460776218
/3PDS_eo_nohet//A/THR`146/,146,Thr,IL,,0.195965417867
/3PDS_eo_nohet//A/LYS`147/,147,Lys,TM,4.39,0.197387518142
/3PDS_eo_nohet//A/ASN`148/,148,Asn,TM,4.40,0.182795698925
/3PDS_eo_nohet//A/LYS`149/,149,Lys,TM,4.41,0.194563662375
/3PDS_eo_nohet//A/ALA`150/,150,Ala,TM,4.42,0.219178082192
/3PDS_eo_nohet//A/ARG`151/,151,Arg,TM,4.43,0.210200927357
/3PDS_eo_nohet//A/VAL`152/,152,Val,TM,4.44,0.206060606061
/3PDS_eo_nohet//A/ILE`153/,153,Ile,TM,4.45,0.227805695142
/3PDS_eo_nohet//A/ILE`154/,154,Ile,TM,4.46,0.241992882562
/3PDS_eo_nohet//A/LEU`155/,155,Leu,TM,4.47,0.221859706362
/3PDS_eo_nohet//A/MET`156/,156,Met,TM,4.48,0.215189873418
/3PDS_eo_nohet//A/VAL`157/,157,Val,TM,4.49,0.253258845438
/3PDS_eo_nohet//A/TRP`158/,158,Trp,TM,4.50,0.263565891473
/3PDS_eo_nohet//A/ILE`159/,159,Ile,TM,4.51,0.224979321754
/3PDS_eo_nohet//A/VAL`160/,160,Val,TM,4.52,0.237347294939
/3PDS_eo_nohet//A/SER`161/,161,Ser,TM,4.53,0.249770431589
/3PDS_eo_nohet//A/GLY`162/,162,Gly,TM,4.54,0.232478632479
/3PDS_eo_nohet//A/LEU`163/,163,Leu,TM,4.55,0.223133716161
/3PDS_eo_nohet//A/THR`164/,164,Thr,TM,4.56,0.256120527307
/3PDS_eo_nohet//A/SER`165/,165,Ser,TM,4.57,0.246153846154
/3PDS_eo_nohet//A/PHE`166/,166,Phe,TM,4.58,0.230703986429
/3PDS_eo_nohet//A/LEU`167/,167,Leu,TM,4.59,0.214004720692
/3PDS_eo_nohet//A/PRO`168/,168,Pro,TM,4.60,0.22934232715
/3PDS_eo_nohet//A/ILE`169/,169,Ile,TM,4.61,0.236316246742
/3PDS_eo_nohet//A/GLN`170/,170,Gln,TM,4.62,0.212334113973
/3PDS_eo_nohet//A/MET`171/,171,Met,EL,,0.199121522694
/3PDS_eo_nohet//A/HIS`172/,172,His,EL,,0.208269525268
/3PDS_eo_nohet//A/TRP`173/,173,Trp,EL,,0.211838006231
/3PDS_eo_nohet//A/TYR`174/,174,Tyr,EL,,0.230703986429
/3PDS_eo_nohet//A/ARG`175/,175,Arg,EL,,0.197818181818
/3PDS_eo_nohet//A/ALA`176/,176,Ala,EL,,0.198395331875
/3PDS_eo_nohet//A/THR`177/,177,Thr,EL,,0.182672934856
/3PDS_eo_nohet//A/HIS`178/,178,His,EL,,0.19222614841
/3PDS_eo_nohet//A/GLN`179/,179,Gln,EL,,0.165450121655
/3PDS_eo_nohet//A/GLU`180/,180,Glu,EL,,0.185034013605
/3PDS_eo_nohet//A/ALA`181/,181,Ala,EL,,0.183908045977
/3PDS_eo_nohet//A/ILE`182/,182,Ile,EL,,0.173358827279
/3PDS_eo_nohet//A/ASN`183/,183,Asn,EL,,0.168839230292
/3PDS_eo_nohet//A/CYS`184/,184,Cys,EL,,0.197387518142
/3PDS_eo_nohet//A/TYR`185/,185,Tyr,EL,,0.202080237741
/3PDS_eo_nohet//A/ALA`186/,186,Ala,EL,,0.179894179894
/3PDS_eo_nohet//A/GLU`187/,187,Glu,EL,,0.18073089701
/3PDS_eo_nohet//A/GLU`188/,188,Glu,EL,,0.189944134078
/3PDS_eo_nohet//A/THR`189/,189,Thr,EL,,0.196248196248
/3PDS_eo_nohet//A/CYS`190/,190,Cys,EL,,0.20103473762
/3PDS_eo_nohet//A/CYS`191/,191,Cys,EL,,0.231096006797
/3PDS_eo_nohet//A/ASP`192/,192,Asp,EL,,0.227234753551
/3PDS_eo_nohet//A/PHE`193/,193,Phe,EL,,0.247948951686
/3PDS_eo_nohet//A/PHE`194/,194,Phe,EL,,0.216216216216
/3PDS_eo_nohet//A/THR`195/,195,Thr,EL,,0.226666666667
/3PDS_eo_nohet//A/ASN`196/,196,Asn,EL,,0.212832550861
/3PDS_eo_nohet//A/GLN`197/,197,Gln,TM,5.36,0.198106336489
/3PDS_eo_nohet//A/ALA`198/,198,Ala,TM,5.37,0.204051012753
/3PDS_eo_nohet//A/TYR`199/,199,Tyr,TM,5.38,0.244165170557
/3PDS_eo_nohet//A/ALA`200/,200,Ala,TM,5.39,0.222222222222
/3PDS_eo_nohet//A/ILE`201/,201,Ile,TM,5.40,0.21935483871
/3PDS_eo_nohet//A/ALA`202/,202,Ala,TM,5.41,0.222403924775
/3PDS_eo_nohet//A/SER`203/,203,Ser,TM,5.42,0.251386321627
/3PDS_eo_nohet//A/SER`204/,204,Ser,TM,5.43,0.241777777778
/3PDS_eo_nohet//A/ILE`205/,205,Ile,TM,5.44,0.221318144833
/3PDS_eo_nohet//A/VAL`206/,206,Val,TM,5.45,0.247497725205
/3PDS_eo_nohet//A/SER`207/,207,Ser,TM,5.46,0.270377733598
/3PDS_eo_nohet//A/PHE`208/,208,Phe,TM,5.47,0.270916334661
/3PDS_eo_nohet//A/TYR`209/,209,Tyr,TM,5.48,0.235701906412
/3PDS_eo_nohet//A/VAL`210/,210,Val,TM,5.49,0.225165562914
/3PDS_eo_nohet//A/PRO`211/,211,Pro,TM,5.50,0.253968253968
/3PDS_eo_nohet//A/LEU`212/,212,Leu,TM,5.51,0.249770431589
/3PDS_eo_nohet//A/VAL`213/,213,Val,TM,5.52,0.220064724919
/3PDS_eo_nohet//A/ILE`214/,214,Ile,TM,5.53,0.235497835498
/3PDS_eo_nohet//A/MET`215/,215,Met,TM,5.54,0.264591439689
/3PDS_eo_nohet//A/VAL`216/,216,Val,TM,5.55,0.233076263925
/3PDS_eo_nohet//A/PHE`217/,217,Phe,TM,5.56,0.206844106464
/3PDS_eo_nohet//A/VAL`218/,218,Val,TM,5.57,0.214173228346
/3PDS_eo_nohet//A/TYR`219/,219,Tyr,TM,5.58,0.236316246742
/3PDS_eo_nohet//A/SER`220/,220,Ser,TM,5.59,0.20700152207
/3PDS_eo_nohet//A/ARG`221/,221,Arg,TM,5.60,0.193044712562
/3PDS_eo_nohet//A/VAL`222/,222,Val,TM,5.61,0.208588957055
/3PDS_eo_nohet//A/PHE`223/,223,Phe,TM,5.62,0.203288490284
/3PDS_eo_nohet//A/GLN`224/,224,Gln,TM,5.63,0.179065174457
/3PDS_eo_nohet//A/GLU`225/,225,Glu,TM,5.64,0.184908225697
/3PDS_eo_nohet//A/ALA`226/,226,Ala,TM,5.65,0.187715665977
/3PDS_eo_nohet//A/LYS`227/,227,Lys,TM,5.66,0.173248407643
/3PDS_eo_nohet//A/LEU`266/,266,Leu,IL,,0.173690932312
/3PDS_eo_nohet//A/LYS`267/,267,Lys,TM,6.29,0.179537953795
/3PDS_eo_nohet//A/GLU`268/,268,Glu,TM,6.30,0.185034013605
/3PDS_eo_nohet//A/HIS`269/,269,His,TM,6.31,0.193044712562
/3PDS_eo_nohet//A/LYS`270/,270,Lys,TM,6.32,0.202985074627
/3PDS_eo_nohet//A/ALA`271/,271,Ala,TM,6.33,0.214173228346
/3PDS_eo_nohet//A/LEU`272/,272,Leu,TM,6.34,0.218123496391
/3PDS_eo_nohet//A/LYS`273/,273,Lys,TM,6.35,0.215701823949
/3PDS_eo_nohet//A/THR`274/,274,Thr,TM,6.36,0.240282685512
/3PDS_eo_nohet//A/LEU`275/,275,Leu,TM,6.37,0.253968253968
/3PDS_eo_nohet//A/GLY`276/,276,Gly,TM,6.38,0.232478632479
/3PDS_eo_nohet//A/ILE`277/,277,Ile,TM,6.39,0.241134751773
/3PDS_eo_nohet//A/ILE`278/,278,Ile,TM,6.40,0.271457085828
/3PDS_eo_nohet//A/MET`279/,279,Met,TM,6.41,0.264334305151
/3PDS_eo_nohet//A/GLY`280/,280,Gly,TM,6.42,0.244165170557
/3PDS_eo_nohet//A/THR`281/,281,Thr,TM,6.43,0.269040553907
/3PDS_eo_nohet//A/PHE`282/,282,Phe,TM,6.44,0.29247311828
/3PDS_eo_nohet//A/THR`283/,283,Thr,TM,6.45,0.263056092843
/3PDS_eo_nohet//A/LEU`284/,284,Leu,TM,6.46,0.250460405157
/3PDS_eo_nohet//A/CYS`285/,285,Cys,TM,6.47,0.269841269841
/3PDS_eo_nohet//A/TRP`286/,286,Trp,TM,6.48,0.287526427061
/3PDS_eo_nohet//A/LEU`287/,287,Leu,TM,6.49,0.257088846881
/3PDS_eo_nohet//A/PRO`288/,288,Pro,TM,6.50,0.249084249084
/3PDS_eo_nohet//A/PHE`289/,289,Phe,TM,6.51,0.260536398467
/3PDS_eo_nohet//A/PHE`290/,290,Phe,TM,6.52,0.260536398467
/3PDS_eo_nohet//A/ILE`291/,291,Ile,TM,6.53,0.226101413134
/3PDS_eo_nohet//A/VAL`292/,292,Val,TM,6.54,0.235497835498
/3PDS_eo_nohet//A/ASN`293/,293,Asn,TM,6.55,0.23347639485
/3PDS_eo_nohet//A/ILE`294/,294,Ile,TM,6.56,0.228763666947
/3PDS_eo_nohet//A/VAL`295/,295,Val,TM,6.57,0.203288490284
/3PDS_eo_nohet//A/HIS`296/,296,His,TM,6.58,0.214680347277
/3PDS_eo_nohet//A/VAL`297/,297,Val,TM,6.59,0.199559794571
/3PDS_eo_nohet//A/ILE`298/,298,Ile,TM,6.60,0.19209039548
/3PDS_eo_nohet//A/GLN`299/,299,Gln,EL,,0.182183523108
/3PDS_eo_nohet//A/ASP`300/,300,Asp,EL,,0.183659689399
/3PDS_eo_nohet//A/ASN`301/,301,Asn,EL,,0.191819464034
/3PDS_eo_nohet//A/LEU`302/,302,Leu,EL,,0.184281842818
/3PDS_eo_nohet//A/ILE`303/,303,Ile,EL,,0.209714726291
/3PDS_eo_nohet//A/ARG`304/,304,Arg,EL,,0.200147167035
/3PDS_eo_nohet//A/LYS`305/,305,Lys,TM,7.32,0.210363495746
/3PDS_eo_nohet//A/GLU`306/,306,Glu,TM,7.33,0.204819277108
/3PDS_eo_nohet//A/VAL`307/,307,Val,TM,7.34,0.223133716161
/3PDS_eo_nohet//A/TYR`308/,308,Tyr,TM,7.35,0.241134751773
/3PDS_eo_nohet//A/ILE`309/,309,Ile,TM,7.36,0.23590633131
/3PDS_eo_nohet//A/LEU`310/,310,Leu,TM,7.37,0.232280102477
/3PDS_eo_nohet//A/LEU`311/,311,Leu,TM,7.38,0.253258845438
/3PDS_eo_nohet//A/ASN`312/,312,Asn,TM,7.39,0.264334305151
/3PDS_eo_nohet//A/TRP`313/,313,Trp,TM,7.40,0.248175182482
/3PDS_eo_nohet//A/ILE`314/,314,Ile,TM,7.41,0.257819905213
/3PDS_eo_nohet//A/GLY`315/,315,Gly,TM,7.42,0.264591439689
/3PDS_eo_nohet//A/TYR`316/,316,Tyr,TM,7.43,0.283628779979
/3PDS_eo_nohet//A/VAL`317/,317,Val,TM,7.44,0.258064516129
/3PDS_eo_nohet//A/ASN`318/,318,Asn,TM,7.45,0.280991735537
/3PDS_eo_nohet//A/SER`319/,319,Ser,TM,7.46,0.276703967447
/3PDS_eo_nohet//A/GLY`320/,320,Gly,TM,7.47,0.256120527307
/3PDS_eo_nohet//A/PHE`321/,321,Phe,TM,7.48,0.261538461538
/3PDS_eo_nohet//A/ASN`322/,322,Asn,TM,7.49,0.279835390947
/3PDS_eo_nohet//A/PRO`323/,323,Pro,TM,7.50,0.257332071902
/3PDS_eo_nohet//A/LEU`324/,324,Leu,TM,7.51,0.234887737478
/3PDS_eo_nohet//A/ILE`325/,325,Ile,TM,7.52,0.250922509225
/3PDS_eo_nohet//A/TYR`326/,326,Tyr,TM,7.53,0.263565891473
/3PDS_eo_nohet//A/CYS`327/,327,Cys,TM,7.54,0.234079173838
/3PDS_eo_nohet//A/ARG`328/,328,Arg,TM,7.55,0.230703986429
/3PDS_eo_nohet//A/SER`329/,329,Ser,H,,0.220064724919
/3PDS_eo_nohet//A/PRO`330/,330,Pro,H,,0.20133234641
/3PDS_eo_nohet//A/ASP`331/,331,Asp,H,,0.190076869322
/3PDS_eo_nohet//A/PHE`332/,332,Phe,H,,0.225165562914
/3PDS_eo_nohet//A/ARG`333/,333,Arg,H,,0.207633587786
/3PDS_eo_nohet//A/ILE`334/,334,Ile,H,,0.189415041783
/3PDS_eo_nohet//A/ALA`335/,335,Ala,H,,0.202080237741
/3PDS_eo_nohet//A/PHE`336/,336,Phe,H,,0.233276157804
/3PDS_eo_nohet//A/GLN`337/,337,Gln,H,,0.194563662375
/3PDS_eo_nohet//A/GLU`338/,338,Glu,H,,0.17402431222
/3PDS_eo_nohet//A/LEU`339/,339,Leu,H,,0.198975859546
/3PDS_eo_nohet//A/LEU`340/,340,Leu,H,,0.200886262925
/3PDS_eo_nohet//A/CYS`341/,341,Cys,H,,0.173913043478
/3PDS_eo_nohet//A/LEU`342/,342,Leu,Ct,,0.190743338008
