Residue type,Domain,GPCR index,2RH1_Bevantolol - 2RH1 w/o Ligand,2RH1_BI-167107  -  2RH1 w/o Ligan,2RH1_Dichloroisoproterenol - 2RH1 w/o Ligan,2RH1_Formoterol - - 2RH1 w/o Ligan,2RH1_Isoproterenol - 2RH1 w/o Ligan,2RH1_Pindolol - 2RH1 w/o Ligan,2RH1_Propranolol - 2RH1 w/o Ligan,2RH1_Salbutamol - 2RH1 w/o Ligan
Trp 32,TM1,1.32,0.019226333,0.019226333,0.004926171,0.019226333,-7.29838e-05,-7.29838e-05,-7.29838e-05,0.004926171
Met 36,TM1,1.36,0.016826687,0.016826687,0.002680648,0.016826687,-0.001622355,-0.001622355,-0.001622355,0.002680648
Gly 90,TM2,2.61,0.001343236,0.01843492,0.001343236,0.01843492,0.001565409,0.001343236,0.001343236,0.001343236
His 93,TM2,2.64,0.030189413,0.030189413,0.006142319,0.029480044,0.006142319,0.006142319,0.006142319,0.006142319
Ile 94,TM2,2.65,0.028662084,0.028662084,0.007234678,0.028662084,-9.36768e-05,-9.36768e-05,-9.36768e-05,0.007234678
Leu 95,TM2,2.66,0.018407068,0.018407068,0.004018629,0.018407068,0.000296536,0.000296536,0.000296536,0.004018629
Lys 97,EL1,,0.015274923,0.015274923,0.003119176,0.014792166,0.003119176,0.003119176,0.003119176,0.003119176
Met 98,EL1,,0.020702957,0.020702957,0.00448003,0.020232559,0.00448003,0.00448003,0.00448003,0.00448003
Phe 101,EL1,,0.015555325,0.015555325,0.002763569,0.01502737,0.002763569,0.002763569,0.002763569,0.002763569
Thr 118,TM3,3.37,0.024384452,0.024979376,0.01800038,0.024979376,0.014360806,0.015749319,0.015749319,0.016589186
Glu 122,TM3,3.41,0.015870137,0.016434038,0.010354567,0.017284205,0.007149354,0.008209321,0.008209321,0.009277692
Ala 176,EL2,,0.015805484,0.016116484,0.014264448,0.016116484,-0.000361789,0.013959005,0.013959005,0.014264448
His 178,EL2,,0.016003733,0.016302878,0.014521185,0.016302878,4.79586e-05,0.014227284,0.014227284,0.014521185
Glu 180,EL2,,0.000651466,0.000767405,0.000651466,0.02294793,0.000651466,0.000651466,0.000651466,0.000651466
Ala 181,EL2,,0.000653595,0.000770293,0.000653595,0.023105224,0.000653595,0.000653595,0.000653595,0.000653595
Thr 189,EL2,,0.014888184,0.014888184,0.015048364,0.014888184,0.000852962,0.015048364,0.015048364,0.000852962
Cys 191,EL2,,0.021260353,0.02148333,0.02148333,0.02148333,0.001203904,0.021037779,0.021037779,0.001203904
Asp 192,EL2,,0.029428246,0.029656139,0.001704086,0.029428246,0.001704086,0.001704086,0.001704086,0.001704086
Phe 194,EL2,,0.000283206,0.000448152,0.000283206,0.033665591,0.000944535,0.000283206,0.000283206,0.000283206
Thr 195,EL2,,0.027080586,0.027526943,0.022919274,0.002059029,0.000274883,0.02120886,0.02120886,0.022919274
Tyr 199,TM5,5.38,0.018254973,0.018752103,0.013625095,0.018752103,0.01172459,0.01172459,0.01172459,0.013625095
Ala 200,TM5,5.39,0.025284577,0.025734181,0.021310338,0.006038647,0.019157088,0.019584687,0.019157088,0.02087662
Ser 203,TM5,5.42,0.025471824,0.025967063,0.021337185,0.027464174,0.018496985,0.018731256,0.018731256,0.020383387
Ser 204,TM5,5.43,0.01996781,0.020731619,0.014742434,0.021499872,0.011372587,0.012565952,0.012565952,0.013528728
Ile 205,TM5,5.44,0.016010294,0.016412586,0.012062001,0.017018622,0.009756303,0.01051972,0.01051972,0.011288268
Val 206,TM5,5.45,0.020621168,0.021098066,0.016177923,0.022057236,0.013450605,0.014126851,0.014126851,0.015490479
Ser 207,TM5,5.46,0.017086392,0.017649149,0.011043457,0.019636941,0.007595041,0.008910912,0.008910912,0.011581894
Pro 211,TM5,5.50,0.015002275,0.015508055,0.009564422,0.016015788,0.006455763,0.007642462,0.007642462,0.008359819
Phe 289,TM6,6.51,0.015222326,0.015478907,0.010935298,0.015993565,0.009700725,0.010935298,0.010935298,0.009700725
Phe 290,TM6,6.52,0.015579676,0.016123499,0.00973769,0.0166695,0.006655629,0.00793111,0.00793111,0.00973769
Asn 293,TM6,6.55,0.015281329,0.015720509,0.010763214,0.016382245,0.009711964,0.010763214,0.010763214,0.009711964
Lys 305,TM7,7.32,0.034862099,0.035076847,0.005623363,0.034647731,0.005623363,0.005623363,0.005623363,0.005623363
Ile 309,TM7,7.36,0.016494023,0.016494023,0.016494023,0.016717,-0.000320464,-0.000320464,-0.000320464,0.016271448
Trp 313,TM7,7.40,0.00491434,0.024754599,0.00491434,0.024754599,0.00491434,0.00491434,0.00491434,0.00491434
Ile 314,TM7,7.41,0.007129532,0.015676044,0.007129532,0.01592869,0.007129532,0.007129532,0.007129532,0.007129532
