Trp 32,TM1,1.32,0.019226333,0.019226333,0.004926171,0.019226333,-7.29838E-05,-7.29838E-05,-7.29838E-05,0.004926171
Val 33,TM1,1.33,0.010321719,0.010321719,0.001731655,0.009956989,0.001731655,0.001731655,0.001731655,0.001731655
Val 34,TM1,1.34,0.011388719,0.011388719,0.002039966,0.011388719,-0.001183668,-0.001183668,-0.001183668,0.002039966
Gly 35,TM1,1.35,0.008701552,0.008701552,0.001457341,0.008701552,0.001457341,0.001457341,0.001457341,0.001457341
Met 36,TM1,1.36,0.016826687,0.016826687,0.002680648,0.016826687,-0.001622355,-0.001622355,-0.001622355,0.002680648
Gly 37,TM1,1.37,0.005878121,0.005878121,-0.000852414,0.005878121,-0.000852414,-0.000852414,-0.000852414,-0.000852414
Ile 38,TM1,1.38,0.002299626,0.002299626,0.002299626,0.002299626,0.002299626,0.002299626,0.002299626,0.002299626
Val 39,TM1,1.39,0.003859244,0.003859244,0.003859244,0.003859244,0.003859244,0.003859244,0.003859244,0.003859244
Met 40,TM1,1.40,0.008287707,0.008287707,-0.001377351,0.008287707,-0.001377351,-0.001377351,-0.001377351,-0.001377351
Ser 41,TM1,1.41,0.00778071,0.00778071,0.001807529,0.00778071,0.001807529,0.001807529,0.001807529,0.001807529
Leu 42,TM1,1.42,0.004069653,0.004069653,0.003719653,0.004069653,0.003719653,0.003719653,0.003719653,0.003719653
Ile 43,TM1,1.43,0.006692219,0.006692219,0.006219747,0.006692219,0.006219747,0.006219747,0.006219747,0.006219747
Val 44,TM1,1.44,0.003277554,0.003277554,0.003277554,0.003277554,0.003277554,0.003277554,0.003277554,0.003277554
Leu 45,TM1,1.45,0.00410326,0.00410326,0.003732788,0.00410326,0.003732788,0.003732788,0.003732788,0.003732788
Ala 46,TM1,1.46,0.004076592,0.004076592,0.003645184,0.004076592,0.003645184,0.003645184,0.003645184,0.003645184
Ile 47,TM1,1.47,0.005409304,0.005409304,0.004571135,0.005409304,0.004571135,0.004571135,0.004571135,0.004571135
Val 48,TM1,1.48,0.004571532,0.004571532,0.004362386,0.004571532,0.004362386,0.004362386,0.004362386,0.004362386
Phe 49,TM1,1.49,0.003292017,0.003292017,0.003292017,0.003292017,0.003292017,0.003292017,0.003292017,0.003292017
Gly 50,TM1,1.50,0.002599611,0.002599611,0.002206817,0.002599611,0.002206817,0.002206817,0.002206817,0.002206817
Asn 51,TM1,1.51,-0.006936807,-0.006936807,-0.007705061,-0.006936807,-0.007705061,-0.007705061,-0.007705061,-0.007705061
Val 52,TM1,1.52,-0.003945673,-0.003945673,-0.004141903,-0.003945673,-0.004141903,-0.004141903,-0.004141903,-0.004141903
Leu 53,TM1,1.53,0.003196003,0.003196003,0.002603297,0.003196003,0.002603297,0.002603297,0.002603297,0.002603297
Val 54,TM1,1.54,0.004290876,0.004290876,0.003605945,0.004290876,0.003605945,0.003605945,0.003605945,0.003605945
Ile 55,TM1,1.55,0.001354586,0.001354586,0.001129988,0.001354586,0.001129988,0.001129988,0.001129988,0.001129988
Thr 56,TM1,1.56,0.001243014,0.001243014,0.001083079,0.001243014,0.001083079,0.001083079,0.001083079,0.001083079
Ala 57,TM1,1.57,0.00114284,0.00114284,0.000969371,0.00114284,0.000969371,0.000969371,0.000969371,0.000969371
Ile 58,TM1,1.58,0.000456368,0.000456368,0.000258799,0.000852515,0.000258799,0.000258799,0.000258799,0.000258799
Ala 59,TM1,1.59,0.004780225,0.004780225,0.004610296,0.004780225,0.004610296,0.004610296,0.004610296,0.004610296
Lys 60,TM1,1.60,0.00082156,0.00082156,0.000691085,0.00082156,0.000691085,0.000691085,0.000691085,0.000691085
Phe 61,IL1,,0.000436676,0.000436676,0.000296891,0.000716846,0.000296891,0.000296891,0.000296891,0.000296891
Glu 62,IL1,,-0.000492231,-0.000492231,-0.000605497,-0.000492231,-0.000605497,-0.000605497,-0.000605497,-0.000605497
Arg 63,IL1,,-0.00046396,-0.00046396,-0.00046396,-0.00046396,-0.00046396,-0.00046396,-0.00046396,-0.00046396
Leu 64,IL1,,-0.001506273,-0.001506273,-0.001654635,-0.00105987,-0.001654635,-0.001654635,-0.001654635,-0.001654635
Gln 65,IL1,,-0.00064146,-0.00064146,-0.000795677,-0.00064146,-0.000795677,-0.000795677,-0.000795677,-0.000795677
Thr 66,IL1,,-0.000336639,-0.000336639,-0.000492257,-0.000336639,-0.000492257,-0.000492257,-0.000492257,-0.000492257
Val 67,TM2,2.38,-9.20372E-05,-9.20372E-05,-0.001354158,0.000453291,-0.001890694,-0.001354158,-0.001354158,-0.001890694
Thr 68,TM2,2.39,-0.000935732,-0.000935732,-0.001330533,-0.000341004,-0.001723995,-0.001330533,-0.001330533,-0.001723995
Asn 69,TM2,2.40,-0.001677141,-0.001677141,-0.00206077,-0.001099277,-0.00206077,-0.00206077,-0.00206077,-0.00206077
Tyr 70,TM2,2.41,-0.000735838,-0.000735838,-0.000933407,-0.000735838,-0.000933407,-0.000933407,-0.000933407,-0.000933407
Phe 71,TM2,2.42,0.001435701,0.001435701,-0.000269925,0.002173632,-0.000994044,-0.000269925,-0.000269925,-0.000994044
Ile 72,TM2,2.43,0.000708059,0.000708059,-0.000041208,0.001209968,-0.000786194,-0.000041208,-0.000041208,-0.000786194
Thr 73,TM2,2.44,0.002884868,0.002884868,0.002662293,0.002884868,0.002662293,0.002662293,0.002662293,0.002662293
Ser 74,TM2,2.45,0.001454143,0.001454143,0.001204388,0.001454143,0.001204388,0.001204388,0.001204388,0.001204388
Leu 75,TM2,2.46,0.005673728,0.005673728,0.003191425,0.006300963,0.001966017,0.003191425,0.003191425,0.001966017
Ala 76,TM2,2.47,-0.001777209,-0.001777209,-0.002023186,-0.001283852,-0.002023186,-0.002023186,-0.002023186,-0.002023186
Cys 77,TM2,2.48,0.000974659,0.000974659,0.000715572,0.000974659,0.000715572,0.000715572,0.000715572,0.000715572
Ala 78,TM2,2.49,0.002673938,0.002673938,0.002115725,0.002673938,0.002115725,0.002115725,0.002115725,0.002115725
Asp 79,TM2,2.50,0.000744346,0.000744346,0.000158021,0.001333109,0.000158021,0.000158021,0.000158021,0.000158021
Leu 80,TM2,2.51,0.00301594,0.00301594,0.00275786,0.00301594,0.00275786,0.00275786,0.00275786,0.00275786
Val 81,TM2,2.52,0.004939916,0.004939916,0.00467203,0.004939916,0.00467203,0.00467203,0.00467203,0.00467203
Met 82,TM2,2.53,0.003679797,0.003679797,0.003087349,0.003679797,0.003087349,0.003087349,0.003087349,0.003087349
Gly 83,TM2,2.54,0.001918954,0.001918954,0.001918954,0.001918954,0.001918954,0.001918954,0.001918954,0.001918954
Leu 84,TM2,2.55,0.000458706,0.000458706,0.000458706,0.000458706,0.000686184,0.000458706,0.000458706,0.000458706
Ala 85,TM2,2.56,0.006033561,0.006033561,0.005805668,0.006261872,0.005805668,0.005351129,0.005351129,0.005805668
Val 86,TM2,2.57,-0.001790183,-0.001790183,-0.002037566,-0.001542328,-0.001542328,-0.002037566,-0.002037566,-0.002037566
Val 87,TM2,2.58,0.003320102,0.003320102,0.003320102,0.003320102,0.003320102,0.003320102,0.003320102,0.003320102
Pro 88,TM2,2.59,0.00065936,0.00065936,0.00065936,0.00065936,0.000862069,0.00065936,0.00065936,0.00065936
Phe 89,TM2,2.60,0.001942691,0.001942691,0.001942691,0.001942691,0.002156301,0.001942691,0.001942691,0.001942691
Gly 90,TM2,2.61,0.001343236,0.01843492,0.001343236,0.01843492,0.001565409,0.001343236,0.001343236,0.001343236
Ala 91,TM2,2.62,0.008434669,0.008434669,0.000642773,0.008434669,0.000831255,0.000642773,0.000642773,0.000642773
Ala 92,TM2,2.63,0.009413995,0.009413995,0.001296385,0.008865987,0.001296385,0.001296385,0.001296385,0.001296385
His 93,TM2,2.64,0.030189413,0.030189413,0.006142319,0.029480044,0.006142319,0.006142319,0.006142319,0.006142319
Ile 94,TM2,2.65,0.028662084,0.028662084,0.007234678,0.028662084,-9.36768E-05,-9.36768E-05,-9.36768E-05,0.007234678
Leu 95,TM2,2.66,0.018407068,0.018407068,0.004018629,0.018407068,0.000296536,0.000296536,0.000296536,0.004018629
Met 96,TM2,2.67,0.005638926,0.005638926,0.000922117,0.005247502,0.000922117,0.000922117,0.000922117,0.000922117
Lys 97,EL1,,0.015274923,0.015274923,0.003119176,0.014792166,0.003119176,0.003119176,0.003119176,0.003119176
Met 98,EL1,,0.020702957,0.020702957,0.00448003,0.020232559,0.00448003,0.00448003,0.00448003,0.00448003
Trp 99,EL1,,0.006284169,0.006284169,0.006471405,0.006284169,0.006471405,0.006471405,0.006471405,0.006471405
Thr 100,EL1,,0.004378836,0.004378836,0.004509131,0.004378836,0.004509131,0.004509131,0.004509131,0.004509131
Phe 101,EL1,,0.015555325,0.015555325,0.002763569,0.01502737,0.002763569,0.002763569,0.002763569,0.002763569
Gly 102,TM3,3.21,0.002013663,0.002013663,0.002013663,0.001869371,0.002013663,0.002013663,0.002013663,0.002013663
Asn 103,TM3,3.22,0.001269107,0.001269107,0.001269107,0.001269107,0.001269107,0.001269107,0.001269107,0.001269107
Phe 104,TM3,3.23,0.00143931,0.00143931,0.00143931,0.00143931,0.001295646,0.001295646,0.001295646,0.00143931
Trp 105,TM3,3.24,0.004404061,0.004404061,0.004404061,0.004404061,0.004404061,0.004203432,0.004203432,0.004404061
Cys 106,TM3,3.25,0.002614228,0.002614228,0.002614228,0.002432452,0.002614228,0.002614228,0.002614228,0.002614228
Glu 107,TM3,3.26,0.003039747,0.003214607,0.001478508,0.003214607,0.001134592,0.001134592,0.001134592,0.001478508
Phe 108,TM3,3.27,0.003334672,0.003334672,0.003140422,0.003334672,0.0029465,0.002752905,0.002752905,0.003140422
Trp 109,TM3,3.28,0.009337467,0.009337467,0.009075325,0.009600124,0.009075325,0.008552578,0.008552578,0.009075325
Thr 110,TM3,3.29,0.005700751,0.005933724,0.00339446,0.005700751,0.00271078,0.00271078,0.00271078,0.00339446
Ser 111,TM3,3.30,0.002987444,0.00045773,0.001505299,0.00045773,0.000875657,-0.001814998,0.000875657,0.001505299
Ile 112,TM3,3.31,0.000215583,0.000215583,-0.0000267,0.000458323,-0.0000267,-0.0005099,-0.0005099,-0.0000267
Asp 113,TM3,3.32,0.002745588,0.002745588,0.000737366,0.002745588,0.000168852,0.000168852,0.000168852,0.000737366
Val 114,TM3,3.33,0.009815422,0.002601237,0.00450654,0.002601237,0.002331215,-0.005017343,0.002331215,0.00450654
Leu 115,TM3,3.34,0.00777228,0.008031872,0.005969208,0.008031872,0.005203922,0.005203922,0.005203922,0.005969208
Cys 116,TM3,3.35,0.004704901,0.004704901,0.004130541,0.004704901,0.003558531,0.003558531,0.003558531,0.004130541
Val 117,TM3,3.36,0.014555525,0.012883358,0.006375269,0.012883358,0.005423225,0.004791937,0.0070134,0.004791937
Thr 118,TM3,3.37,0.024384452,0.024979376,0.01800038,0.024979376,0.014360806,0.015749319,0.015749319,0.016589186
Ala 119,TM3,3.38,0.012213806,0.01248708,0.008444576,0.01248708,0.006598723,0.007650384,0.007650384,0.007386694
Ser 120,TM3,3.39,0.007511723,0.007511723,0.004580162,0.007511723,0.002657446,0.003936476,0.003936476,0.003295577
Ile 121,TM3,3.40,0.009479703,0.010063605,0.004331178,0.010649931,0.001826769,0.003212486,0.003212486,0.002934224
Glu 122,TM3,3.41,0.015870137,0.016434038,0.010354567,0.017284205,0.007149354,0.008209321,0.008209321,0.009277692
Thr 123,TM3,3.42,0.00577427,0.00577427,0.003509434,0.006633166,0.00211248,0.002948955,0.002948955,0.002669566
Leu 124,TM3,3.43,0.002489183,0.002489183,0.000163168,0.003371413,-0.000699256,0.000163168,0.000163168,-0.000699256
Cys 125,TM3,3.44,0.006903856,0.007394411,0.003045308,0.008133745,0.001158906,0.002098601,0.002098601,0.002098601
Val 126,TM3,3.45,0.012083271,0.012591004,0.008090774,0.01335629,0.006139638,0.007111517,0.007111517,0.007111517
Ile 127,TM3,3.46,0.006885664,0.006885664,0.005836064,0.007678293,0.00505424,0.005836064,0.005836064,0.00505424
Ala 128,TM3,3.47,0.002237564,0.002237564,0.000458552,0.002911358,-0.000201996,0.000458552,0.000458552,-0.000201996
Val 129,TM3,3.48,0.005034807,0.005409589,0.002080645,0.005974098,0.000632339,0.001354133,0.001354133,0.001354133
Asp 130,TM3,3.49,0.007984323,0.008194572,0.005284272,0.00882754,0.004261934,0.005079096,0.005079096,0.004465694
Arg 131,TM3,3.50,0.001038459,0.001038459,0.000262115,0.001624169,-0.000316721,0.000262115,0.000262115,-0.000316721
Tyr 132,TM3,3.51,0.001587438,0.001587438,0.00028512,0.002079979,-0.000199124,0.00028512,0.00028512,-0.000199124
Phe 133,TM3,3.52,0.005169911,0.005321383,0.003221097,0.005777159,0.002481467,0.003072735,0.003072735,0.002628958
Ala 134,TM3,3.53,0.003455054,0.003608119,0.001635992,0.004068692,0.000887573,0.001485865,0.001485865,0.001036814
Ile 135,TM3,3.54,0.000854381,0.000854381,0.000297237,0.001274336,-0.000118539,0.000297237,0.000297237,-0.000118539
Thr 136,TM3,3.55,0.001133905,0.001133905,0.000186115,0.001491914,-0.000166742,0.000186115,0.000186115,-0.000166742
Ser 137,IL2,,0.002233136,0.002347875,0.000867775,0.002692988,0.000305074,0.000754945,0.000754945,0.000417325
Pro 138,IL2,,0.000837422,0.000837422,0.000127524,0.001105309,-0.000137025,0.000127524,0.000127524,-0.000137025
Phe 139,IL2,,0.002523419,0.002635814,0.001185833,0.002973868,0.000634518,0.00107529,0.00107529,0.000744501
Lys 140,IL2,,0.00250108,0.00261233,0.001177065,0.002946936,0.000631313,0.001067638,0.001067638,0.000740188
Tyr 141,IL2,,0.000856518,0.000856518,0.000296978,0.001278283,-0.000120581,0.000296978,0.000296978,-0.000120581
Gln 142,IL2,,0.002554672,0.002668671,0.001198083,0.003011555,0.000638978,0.001085975,0.001085975,0.000750513
Ser 143,IL2,,0.003539204,0.003696479,0.001670344,0.004169743,0.000901568,0.001516126,0.001516126,0.001054862
Leu 144,IL2,,0.005613343,0.005761051,0.003712717,0.006205482,0.002991256,0.003568005,0.003568005,0.003135129
Leu 145,IL2,,0.005246413,0.005638542,0.002729595,0.006229236,0.001207843,0.001966178,0.001966178,0.001966178
Thr 146,IL2,,0.002354492,0.002503293,0.000585866,0.002951016,-0.000141931,0.000294109,0.000294109,0.00014855
Lys 147,TM4,4.39,-0.000602782,-0.000602782,-0.000751144,-0.000602782,-0.000751144,-0.000751144,-0.000751144,-0.000751144
Asn 148,TM4,4.40,-7.41025E-05,-7.41025E-05,-0.000199159,-7.41025E-05,-0.000448766,-0.000448766,-0.000448766,-0.000199159
Lys 149,TM4,4.41,0.002288873,0.002432747,0.000578544,0.002865622,-0.000125409,0.000296356,0.000296356,0.000155565
Ala 150,TM4,4.42,-0.000644995,-0.000644995,-0.000827068,-0.000644995,-0.000827068,-0.000827068,-0.000827068,-0.000827068
Arg 151,TM4,4.43,-0.000357756,-0.000357756,-0.000517937,-0.000357756,-0.000837562,-0.000837562,-0.000837562,-0.000517937
Val 152,TM4,4.44,0.000444589,0.000444589,0.000288736,0.000444589,-2.22648E-05,-2.22648E-05,-2.22648E-05,0.000288736
Ile 153,TM4,4.45,0.00475456,0.00495382,0.002389718,0.005553649,0.001418467,0.002000234,0.002000234,0.001805984
Ile 154,TM4,4.46,0.004703045,0.004703045,0.004475982,0.004703045,0.004023097,0.004023097,0.004023097,0.004475982
Leu 155,TM4,4.47,0.002496403,0.002496403,0.002309167,0.002496403,0.001935624,0.001935624,0.001935624,0.002309167
Met 156,TM4,4.48,0.003018839,0.003192308,0.000958572,0.003192308,0.000449589,0.000449589,0.000449589,0.001299236
Val 157,TM4,4.49,0.003828419,0.004072538,0.000696353,0.004807675,-0.000723713,-1.56633E-05,-1.56633E-05,-1.56633E-05
Trp 158,TM4,4.50,0.001257985,0.001257985,0.000990099,0.001257985,0.000455915,0.000455915,0.000455915,0.000990099
Ile 159,TM4,4.51,-0.001484843,-0.001484843,-0.001484843,-0.001484843,-0.001677141,-0.001677141,-0.001677141,-0.001484843
Val 160,TM4,4.52,0.003119805,0.003534822,-0.000148991,0.003534822,-0.00174992,-0.00174992,-0.00174992,0.000254686
Ser 161,TM4,4.53,0.011183626,0.011681707,0.007025471,0.012432409,0.004404915,0.005114283,0.005114283,0.00630542
Gly 162,TM4,4.54,0.001275799,0.001481331,-0.000153008,0.001481331,-0.000760088,-0.000760088,-0.000760088,-0.000153008
Leu 163,TM4,4.55,0.000272981,0.000632707,-0.001331448,0.000632707,-0.001684835,-0.001684835,-0.001684835,-0.000976921
Thr 164,TM4,4.56,0.006459894,0.006952314,0.001873452,0.006952314,-9.44825E-06,-9.44825E-06,-9.44825E-06,0.002348572
Ser 165,TM4,4.57,0.003516202,0.003959348,2.76544E-05,0.003959348,-0.001679736,-0.001679736,-0.001679736,2.76544E-05
Phe 166,TM4,4.58,-0.00110185,-0.00110185,-0.00110185,-0.00110185,-0.00110185,-0.00110185,-0.00110185,-0.00110185
Leu 167,TM4,4.59,0.002687222,0.002861245,0.001648888,0.002861245,0.001304972,0.001304972,0.001304972,0.001648888
Pro 168,TM4,4.60,0.009154469,0.009556761,0.007163535,0.009556761,0.006769405,0.006769405,0.006769405,0.007163535
Ile 169,TM4,4.61,0.001466926,-0.003886327,-0.000344968,-0.003886327,-0.000344968,-0.005807727,-0.000344968,-0.000344968
Gln 170,TM4,4.62,0.000123053,-0.001641663,0.000123053,-0.001641663,0.000123053,-0.001641663,0.000123053,0.000123053
Met 171,EL2,,0.003407231,0.003544646,0.002179216,0.003544646,0.001908436,0.001908436,0.001908436,0.002179216
His 172,EL2,,0.000290178,-0.002131665,0.000290178,-0.002131665,0.000290178,-0.002281127,0.000290178,0.000290178
Trp 173,EL2,,0.009021701,0.009372262,0.007285602,0.009372262,0.006941687,0.006941687,0.006941687,0.007285602
Tyr 174,EL2,,-0.000283367,-9.94968E-05,-0.000283367,-9.94968E-05,-0.000283367,-0.000283367,-0.000283367,-0.000283367
Arg 175,EL2,,-0.000256737,-0.000118539,-0.000256737,-0.000118539,-0.000256737,-0.000256737,-0.000256737,-0.000256737
Ala 176,EL2,,0.015805484,0.016116484,0.014264448,0.016116484,-0.000361789,0.013959005,0.013959005,0.014264448
Thr 177,EL2,,0.006184486,0.006432749,0.004953146,0.006432749,0.004708853,0.004708853,0.004708853,0.004953146
His 178,EL2,,0.016003733,0.016302878,0.014521185,0.016302878,4.79586E-05,0.014227284,0.014227284,0.014521185
Gln 179,EL2,,0.01190023,0.012116747,0.01082577,0.012116747,0.000211364,0.010612488,0.010612488,0.01082577
Glu 180,EL2,,0.000651466,0.000767405,0.000651466,0.02294793,0.000651466,0.000651466,0.000651466,0.000651466
Ala 181,EL2,,0.000653595,0.000770293,0.000653595,0.023105224,0.000653595,0.000653595,0.000653595,0.000653595
Ile 182,EL2,,0.008084795,0.008197915,0.008084795,0.008197915,-0.000311469,0.008084795,0.008084795,0.008084795
Asn 183,EL2,,0.009848201,0.009958044,0.009848201,0.009958044,0.000207748,0.009848201,0.009848201,0.000207748
Cys 184,EL2,,0.01383126,0.013987113,0.01383126,0.013987113,0.000298457,0.01383126,0.01383126,0.000298457
Tyr 185,EL2,,0.013873189,0.01403288,1.84068E-05,0.01403288,1.84068E-05,1.84068E-05,1.84068E-05,1.84068E-05
Ala 186,EL2,,0.005755435,0.005875088,-0.000367184,0.005875088,-0.000367184,-0.000367184,-0.000367184,-0.000367184
Glu 187,EL2,,0.006483335,0.006483335,0.006483335,0.006483335,0.000189921,0.006483335,0.006483335,0.000189921
Glu 188,EL2,,0.003197383,0.003197383,0.003197383,0.003197383,0.003197383,0.003197383,0.003197383,0.003197383
Thr 189,EL2,,0.014888184,0.014888184,0.015048364,0.014888184,0.000852962,0.015048364,0.015048364,0.000852962
Cys 190,EL2,,0.014493501,0.014493501,0.014493501,0.014493501,0.000294109,0.014493501,0.014493501,0.000294109
Cys 191,EL2,,0.021260353,0.02148333,0.02148333,0.02148333,0.001203904,0.021037779,0.021037779,0.001203904
Asp 192,EL2,,0.029428246,0.029656139,0.001704086,0.029428246,0.001704086,0.001704086,0.001704086,0.001704086
Phe 193,EL2,,0.001621432,0.002089539,-3.39158E-06,0.004695468,0.002324244,-3.39158E-06,-3.39158E-06,-3.39158E-06
Phe 194,EL2,,0.000283206,0.000448152,0.000283206,0.033665591,0.000944535,0.000283206,0.000283206,0.000283206
Thr 195,EL2,,0.027080586,0.027526943,0.022919274,0.002059029,0.000274883,0.02120886,0.02120886,0.022919274
Asn 196,EL2,,0.009519231,0.009870354,0.00778036,0.009870354,0.007435897,0.007435897,0.007435897,0.00778036
Gln 197,TM5,5.36,0.010190115,0.010510231,0.007508182,0.000149497,0.007508182,0.007508182,0.007352564,0.007508182
Ala 198,TM5,5.37,0.012369738,0.01271148,0.009176284,0.01271148,0.007859771,0.007859771,0.007859771,0.009176284
Tyr 199,TM5,5.38,0.018254973,0.018752103,0.013625095,0.018752103,0.01172459,0.01172459,0.01172459,0.013625095
Ala 200,TM5,5.39,0.025284577,0.025734181,0.021310338,0.006038647,0.019157088,0.019584687,0.019157088,0.02087662
Ile 201,TM5,5.40,0.012585054,0.013121591,0.009246512,0.013121591,0.007359437,0.007700101,0.007700101,0.008900953
Ala 202,TM5,5.41,0.012275769,0.012665912,0.008634113,0.012665912,0.007134971,0.007134971,0.007134971,0.008634113
Ser 203,TM5,5.42,0.025471824,0.025967063,0.021337185,0.027464174,0.018496985,0.018731256,0.018731256,0.020383387
Ser 204,TM5,5.43,0.01996781,0.020731619,0.014742434,0.021499872,0.011372587,0.012565952,0.012565952,0.013528728
Ile 205,TM5,5.44,0.016010294,0.016412586,0.012062001,0.017018622,0.009756303,0.01051972,0.01051972,0.011288268
Val 206,TM5,5.45,0.020621168,0.021098066,0.016177923,0.022057236,0.013450605,0.014126851,0.014126851,0.015490479
Ser 207,TM5,5.46,0.017086392,0.017649149,0.011043457,0.019636941,0.007595041,0.008910912,0.008910912,0.011581894
Phe 208,TM5,5.47,0.006546987,0.006546987,0.001816187,0.00739889,0.000455265,0.001816187,0.001816187,0.000455265
Tyr 209,TM5,5.48,0.013113734,0.013559285,0.008316763,0.014230642,0.005778133,0.006829383,0.006829383,0.007252477
Val 210,TM5,5.49,0.009701577,0.010073273,0.006050939,0.010633124,0.004093123,0.004801037,0.004801037,0.005334977
Pro 211,TM5,5.50,0.015002275,0.015508055,0.009564422,0.016015788,0.006455763,0.007642462,0.007642462,0.008359819
Leu 212,TM5,5.51,0.004295494,0.004295494,0.00069507,0.005027853,-0.000482826,0.00069507,0.00069507,-0.000482826
Val 213,TM5,5.52,0.011292517,0.01169206,0.007178327,0.012293948,0.004891852,0.005838983,0.005838983,0.006220053
Ile 214,TM5,5.53,0.011646085,0.012058939,0.007197601,0.012473234,0.004840775,0.00581696,0.00581696,0.006209755
Met 215,TM5,5.54,0.006965004,0.007203676,0.002743935,0.007682362,0.001367779,0.002513523,0.002513523,0.001596089
Val 216,TM5,5.55,0.002760748,0.002760748,0.001218467,0.003344482,0.000264992,0.001218467,0.001218467,0.000264992
Phe 217,TM5,5.56,0.005512112,0.005674523,0.002630938,0.006163266,0.001687995,0.002473184,0.002473184,0.001844557
Val 218,TM5,5.57,0.005320493,0.005504969,0.002051021,0.005874831,0.000982274,0.001872176,0.001872176,0.00115968
Tyr 219,TM5,5.58,0.008363231,0.008363231,0.005310788,0.00880558,0.004238944,0.005310788,0.005310788,0.004238944
Ser 220,TM5,5.59,0.004437229,0.004437229,0.003191337,0.004908341,0.002420248,0.003191337,0.003191337,0.002420248
Arg 221,TM5,5.60,0.002845464,0.002981331,0.000432202,0.003390088,-0.000358831,0.000299904,0.000299904,-0.000227449
Val 222,TM5,5.61,0.0016062,0.0016062,0.000283533,0.00210647,-0.000208244,0.000283533,0.000283533,-0.000208244
Phe 223,TM5,5.62,0.005230912,0.005230912,0.003973649,0.005547623,0.003195559,0.003973649,0.003973649,0.003195559
Gln 224,TM5,5.63,0.003274994,0.003274994,0.002350492,0.003624175,0.001777537,0.002350492,0.002350492,0.001777537
Glu 225,TM5,5.64,0.000924489,0.000924489,0.000302575,0.00129966,-6.85663E-05,0.000302575,0.000302575,-6.85663E-05
Ala 226,TM5,5.65,0.000954737,0.000954737,0.000300555,0.001349429,-8.97889E-05,0.000300555,0.000300555,-8.97889E-05
Lys 227,TM5,5.66,0.003414751,0.003414751,0.002515004,0.003641137,0.001957327,0.002515004,0.002515004,0.001957327
Leu 266,IL3,,0.001319263,0.000867073,0.000081309,0.001092877,-3.03688E-05,0.000081309,0.000529453,-0.000475656
Lys 267,TM6,6.29,0.001507395,0.001265374,0.000423349,0.001507395,6.48666E-05,0.000423349,0.00066313,-0.000173333
Glu 268,TM6,6.30,0.001818248,0.001818248,0.000930873,0.002073344,0.000302187,0.000930873,0.000930873,0.000302187
His 269,TM6,6.31,0.001458069,0.001458069,0.000685401,0.001717045,4.63488E-05,0.000685401,0.000685401,4.63488E-05
Lys 270,TM6,6.32,0.001943901,0.001340259,0.000292469,0.001641631,0.000143668,0.000292469,0.000889876,-0.000449344
Ala 271,TM6,6.33,0.002394035,0.002066945,0.000930054,0.002394035,0.000446554,0.000930054,0.001253629,0.000125456
Leu 272,TM6,6.34,0.002720308,0.002720308,0.001492352,0.003073696,0.00062362,0.001492352,0.001492352,0.00062362
Lys 273,TM6,6.35,0.001896779,0.001249629,0.00028633,0.001572706,0.000126639,0.00028633,0.000927543,-0.000509689
Thr 274,TM6,6.36,0.003009991,0.002153277,0.000668518,0.002580875,0.0004579,0.000668518,0.001514707,-0.000380889
Leu 275,TM6,6.37,0.003567273,0.003084073,0.001407087,0.003567273,0.00069507,0.001407087,0.001883985,0.000222598
Gly 276,TM6,6.38,0.00369737,0.002878792,0.0012585,0.003287372,0.001057527,0.0012585,0.002065855,0.000257069
Ile 277,TM6,6.39,0.002891482,0.002074319,0.000657788,0.002482194,0.000456815,0.000657788,0.001465143,-0.000343643
Ile 278,TM6,6.40,0.004506496,0.003336269,0.00102459,0.003920171,0.000738292,0.00102459,0.002175673,-0.000401063
Met 279,TM6,6.41,0.006264557,0.005189817,0.001234251,0.005726121,0.000974659,0.001234251,0.002277704,-5.86688E-05
Gly 280,TM6,6.42,0.001302601,0.001302601,0.000668518,0.001940044,-0.000171743,0.000668518,0.000668518,-0.000171743
Thr 281,TM6,6.43,0.003705028,0.001946645,0.00021164,0.002446634,0.000704998,0.00021164,0.001946645,-0.001013593
Phe 282,TM6,6.44,0.007744269,0.00538235,0.000442389,0.006053439,0.001091703,0.000442389,0.00272746,-0.001168584
Thr 283,TM6,6.45,0.003396226,0.003396226,0.001430253,0.004141212,0.000216546,0.001430253,0.001430253,0.000216546
Leu 284,TM6,6.46,0.002646454,0.002646454,0.001985906,0.003088803,0.001110686,0.001985906,0.001985906,0.001110686
Cys 285,TM6,6.47,0.005001796,0.005001796,0.003111622,0.005546706,0.001777475,0.003111622,0.003111622,0.001777475
Trp 286,TM6,6.48,0.014708822,0.014708822,0.009035561,0.014708822,0.007406943,0.009035561,0.009035561,0.007406943
Leu 287,TM6,6.49,0.008019937,0.008019937,0.003947041,0.008507714,0.002773509,0.003947041,0.003947041,0.002773509
Pro 288,TM6,6.50,0.004765271,0.004765271,0.003161222,0.005227369,0.002027972,0.003161222,0.003161222,0.002027972
Phe 289,TM6,6.51,0.015222326,0.015478907,0.010935298,0.015993565,0.009700725,0.010935298,0.010935298,0.009700725
Phe 290,TM6,6.52,0.015579676,0.016123499,0.00973769,0.0166695,0.006655629,0.00793111,0.00793111,0.00973769
Ile 291,TM6,6.53,0.00504309,0.005238326,0.001773859,0.005629791,0.000829876,0.001773859,0.001773859,0.001773859
Val 292,TM6,6.54,0.001935624,0.002122241,0.001007147,0.002122241,0.001007147,0.001007147,0.001007147,0.001007147
Asn 293,TM6,6.55,0.015281329,0.015720509,0.010763214,0.016382245,0.009711964,0.010763214,0.010763214,0.009711964
Ile 294,TM6,6.56,0.002772584,0.003359285,-0.001063979,0.003948977,-0.002190195,-0.001252461,-0.001252461,-0.00200327
Val 295,TM6,6.57,-0.000587162,-0.000294551,-0.000440964,-0.000294551,-0.000587162,-0.000587162,-0.000587162,-0.000440964
His 296,TM6,6.58,0.001757716,0.001922663,0.000936814,0.001922663,0.000936814,0.000936814,0.000936814,0.000936814
Val 297,TM6,6.59,0.009009282,0.009328908,0.006176039,0.009489088,0.005865975,0.006176039,0.00602089,0.005865975
Ile 298,TM6,6.60,0.00350453,0.003912709,0.00122375,0.003912709,0.00095897,0.001091268,0.001091268,0.001091268
Gln 299,EL3,,0.001218626,0.001333514,0.000646412,0.001333514,0.000646412,0.000646412,0.000646412,0.000646412
Asp 300,EL3,,0.001205997,0.001319263,0.000641849,0.001319263,0.000641849,0.000641849,0.000641849,0.000641849
Asn 301,EL3,,-0.008416093,-0.008300606,-0.008416093,-0.008300606,-0.008416093,-0.008416093,-0.008416093,-0.008416093
Leu 302,EL3,,-0.007668576,-0.007551111,-0.007668576,-0.007551111,-0.007668576,-0.007668576,-0.007668576,-0.007668576
Ile 303,EL3,,-0.011517499,-0.011360224,-0.011517499,-0.011360224,-0.011517499,-0.011517499,-0.011517499,-0.011517499
Arg 304,EL3,,0.005099939,0.00524918,0.005099939,0.00524918,0.005099939,0.005099939,0.005099939,0.005099939
Lys 305,TM7,7.32,0.034862099,0.035076847,0.005623363,0.034647731,0.005623363,0.005623363,0.005623363,0.005623363
Glu 306,TM7,7.33,0.013600987,0.013600987,0.013600987,0.01327135,0.003987434,0.003987434,0.003987434,0.013600987
Val 307,TM7,7.34,0.003201197,0.003201197,0.002506767,0.003201197,0.002506767,0.002506767,0.002506767,0.002506767
Tyr 308,TM7,7.35,0.008642212,0.008865189,0.007533343,0.008865189,0.007533343,0.007533343,0.007533343,0.007533343
Ile 309,TM7,7.36,0.016494023,0.016494023,0.016494023,0.016717,-0.000320464,-0.000320464,-0.000320464,0.016271448
Leu 310,TM7,7.37,0.013580315,0.013580315,0.013580315,0.013779235,0.005892686,0.005892686,0.005892686,0.013381734
Leu 311,TM7,7.38,1.70135E-05,1.70135E-05,-0.00086135,1.70135E-05,-0.00086135,-0.00086135,-0.00086135,-0.00086135
Asn 312,TM7,7.39,0.006836206,0.006836206,0.005019041,0.007097835,0.003736129,0.005019041,0.005019041,0.003736129
Trp 313,TM7,7.40,0.00491434,0.024754599,0.00491434,0.024754599,0.00491434,0.00491434,0.00491434,0.00491434
Ile 314,TM7,7.41,0.007129532,0.015676044,0.007129532,0.01592869,0.007129532,0.007129532,0.007129532,0.007129532
Gly 315,TM7,7.42,0.003357808,0.003357808,0.002870031,0.00360239,0.002870031,0.002870031,0.002870031,0.002870031
Tyr 316,TM7,7.43,0.009433796,0.009433796,0.008509855,0.009433796,0.008509855,0.008509855,0.008509855,0.008509855
Val 317,TM7,7.44,0.006084544,0.006084544,0.005585511,0.006084544,0.005585511,0.005585511,0.005585511,0.005585511
Asn 318,TM7,7.45,0.008946558,0.008946558,0.00670461,0.008946558,0.005321682,0.00670461,0.00670461,0.005321682
Ser 319,TM7,7.46,0.000451019,0.000451019,-0.00042393,0.000451019,-0.00042393,-0.00042393,-0.00042393,-0.00042393
Gly 320,TM7,7.47,-0.000983064,-0.000983064,-0.001459962,-0.000983064,-0.001459962,-0.001459962,-0.001459962,-0.001459962
Phe 321,TM7,7.48,-0.001257251,-0.001257251,-0.001743189,-0.000769473,-0.001743189,-0.001743189,-0.001743189,-0.001743189
Asn 322,TM7,7.49,-0.003861212,-0.00526954,-0.006107709,-0.004707925,-0.004707925,-0.006107709,-0.004707925,-0.006107709
Pro 323,TM7,7.50,0.002295303,0.002295303,0.001504231,0.002295303,0.001504231,0.001504231,0.001504231,0.001504231
Leu 324,TM7,7.51,0.002792498,0.002792498,0.002399703,0.003186628,0.002399703,0.002399703,0.002399703,0.002399703
Ile 325,TM7,7.52,0.001571459,0.000902527,0.000458581,0.001348078,0.001125102,0.000458581,0.001125102,0.000458581
Tyr 326,TM7,7.53,0.000968992,0.000968992,0.000202224,0.001482652,0.000202224,0.000202224,0.000202224,0.000202224
Cys 327,TM7,7.54,0.003042247,0.003042247,0.00244036,0.003042247,0.00244036,0.00244036,0.00244036,0.00244036
Arg 328,TM7,7.55,0.000827815,0.000827815,0.000454272,0.001202596,0.000454272,0.000454272,0.000454272,0.000454272
Ser 329,H8,,0.00062362,0.00062362,0.000105693,0.000970282,0.000105693,0.000105693,0.000105693,0.000105693
Pro 330,H8,,0.000435658,0.000435658,0.000159852,0.000712251,0.000159852,0.000159852,0.000159852,0.000159852
Asp 331,H8,,-8.85886E-05,-8.85886E-05,-0.000476252,0.000170745,-0.000476252,-0.000476252,-0.000476252,-0.000476252
Phe 332,H8,,-9.61555E-05,-9.61555E-05,-0.000643268,0.000270081,-0.000643268,-0.000643268,-0.000643268,-0.000643268
Arg 333,H8,,0.000801282,0.000801282,0.000276702,0.001152406,0.000276702,0.000276702,0.000276702,0.000276702
Ile 334,H8,,0.000816979,0.000816979,0.000429849,0.001075955,0.000429849,0.000429849,0.000429849,0.000429849
Ala 335,H8,,0.001967494,0.001967494,0.001507611,0.001967494,0.001507611,0.001507611,0.001507611,0.001507611
Phe 336,H8,,0.003737137,0.003737137,0.003115153,0.003737137,0.003115153,0.003115153,0.003115153,0.003115153
Gln 337,H8,,0.002609207,0.002609207,0.002171252,0.002609207,0.002171252,0.002171252,0.002171252,0.002171252
Glu 338,H8,,0.002160771,0.002160771,0.001727265,0.002160771,0.001727265,0.001727265,0.001727265,0.001727265
Leu 339,H8,,0.002252657,0.002252657,0.001796882,0.002252657,0.001796882,0.001796882,0.001796882,0.001796882
Leu 340,H8,,0.002139685,0.002139685,0.002139685,0.002139685,0.002139685,0.002139685,0.002139685,0.002139685
Cys 341,H8,,0.000979057,0.000979057,0.000979057,0.000979057,0.000979057,0.000979057,0.000979057,0.000979057
Leu 342,Ct,,0.001202594,0.001202594,0.001202594,0.001202594,0.001202594,0.001202594,0.001202594,0.001202594