[
    {
        "resnum": 32, 
        "region_name": "TM", 
        "pymol": "/3NY8_eo//A/TRP`32/", 
        "ballesteros": "1.32", 
        "centrality_score": 0.16977611940298507, 
        "resname": "Trp"
    }, 
    {
        "resnum": 33, 
        "region_name": "TM", 
        "pymol": "/3NY8_eo//A/VAL`33/", 
        "ballesteros": "1.33", 
        "centrality_score": 0.17159019484600879, 
        "resname": "Val"
    }, 
    {
        "resnum": 34, 
        "region_name": "TM", 
        "pymol": "/3NY8_eo//A/VAL`34/", 
        "ballesteros": "1.34", 
        "centrality_score": 0.16748466257668712, 
        "resname": "Val"
    }, 
    {
        "resnum": 35, 
        "region_name": "TM", 
        "pymol": "/3NY8_eo//A/GLY`35/", 
        "ballesteros": "1.35", 
        "centrality_score": 0.1760154738878143, 
        "resname": "Gly"
    }, 
    {
        "resnum": 36, 
        "region_name": "TM", 
        "pymol": "/3NY8_eo//A/MET`36/", 
        "ballesteros": "1.36", 
        "centrality_score": 0.193342776203966, 
        "resname": "Met"
    }, 
    {
        "resnum": 37, 
        "region_name": "TM", 
        "pymol": "/3NY8_eo//A/GLY`37/", 
        "ballesteros": "1.37", 
        "centrality_score": 0.18711446196024675, 
        "resname": "Gly"
    }, 
    {
        "resnum": 38, 
        "region_name": "TM", 
        "pymol": "/3NY8_eo//A/ILE`38/", 
        "ballesteros": "1.38", 
        "centrality_score": 0.1875, 
        "resname": "Ile"
    }, 
    {
        "resnum": 39, 
        "region_name": "TM", 
        "pymol": "/3NY8_eo//A/VAL`39/", 
        "ballesteros": "1.39", 
        "centrality_score": 0.20327624720774387, 
        "resname": "Val"
    }, 
    {
        "resnum": 40, 
        "region_name": "TM", 
        "pymol": "/3NY8_eo//A/MET`40/", 
        "ballesteros": "1.40", 
        "centrality_score": 0.22303921568627452, 
        "resname": "Met"
    }, 
    {
        "resnum": 41, 
        "region_name": "TM", 
        "pymol": "/3NY8_eo//A/SER`41/", 
        "ballesteros": "1.41", 
        "centrality_score": 0.20147601476014759, 
        "resname": "Ser"
    }, 
    {
        "resnum": 42, 
        "region_name": "TM", 
        "pymol": "/3NY8_eo//A/LEU`42/", 
        "ballesteros": "1.42", 
        "centrality_score": 0.21228615863141523, 
        "resname": "Leu"
    }, 
    {
        "resnum": 43, 
        "region_name": "TM", 
        "pymol": "/3NY8_eo//A/ILE`43/", 
        "ballesteros": "1.43", 
        "centrality_score": 0.24705882352941178, 
        "resname": "Ile"
    }, 
    {
        "resnum": 44, 
        "region_name": "TM", 
        "pymol": "/3NY8_eo//A/VAL`44/", 
        "ballesteros": "1.44", 
        "centrality_score": 0.23194562446898895, 
        "resname": "Val"
    }, 
    {
        "resnum": 45, 
        "region_name": "TM", 
        "pymol": "/3NY8_eo//A/LEU`45/", 
        "ballesteros": "1.45", 
        "centrality_score": 0.20681818181818182, 
        "resname": "Leu"
    }, 
    {
        "resnum": 46, 
        "region_name": "TM", 
        "pymol": "/3NY8_eo//A/ALA`46/", 
        "ballesteros": "1.46", 
        "centrality_score": 0.23615916955017302, 
        "resname": "Ala"
    }, 
    {
        "resnum": 47, 
        "region_name": "TM", 
        "pymol": "/3NY8_eo//A/ILE`47/", 
        "ballesteros": "1.47", 
        "centrality_score": 0.26923076923076922, 
        "resname": "Ile"
    }, 
    {
        "resnum": 48, 
        "region_name": "TM", 
        "pymol": "/3NY8_eo//A/VAL`48/", 
        "ballesteros": "1.48", 
        "centrality_score": 0.23373287671232876, 
        "resname": "Val"
    }, 
    {
        "resnum": 49, 
        "region_name": "TM", 
        "pymol": "/3NY8_eo//A/PHE`49/", 
        "ballesteros": "1.49", 
        "centrality_score": 0.2263681592039801, 
        "resname": "Phe"
    }, 
    {
        "resnum": 50, 
        "region_name": "TM", 
        "pymol": "/3NY8_eo//A/GLY`50/", 
        "ballesteros": "1.50", 
        "centrality_score": 0.22561983471074379, 
        "resname": "Gly"
    }, 
    {
        "resnum": 51, 
        "region_name": "TM", 
        "pymol": "/3NY8_eo//A/ASN`51/", 
        "ballesteros": "1.51", 
        "centrality_score": 0.26712328767123289, 
        "resname": "Asn"
    }, 
    {
        "resnum": 52, 
        "region_name": "TM", 
        "pymol": "/3NY8_eo//A/VAL`52/", 
        "ballesteros": "1.52", 
        "centrality_score": 0.23353293413173654, 
        "resname": "Val"
    }, 
    {
        "resnum": 53, 
        "region_name": "TM", 
        "pymol": "/3NY8_eo//A/LEU`53/", 
        "ballesteros": "1.53", 
        "centrality_score": 0.21394984326018809, 
        "resname": "Leu"
    }, 
    {
        "resnum": 54, 
        "region_name": "TM", 
        "pymol": "/3NY8_eo//A/VAL`54/", 
        "ballesteros": "1.54", 
        "centrality_score": 0.24309884238646481, 
        "resname": "Val"
    }, 
    {
        "resnum": 55, 
        "region_name": "TM", 
        "pymol": "/3NY8_eo//A/ILE`55/", 
        "ballesteros": "1.55", 
        "centrality_score": 0.2441860465116279, 
        "resname": "Ile"
    }, 
    {
        "resnum": 56, 
        "region_name": "TM", 
        "pymol": "/3NY8_eo//A/THR`56/", 
        "ballesteros": "1.56", 
        "centrality_score": 0.20666161998485996, 
        "resname": "Thr"
    }, 
    {
        "resnum": 57, 
        "region_name": "TM", 
        "pymol": "/3NY8_eo//A/ALA`57/", 
        "ballesteros": "1.57", 
        "centrality_score": 0.20713201820940819, 
        "resname": "Ala"
    }, 
    {
        "resnum": 58, 
        "region_name": "TM", 
        "pymol": "/3NY8_eo//A/ILE`58/", 
        "ballesteros": "1.58", 
        "centrality_score": 0.23214285714285715, 
        "resname": "Ile"
    }, 
    {
        "resnum": 59, 
        "region_name": "TM", 
        "pymol": "/3NY8_eo//A/ALA`59/", 
        "ballesteros": "1.59", 
        "centrality_score": 0.21162790697674419, 
        "resname": "Ala"
    }, 
    {
        "resnum": 60, 
        "region_name": "TM", 
        "pymol": "/3NY8_eo//A/LYS`60/", 
        "ballesteros": "1.60", 
        "centrality_score": 0.18879668049792531, 
        "resname": "Lys"
    }, 
    {
        "resnum": 61, 
        "region_name": "IL", 
        "pymol": "/3NY8_eo//A/PHE`61/", 
        "ballesteros": "", 
        "centrality_score": 0.19527896995708155, 
        "resname": "Phe"
    }, 
    {
        "resnum": 62, 
        "region_name": "IL", 
        "pymol": "/3NY8_eo//A/GLU`62/", 
        "ballesteros": "", 
        "centrality_score": 0.1766990291262136, 
        "resname": "Glu"
    }, 
    {
        "resnum": 63, 
        "region_name": "IL", 
        "pymol": "/3NY8_eo//A/ARG`63/", 
        "ballesteros": "", 
        "centrality_score": 0.18945176960444135, 
        "resname": "Arg"
    }, 
    {
        "resnum": 64, 
        "region_name": "IL", 
        "pymol": "/3NY8_eo//A/LEU`64/", 
        "ballesteros": "", 
        "centrality_score": 0.20297397769516728, 
        "resname": "Leu"
    }, 
    {
        "resnum": 65, 
        "region_name": "IL", 
        "pymol": "/3NY8_eo//A/GLN`65/", 
        "ballesteros": "", 
        "centrality_score": 0.20634920634920634, 
        "resname": "Gln"
    }, 
    {
        "resnum": 66, 
        "region_name": "IL", 
        "pymol": "/3NY8_eo//A/THR`66/", 
        "ballesteros": "", 
        "centrality_score": 0.20823798627002288, 
        "resname": "Thr"
    }, 
    {
        "resnum": 67, 
        "region_name": "TM", 
        "pymol": "/3NY8_eo//A/VAL`67/", 
        "ballesteros": "2.38", 
        "centrality_score": 0.21394984326018809, 
        "resname": "Val"
    }, 
    {
        "resnum": 68, 
        "region_name": "TM", 
        "pymol": "/3NY8_eo//A/THR`68/", 
        "ballesteros": "2.39", 
        "centrality_score": 0.22845188284518828, 
        "resname": "Thr"
    }, 
    {
        "resnum": 69, 
        "region_name": "TM", 
        "pymol": "/3NY8_eo//A/ASN`69/", 
        "ballesteros": "2.40", 
        "centrality_score": 0.22768974145120935, 
        "resname": "Asn"
    }, 
    {
        "resnum": 70, 
        "region_name": "TM", 
        "pymol": "/3NY8_eo//A/TYR`70/", 
        "ballesteros": "2.41", 
        "centrality_score": 0.23116003386960204, 
        "resname": "Tyr"
    }, 
    {
        "resnum": 71, 
        "region_name": "TM", 
        "pymol": "/3NY8_eo//A/PHE`71/", 
        "ballesteros": "2.42", 
        "centrality_score": 0.25184501845018448, 
        "resname": "Phe"
    }, 
    {
        "resnum": 72, 
        "region_name": "TM", 
        "pymol": "/3NY8_eo//A/ILE`72/", 
        "ballesteros": "2.43", 
        "centrality_score": 0.25827814569536423, 
        "resname": "Ile"
    }, 
    {
        "resnum": 73, 
        "region_name": "TM", 
        "pymol": "/3NY8_eo//A/THR`73/", 
        "ballesteros": "2.44", 
        "centrality_score": 0.2398945518453427, 
        "resname": "Thr"
    }, 
    {
        "resnum": 74, 
        "region_name": "TM", 
        "pymol": "/3NY8_eo//A/SER`74/", 
        "ballesteros": "2.45", 
        "centrality_score": 0.25975261655566129, 
        "resname": "Ser"
    }, 
    {
        "resnum": 75, 
        "region_name": "TM", 
        "pymol": "/3NY8_eo//A/LEU`75/", 
        "ballesteros": "2.46", 
        "centrality_score": 0.28616352201257861, 
        "resname": "Leu"
    }, 
    {
        "resnum": 76, 
        "region_name": "TM", 
        "pymol": "/3NY8_eo//A/ALA`76/", 
        "ballesteros": "2.47", 
        "centrality_score": 0.25876777251184835, 
        "resname": "Ala"
    }, 
    {
        "resnum": 77, 
        "region_name": "TM", 
        "pymol": "/3NY8_eo//A/CYS`77/", 
        "ballesteros": "2.48", 
        "centrality_score": 0.25395348837209303, 
        "resname": "Cys"
    }, 
    {
        "resnum": 78, 
        "region_name": "TM", 
        "pymol": "/3NY8_eo//A/ALA`78/", 
        "ballesteros": "2.49", 
        "centrality_score": 0.28144329896907216, 
        "resname": "Ala"
    }, 
    {
        "resnum": 79, 
        "region_name": "TM", 
        "pymol": "/3NY8_eo//A/ASP`79/", 
        "ballesteros": "2.50", 
        "centrality_score": 0.27547931382441976, 
        "resname": "Asp"
    }, 
    {
        "resnum": 80, 
        "region_name": "TM", 
        "pymol": "/3NY8_eo//A/LEU`80/", 
        "ballesteros": "2.51", 
        "centrality_score": 0.26250000000000001, 
        "resname": "Leu"
    }, 
    {
        "resnum": 81, 
        "region_name": "TM", 
        "pymol": "/3NY8_eo//A/VAL`81/", 
        "ballesteros": "2.52", 
        "centrality_score": 0.27056491575817643, 
        "resname": "Val"
    }, 
    {
        "resnum": 82, 
        "region_name": "TM", 
        "pymol": "/3NY8_eo//A/MET`82/", 
        "ballesteros": "2.53", 
        "centrality_score": 0.28202479338842973, 
        "resname": "Met"
    }, 
    {
        "resnum": 83, 
        "region_name": "TM", 
        "pymol": "/3NY8_eo//A/GLY`83/", 
        "ballesteros": "2.54", 
        "centrality_score": 0.25490196078431371, 
        "resname": "Gly"
    }, 
    {
        "resnum": 84, 
        "region_name": "TM", 
        "pymol": "/3NY8_eo//A/LEU`84/", 
        "ballesteros": "2.55", 
        "centrality_score": 0.24818181818181817, 
        "resname": "Leu"
    }, 
    {
        "resnum": 85, 
        "region_name": "TM", 
        "pymol": "/3NY8_eo//A/ALA`85/", 
        "ballesteros": "2.56", 
        "centrality_score": 0.24031690140845072, 
        "resname": "Ala"
    }, 
    {
        "resnum": 86, 
        "region_name": "TM", 
        "pymol": "/3NY8_eo//A/VAL`86/", 
        "ballesteros": "2.57", 
        "centrality_score": 0.26250000000000001, 
        "resname": "Val"
    }, 
    {
        "resnum": 87, 
        "region_name": "TM", 
        "pymol": "/3NY8_eo//A/VAL`87/", 
        "ballesteros": "2.58", 
        "centrality_score": 0.25876777251184835, 
        "resname": "Val"
    }, 
    {
        "resnum": 88, 
        "region_name": "TM", 
        "pymol": "/3NY8_eo//A/PRO`88/", 
        "ballesteros": "2.59", 
        "centrality_score": 0.23214285714285715, 
        "resname": "Pro"
    }, 
    {
        "resnum": 89, 
        "region_name": "TM", 
        "pymol": "/3NY8_eo//A/PHE`89/", 
        "ballesteros": "2.60", 
        "centrality_score": 0.23514211886304909, 
        "resname": "Phe"
    }, 
    {
        "resnum": 90, 
        "region_name": "TM", 
        "pymol": "/3NY8_eo//A/GLY`90/", 
        "ballesteros": "2.61", 
        "centrality_score": 0.25045871559633026, 
        "resname": "Gly"
    }, 
    {
        "resnum": 91, 
        "region_name": "TM", 
        "pymol": "/3NY8_eo//A/ALA`91/", 
        "ballesteros": "2.62", 
        "centrality_score": 0.22618061309030654, 
        "resname": "Ala"
    }, 
    {
        "resnum": 92, 
        "region_name": "TM", 
        "pymol": "/3NY8_eo//A/ALA`92/", 
        "ballesteros": "2.63", 
        "centrality_score": 0.20935582822085891, 
        "resname": "Ala"
    }, 
    {
        "resnum": 93, 
        "region_name": "TM", 
        "pymol": "/3NY8_eo//A/HIS`93/", 
        "ballesteros": "2.64", 
        "centrality_score": 0.22999157540016849, 
        "resname": "His"
    }, 
    {
        "resnum": 94, 
        "region_name": "TM", 
        "pymol": "/3NY8_eo//A/ILE`94/", 
        "ballesteros": "2.65", 
        "centrality_score": 0.22285714285714286, 
        "resname": "Ile"
    }, 
    {
        "resnum": 95, 
        "region_name": "TM", 
        "pymol": "/3NY8_eo//A/LEU`95/", 
        "ballesteros": "2.66", 
        "centrality_score": 0.19472182596291013, 
        "resname": "Leu"
    }, 
    {
        "resnum": 96, 
        "region_name": "TM", 
        "pymol": "/3NY8_eo//A/MET`96/", 
        "ballesteros": "2.67", 
        "centrality_score": 0.18067504963600264, 
        "resname": "Met"
    }, 
    {
        "resnum": 97, 
        "region_name": "EL", 
        "pymol": "/3NY8_eo//A/LYS`97/", 
        "ballesteros": "", 
        "centrality_score": 0.19513938527519656, 
        "resname": "Lys"
    }, 
    {
        "resnum": 98, 
        "region_name": "EL", 
        "pymol": "/3NY8_eo//A/MET`98/", 
        "ballesteros": "", 
        "centrality_score": 0.19064245810055866, 
        "resname": "Met"
    }, 
    {
        "resnum": 99, 
        "region_name": "EL", 
        "pymol": "/3NY8_eo//A/TRP`99/", 
        "ballesteros": "", 
        "centrality_score": 0.2263681592039801, 
        "resname": "Trp"
    }, 
    {
        "resnum": 100, 
        "region_name": "EL", 
        "pymol": "/3NY8_eo//A/THR`100/", 
        "ballesteros": "", 
        "centrality_score": 0.18814610613370089, 
        "resname": "Thr"
    }, 
    {
        "resnum": 101, 
        "region_name": "EL", 
        "pymol": "/3NY8_eo//A/PHE`101/", 
        "ballesteros": "", 
        "centrality_score": 0.20495495495495494, 
        "resname": "Phe"
    }, 
    {
        "resnum": 102, 
        "region_name": "TM", 
        "pymol": "/3NY8_eo//A/GLY`102/", 
        "ballesteros": "3.21", 
        "centrality_score": 0.19840116279069767, 
        "resname": "Gly"
    }, 
    {
        "resnum": 103, 
        "region_name": "TM", 
        "pymol": "/3NY8_eo//A/ASN`103/", 
        "ballesteros": "3.22", 
        "centrality_score": 0.203125, 
        "resname": "Asn"
    }, 
    {
        "resnum": 104, 
        "region_name": "TM", 
        "pymol": "/3NY8_eo//A/PHE`104/", 
        "ballesteros": "3.23", 
        "centrality_score": 0.19985358711566617, 
        "resname": "Phe"
    }, 
    {
        "resnum": 105, 
        "region_name": "TM", 
        "pymol": "/3NY8_eo//A/TRP`105/", 
        "ballesteros": "3.24", 
        "centrality_score": 0.22902684563758388, 
        "resname": "Trp"
    }, 
    {
        "resnum": 106, 
        "region_name": "TM", 
        "pymol": "/3NY8_eo//A/CYS`106/", 
        "ballesteros": "3.25", 
        "centrality_score": 0.22450657894736842, 
        "resname": "Cys"
    }, 
    {
        "resnum": 107, 
        "region_name": "TM", 
        "pymol": "/3NY8_eo//A/GLU`107/", 
        "ballesteros": "3.26", 
        "centrality_score": 0.21875, 
        "resname": "Glu"
    }, 
    {
        "resnum": 108, 
        "region_name": "TM", 
        "pymol": "/3NY8_eo//A/PHE`108/", 
        "ballesteros": "3.27", 
        "centrality_score": 0.22921914357682618, 
        "resname": "Phe"
    }, 
    {
        "resnum": 109, 
        "region_name": "TM", 
        "pymol": "/3NY8_eo//A/TRP`109/", 
        "ballesteros": "3.28", 
        "centrality_score": 0.2614942528735632, 
        "resname": "Trp"
    }, 
    {
        "resnum": 110, 
        "region_name": "TM", 
        "pymol": "/3NY8_eo//A/THR`110/", 
        "ballesteros": "3.29", 
        "centrality_score": 0.24818181818181817, 
        "resname": "Thr"
    }, 
    {
        "resnum": 111, 
        "region_name": "TM", 
        "pymol": "/3NY8_eo//A/SER`111/", 
        "ballesteros": "3.30", 
        "centrality_score": 0.24840764331210191, 
        "resname": "Ser"
    }, 
    {
        "resnum": 112, 
        "region_name": "TM", 
        "pymol": "/3NY8_eo//A/ILE`112/", 
        "ballesteros": "3.31", 
        "centrality_score": 0.25901328273244784, 
        "resname": "Ile"
    }, 
    {
        "resnum": 113, 
        "region_name": "TM", 
        "pymol": "/3NY8_eo//A/ASP`113/", 
        "ballesteros": "3.32", 
        "centrality_score": 0.27942681678607983, 
        "resname": "Asp"
    }, 
    {
        "resnum": 114, 
        "region_name": "TM", 
        "pymol": "/3NY8_eo//A/VAL`114/", 
        "ballesteros": "3.33", 
        "centrality_score": 0.27110228401191661, 
        "resname": "Val"
    }, 
    {
        "resnum": 115, 
        "region_name": "TM", 
        "pymol": "/3NY8_eo//A/LEU`115/", 
        "ballesteros": "3.34", 
        "centrality_score": 0.2650485436893204, 
        "resname": "Leu"
    }, 
    {
        "resnum": 116, 
        "region_name": "TM", 
        "pymol": "/3NY8_eo//A/CYS`116/", 
        "ballesteros": "3.35", 
        "centrality_score": 0.28526645768025077, 
        "resname": "Cys"
    }, 
    {
        "resnum": 117, 
        "region_name": "TM", 
        "pymol": "/3NY8_eo//A/VAL`117/", 
        "ballesteros": "3.36", 
        "centrality_score": 0.28888888888888886, 
        "resname": "Val"
    }, 
    {
        "resnum": 118, 
        "region_name": "TM", 
        "pymol": "/3NY8_eo//A/THR`118/", 
        "ballesteros": "3.37", 
        "centrality_score": 0.26351351351351349, 
        "resname": "Thr"
    }, 
    {
        "resnum": 119, 
        "region_name": "TM", 
        "pymol": "/3NY8_eo//A/ALA`119/", 
        "ballesteros": "3.38", 
        "centrality_score": 0.26376811594202898, 
        "resname": "Ala"
    }, 
    {
        "resnum": 120, 
        "region_name": "TM", 
        "pymol": "/3NY8_eo//A/SER`120/", 
        "ballesteros": "3.39", 
        "centrality_score": 0.28706624605678233, 
        "resname": "Ser"
    }, 
    {
        "resnum": 121, 
        "region_name": "TM", 
        "pymol": "/3NY8_eo//A/ILE`121/", 
        "ballesteros": "3.40", 
        "centrality_score": 0.27272727272727271, 
        "resname": "Ile"
    }, 
    {
        "resnum": 122, 
        "region_name": "TM", 
        "pymol": "/3NY8_eo//A/TRP`122/", 
        "ballesteros": "3.41", 
        "centrality_score": 0.25876777251184835, 
        "resname": "Trp"
    }, 
    {
        "resnum": 123, 
        "region_name": "TM", 
        "pymol": "/3NY8_eo//A/THR`123/", 
        "ballesteros": "3.42", 
        "centrality_score": 0.26712328767123289, 
        "resname": "Thr"
    }, 
    {
        "resnum": 124, 
        "region_name": "TM", 
        "pymol": "/3NY8_eo//A/LEU`124/", 
        "ballesteros": "3.43", 
        "centrality_score": 0.27191235059760954, 
        "resname": "Leu"
    }, 
    {
        "resnum": 125, 
        "region_name": "TM", 
        "pymol": "/3NY8_eo//A/CYS`125/", 
        "ballesteros": "3.44", 
        "centrality_score": 0.24506283662477557, 
        "resname": "Cys"
    }, 
    {
        "resnum": 126, 
        "region_name": "TM", 
        "pymol": "/3NY8_eo//A/VAL`126/", 
        "ballesteros": "3.45", 
        "centrality_score": 0.24484304932735426, 
        "resname": "Val"
    }, 
    {
        "resnum": 127, 
        "region_name": "TM", 
        "pymol": "/3NY8_eo//A/ILE`127/", 
        "ballesteros": "3.46", 
        "centrality_score": 0.25706214689265539, 
        "resname": "Ile"
    }, 
    {
        "resnum": 128, 
        "region_name": "TM", 
        "pymol": "/3NY8_eo//A/ALA`128/", 
        "ballesteros": "3.47", 
        "centrality_score": 0.2373913043478261, 
        "resname": "Ala"
    }, 
    {
        "resnum": 129, 
        "region_name": "TM", 
        "pymol": "/3NY8_eo//A/VAL`129/", 
        "ballesteros": "3.48", 
        "centrality_score": 0.22921914357682618, 
        "resname": "Val"
    }, 
    {
        "resnum": 130, 
        "region_name": "TM", 
        "pymol": "/3NY8_eo//A/ASP`130/", 
        "ballesteros": "3.49", 
        "centrality_score": 0.22750000000000001, 
        "resname": "Asp"
    }, 
    {
        "resnum": 131, 
        "region_name": "TM", 
        "pymol": "/3NY8_eo//A/ARG`131/", 
        "ballesteros": "3.50", 
        "centrality_score": 0.22693266832917705, 
        "resname": "Arg"
    }, 
    {
        "resnum": 132, 
        "region_name": "TM", 
        "pymol": "/3NY8_eo//A/TYR`132/", 
        "ballesteros": "3.51", 
        "centrality_score": 0.2057272042200452, 
        "resname": "Tyr"
    }, 
    {
        "resnum": 133, 
        "region_name": "TM", 
        "pymol": "/3NY8_eo//A/PHE`133/", 
        "ballesteros": "3.52", 
        "centrality_score": 0.19541875447387258, 
        "resname": "Phe"
    }, 
    {
        "resnum": 134, 
        "region_name": "TM", 
        "pymol": "/3NY8_eo//A/ALA`134/", 
        "ballesteros": "3.53", 
        "centrality_score": 0.19985358711566617, 
        "resname": "Ala"
    }, 
    {
        "resnum": 135, 
        "region_name": "TM", 
        "pymol": "/3NY8_eo//A/ILE`135/", 
        "ballesteros": "3.54", 
        "centrality_score": 0.19266055045871561, 
        "resname": "Ile"
    }, 
    {
        "resnum": 136, 
        "region_name": "TM", 
        "pymol": "/3NY8_eo//A/THR`136/", 
        "ballesteros": "3.55", 
        "centrality_score": 0.18067504963600264, 
        "resname": "Thr"
    }, 
    {
        "resnum": 137, 
        "region_name": "IL", 
        "pymol": "/3NY8_eo//A/SER`137/", 
        "ballesteros": "", 
        "centrality_score": 0.17831482691051601, 
        "resname": "Ser"
    }, 
    {
        "resnum": 138, 
        "region_name": "IL", 
        "pymol": "/3NY8_eo//A/PRO`138/", 
        "ballesteros": "", 
        "centrality_score": 0.15955581531268265, 
        "resname": "Pro"
    }, 
    {
        "resnum": 139, 
        "region_name": "IL", 
        "pymol": "/3NY8_eo//A/PHE`139/", 
        "ballesteros": "", 
        "centrality_score": 0.1742182514358647, 
        "resname": "Phe"
    }, 
    {
        "resnum": 140, 
        "region_name": "IL", 
        "pymol": "/3NY8_eo//A/LYS`140/", 
        "ballesteros": "", 
        "centrality_score": 0.17843137254901961, 
        "resname": "Lys"
    }, 
    {
        "resnum": 141, 
        "region_name": "IL", 
        "pymol": "/3NY8_eo//A/TYR`141/", 
        "ballesteros": "", 
        "centrality_score": 0.19306930693069307, 
        "resname": "Tyr"
    }, 
    {
        "resnum": 142, 
        "region_name": "IL", 
        "pymol": "/3NY8_eo//A/GLN`142/", 
        "ballesteros": "", 
        "centrality_score": 0.19555873925501432, 
        "resname": "Gln"
    }, 
    {
        "resnum": 143, 
        "region_name": "IL", 
        "pymol": "/3NY8_eo//A/SER`143/", 
        "ballesteros": "", 
        "centrality_score": 0.19897959183673469, 
        "resname": "Ser"
    }, 
    {
        "resnum": 144, 
        "region_name": "IL", 
        "pymol": "/3NY8_eo//A/LEU`144/", 
        "ballesteros": "", 
        "centrality_score": 0.1932059447983015, 
        "resname": "Leu"
    }, 
    {
        "resnum": 145, 
        "region_name": "IL", 
        "pymol": "/3NY8_eo//A/LEU`145/", 
        "ballesteros": "", 
        "centrality_score": 0.22105263157894736, 
        "resname": "Leu"
    }, 
    {
        "resnum": 146, 
        "region_name": "IL", 
        "pymol": "/3NY8_eo//A/THR`146/", 
        "ballesteros": "", 
        "centrality_score": 0.19472182596291013, 
        "resname": "Thr"
    }, 
    {
        "resnum": 147, 
        "region_name": "TM", 
        "pymol": "/3NY8_eo//A/LYS`147/", 
        "ballesteros": "4.39", 
        "centrality_score": 0.19840116279069767, 
        "resname": "Lys"
    }, 
    {
        "resnum": 148, 
        "region_name": "TM", 
        "pymol": "/3NY8_eo//A/ASN`148/", 
        "ballesteros": "4.40", 
        "centrality_score": 0.18346774193548387, 
        "resname": "Asn"
    }, 
    {
        "resnum": 149, 
        "region_name": "TM", 
        "pymol": "/3NY8_eo//A/LYS`149/", 
        "ballesteros": "4.41", 
        "centrality_score": 0.19782608695652174, 
        "resname": "Lys"
    }, 
    {
        "resnum": 150, 
        "region_name": "TM", 
        "pymol": "/3NY8_eo//A/ALA`150/", 
        "ballesteros": "4.42", 
        "centrality_score": 0.21927710843373494, 
        "resname": "Ala"
    }, 
    {
        "resnum": 151, 
        "region_name": "TM", 
        "pymol": "/3NY8_eo//A/ARG`151/", 
        "ballesteros": "4.43", 
        "centrality_score": 0.20983858570330516, 
        "resname": "Arg"
    }, 
    {
        "resnum": 152, 
        "region_name": "TM", 
        "pymol": "/3NY8_eo//A/VAL`152/", 
        "ballesteros": "4.44", 
        "centrality_score": 0.2060377358490566, 
        "resname": "Val"
    }, 
    {
        "resnum": 153, 
        "region_name": "TM", 
        "pymol": "/3NY8_eo//A/ILE`153/", 
        "ballesteros": "4.45", 
        "centrality_score": 0.22731057452123229, 
        "resname": "Ile"
    }, 
    {
        "resnum": 154, 
        "region_name": "TM", 
        "pymol": "/3NY8_eo//A/ILE`154/", 
        "ballesteros": "4.46", 
        "centrality_score": 0.24506283662477557, 
        "resname": "Ile"
    }, 
    {
        "resnum": 155, 
        "region_name": "TM", 
        "pymol": "/3NY8_eo//A/LEU`155/", 
        "ballesteros": "4.47", 
        "centrality_score": 0.22303921568627452, 
        "resname": "Leu"
    }, 
    {
        "resnum": 156, 
        "region_name": "TM", 
        "pymol": "/3NY8_eo//A/MET`156/", 
        "ballesteros": "4.48", 
        "centrality_score": 0.21428571428571427, 
        "resname": "Met"
    }, 
    {
        "resnum": 157, 
        "region_name": "TM", 
        "pymol": "/3NY8_eo//A/VAL`157/", 
        "ballesteros": "4.49", 
        "centrality_score": 0.25207756232686979, 
        "resname": "Val"
    }, 
    {
        "resnum": 158, 
        "region_name": "TM", 
        "pymol": "/3NY8_eo//A/TRP`158/", 
        "ballesteros": "4.50", 
        "centrality_score": 0.26976284584980237, 
        "resname": "Trp"
    }, 
    {
        "resnum": 159, 
        "region_name": "TM", 
        "pymol": "/3NY8_eo//A/ILE`159/", 
        "ballesteros": "4.51", 
        "centrality_score": 0.22267536704730831, 
        "resname": "Ile"
    }, 
    {
        "resnum": 160, 
        "region_name": "TM", 
        "pymol": "/3NY8_eo//A/VAL`160/", 
        "ballesteros": "4.52", 
        "centrality_score": 0.22712146422628951, 
        "resname": "Val"
    }, 
    {
        "resnum": 161, 
        "region_name": "TM", 
        "pymol": "/3NY8_eo//A/SER`161/", 
        "ballesteros": "4.53", 
        "centrality_score": 0.24954296160877515, 
        "resname": "Ser"
    }, 
    {
        "resnum": 162, 
        "region_name": "TM", 
        "pymol": "/3NY8_eo//A/GLY`162/", 
        "ballesteros": "4.54", 
        "centrality_score": 0.23353293413173654, 
        "resname": "Gly"
    }, 
    {
        "resnum": 163, 
        "region_name": "TM", 
        "pymol": "/3NY8_eo//A/LEU`163/", 
        "ballesteros": "4.55", 
        "centrality_score": 0.21927710843373494, 
        "resname": "Leu"
    }, 
    {
        "resnum": 164, 
        "region_name": "TM", 
        "pymol": "/3NY8_eo//A/THR`164/", 
        "ballesteros": "4.56", 
        "centrality_score": 0.23947368421052631, 
        "resname": "Thr"
    }, 
    {
        "resnum": 165, 
        "region_name": "TM", 
        "pymol": "/3NY8_eo//A/SER`165/", 
        "ballesteros": "4.57", 
        "centrality_score": 0.24818181818181817, 
        "resname": "Ser"
    }, 
    {
        "resnum": 166, 
        "region_name": "TM", 
        "pymol": "/3NY8_eo//A/PHE`166/", 
        "ballesteros": "4.58", 
        "centrality_score": 0.23293515358361774, 
        "resname": "Phe"
    }, 
    {
        "resnum": 167, 
        "region_name": "TM", 
        "pymol": "/3NY8_eo//A/LEU`167/", 
        "ballesteros": "4.59", 
        "centrality_score": 0.21513002364066194, 
        "resname": "Leu"
    }, 
    {
        "resnum": 168, 
        "region_name": "TM", 
        "pymol": "/3NY8_eo//A/PRO`168/", 
        "ballesteros": "4.60", 
        "centrality_score": 0.21752988047808766, 
        "resname": "Pro"
    }, 
    {
        "resnum": 169, 
        "region_name": "TM", 
        "pymol": "/3NY8_eo//A/ILE`169/", 
        "ballesteros": "4.61", 
        "centrality_score": 0.23595505617977527, 
        "resname": "Ile"
    }, 
    {
        "resnum": 170, 
        "region_name": "TM", 
        "pymol": "/3NY8_eo//A/GLN`170/", 
        "ballesteros": "4.62", 
        "centrality_score": 0.21162790697674419, 
        "resname": "Gln"
    }, 
    {
        "resnum": 171, 
        "region_name": "EL", 
        "pymol": "/3NY8_eo//A/MET`171/", 
        "ballesteros": "", 
        "centrality_score": 0.18775790921595598, 
        "resname": "Met"
    }, 
    {
        "resnum": 172, 
        "region_name": "EL", 
        "pymol": "/3NY8_eo//A/HIS`172/", 
        "ballesteros": "", 
        "centrality_score": 0.20029347028613353, 
        "resname": "His"
    }, 
    {
        "resnum": 173, 
        "region_name": "EL", 
        "pymol": "/3NY8_eo//A/TRP`173/", 
        "ballesteros": "", 
        "centrality_score": 0.19883466860888566, 
        "resname": "Trp"
    }, 
    {
        "resnum": 174, 
        "region_name": "EL", 
        "pymol": "/3NY8_eo//A/TYR`174/", 
        "ballesteros": "", 
        "centrality_score": 0.21563981042654029, 
        "resname": "Tyr"
    }, 
    {
        "resnum": 175, 
        "region_name": "EL", 
        "pymol": "/3NY8_eo//A/ARG`175/", 
        "ballesteros": "", 
        "centrality_score": 0.19583931133428981, 
        "resname": "Arg"
    }, 
    {
        "resnum": 176, 
        "region_name": "EL", 
        "pymol": "/3NY8_eo//A/ALA`176/", 
        "ballesteros": "", 
        "centrality_score": 0.18596730245231607, 
        "resname": "Ala"
    }, 
    {
        "resnum": 177, 
        "region_name": "EL", 
        "pymol": "/3NY8_eo//A/THR`177/", 
        "ballesteros": "", 
        "centrality_score": 0.16565533980582525, 
        "resname": "Thr"
    }, 
    {
        "resnum": 178, 
        "region_name": "EL", 
        "pymol": "/3NY8_eo//A/HIS`178/", 
        "ballesteros": "", 
        "centrality_score": 0.18383838383838383, 
        "resname": "His"
    }, 
    {
        "resnum": 179, 
        "region_name": "EL", 
        "pymol": "/3NY8_eo//A/GLN`179/", 
        "ballesteros": "", 
        "centrality_score": 0.15780346820809249, 
        "resname": "Gln"
    }, 
    {
        "resnum": 180, 
        "region_name": "EL", 
        "pymol": "/3NY8_eo//A/GLU`180/", 
        "ballesteros": "", 
        "centrality_score": 0.17972350230414746, 
        "resname": "Glu"
    }, 
    {
        "resnum": 181, 
        "region_name": "EL", 
        "pymol": "/3NY8_eo//A/ALA`181/", 
        "ballesteros": "", 
        "centrality_score": 0.18091451292246521, 
        "resname": "Ala"
    }, 
    {
        "resnum": 182, 
        "region_name": "EL", 
        "pymol": "/3NY8_eo//A/ILE`182/", 
        "ballesteros": "", 
        "centrality_score": 0.16585662211421628, 
        "resname": "Ile"
    }, 
    {
        "resnum": 183, 
        "region_name": "EL", 
        "pymol": "/3NY8_eo//A/ASN`183/", 
        "ballesteros": "", 
        "centrality_score": 0.16666666666666666, 
        "resname": "Asn"
    }, 
    {
        "resnum": 184, 
        "region_name": "EL", 
        "pymol": "/3NY8_eo//A/CYS`184/", 
        "ballesteros": "", 
        "centrality_score": 0.19654427645788336, 
        "resname": "Cys"
    }, 
    {
        "resnum": 185, 
        "region_name": "EL", 
        "pymol": "/3NY8_eo//A/TYR`185/", 
        "ballesteros": "", 
        "centrality_score": 0.19361702127659575, 
        "resname": "Tyr"
    }, 
    {
        "resnum": 186, 
        "region_name": "EL", 
        "pymol": "/3NY8_eo//A/ALA`186/", 
        "ballesteros": "", 
        "centrality_score": 0.17715768981181051, 
        "resname": "Ala"
    }, 
    {
        "resnum": 187, 
        "region_name": "EL", 
        "pymol": "/3NY8_eo//A/GLU`187/", 
        "ballesteros": "", 
        "centrality_score": 0.17819843342036554, 
        "resname": "Glu"
    }, 
    {
        "resnum": 188, 
        "region_name": "EL", 
        "pymol": "/3NY8_eo//A/GLU`188/", 
        "ballesteros": "", 
        "centrality_score": 0.19117647058823528, 
        "resname": "Glu"
    }, 
    {
        "resnum": 189, 
        "region_name": "EL", 
        "pymol": "/3NY8_eo//A/THR`189/", 
        "ballesteros": "", 
        "centrality_score": 0.1975397973950796, 
        "resname": "Thr"
    }, 
    {
        "resnum": 190, 
        "region_name": "EL", 
        "pymol": "/3NY8_eo//A/CYS`190/", 
        "ballesteros": "", 
        "centrality_score": 0.20088300220750552, 
        "resname": "Cys"
    }, 
    {
        "resnum": 191, 
        "region_name": "EL", 
        "pymol": "/3NY8_eo//A/CYS`191/", 
        "ballesteros": "", 
        "centrality_score": 0.23373287671232876, 
        "resname": "Cys"
    }, 
    {
        "resnum": 192, 
        "region_name": "EL", 
        "pymol": "/3NY8_eo//A/ASP`192/", 
        "ballesteros": "", 
        "centrality_score": 0.22303921568627452, 
        "resname": "Asp"
    }, 
    {
        "resnum": 193, 
        "region_name": "EL", 
        "pymol": "/3NY8_eo//A/PHE`193/", 
        "ballesteros": "", 
        "centrality_score": 0.25301204819277107, 
        "resname": "Phe"
    }, 
    {
        "resnum": 194, 
        "region_name": "EL", 
        "pymol": "/3NY8_eo//A/PHE`194/", 
        "ballesteros": "", 
        "centrality_score": 0.21513002364066194, 
        "resname": "Phe"
    }, 
    {
        "resnum": 195, 
        "region_name": "EL", 
        "pymol": "/3NY8_eo//A/THR`195/", 
        "ballesteros": "", 
        "centrality_score": 0.21462264150943397, 
        "resname": "Thr"
    }, 
    {
        "resnum": 196, 
        "region_name": "EL", 
        "pymol": "/3NY8_eo//A/ASN`196/", 
        "ballesteros": "", 
        "centrality_score": 0.20282317979197623, 
        "resname": "Asn"
    }, 
    {
        "resnum": 197, 
        "region_name": "TM", 
        "pymol": "/3NY8_eo//A/GLN`197/", 
        "ballesteros": "5.36", 
        "centrality_score": 0.20237212750185324, 
        "resname": "Gln"
    }, 
    {
        "resnum": 198, 
        "region_name": "TM", 
        "pymol": "/3NY8_eo//A/ALA`198/", 
        "ballesteros": "5.37", 
        "centrality_score": 0.20373134328358208, 
        "resname": "Ala"
    }, 
    {
        "resnum": 199, 
        "region_name": "TM", 
        "pymol": "/3NY8_eo//A/TYR`199/", 
        "ballesteros": "5.38", 
        "centrality_score": 0.23718505647263249, 
        "resname": "Tyr"
    }, 
    {
        "resnum": 200, 
        "region_name": "TM", 
        "pymol": "/3NY8_eo//A/ALA`200/", 
        "ballesteros": "5.39", 
        "centrality_score": 0.22303921568627452, 
        "resname": "Ala"
    }, 
    {
        "resnum": 201, 
        "region_name": "TM", 
        "pymol": "/3NY8_eo//A/ILE`201/", 
        "ballesteros": "5.40", 
        "centrality_score": 0.20823798627002288, 
        "resname": "Ile"
    }, 
    {
        "resnum": 202, 
        "region_name": "TM", 
        "pymol": "/3NY8_eo//A/ALA`202/", 
        "ballesteros": "5.41", 
        "centrality_score": 0.21945337620578778, 
        "resname": "Ala"
    }, 
    {
        "resnum": 203, 
        "region_name": "TM", 
        "pymol": "/3NY8_eo//A/SER`203/", 
        "ballesteros": "5.42", 
        "centrality_score": 0.2365684575389948, 
        "resname": "Ser"
    }, 
    {
        "resnum": 204, 
        "region_name": "TM", 
        "pymol": "/3NY8_eo//A/SER`204/", 
        "ballesteros": "5.43", 
        "centrality_score": 0.24616771866546439, 
        "resname": "Ser"
    }, 
    {
        "resnum": 205, 
        "region_name": "TM", 
        "pymol": "/3NY8_eo//A/ILE`205/", 
        "ballesteros": "5.44", 
        "centrality_score": 0.21735668789808918, 
        "resname": "Ile"
    }, 
    {
        "resnum": 206, 
        "region_name": "TM", 
        "pymol": "/3NY8_eo//A/VAL`206/", 
        "ballesteros": "5.45", 
        "centrality_score": 0.23801220575414123, 
        "resname": "Val"
    }, 
    {
        "resnum": 207, 
        "region_name": "TM", 
        "pymol": "/3NY8_eo//A/SER`207/", 
        "ballesteros": "5.46", 
        "centrality_score": 0.26556420233463035, 
        "resname": "Ser"
    }, 
    {
        "resnum": 208, 
        "region_name": "TM", 
        "pymol": "/3NY8_eo//A/PHE`208/", 
        "ballesteros": "5.47", 
        "centrality_score": 0.27110228401191661, 
        "resname": "Phe"
    }, 
    {
        "resnum": 209, 
        "region_name": "TM", 
        "pymol": "/3NY8_eo//A/TYR`209/", 
        "ballesteros": "5.48", 
        "centrality_score": 0.23780487804878048, 
        "resname": "Tyr"
    }, 
    {
        "resnum": 210, 
        "region_name": "TM", 
        "pymol": "/3NY8_eo//A/VAL`210/", 
        "ballesteros": "5.49", 
        "centrality_score": 0.22768974145120935, 
        "resname": "Val"
    }, 
    {
        "resnum": 211, 
        "region_name": "TM", 
        "pymol": "/3NY8_eo//A/PRO`211/", 
        "ballesteros": "5.50", 
        "centrality_score": 0.24728260869565216, 
        "resname": "Pro"
    }, 
    {
        "resnum": 212, 
        "region_name": "TM", 
        "pymol": "/3NY8_eo//A/LEU`212/", 
        "ballesteros": "5.51", 
        "centrality_score": 0.24863387978142076, 
        "resname": "Leu"
    }, 
    {
        "resnum": 213, 
        "region_name": "TM", 
        "pymol": "/3NY8_eo//A/VAL`213/", 
        "ballesteros": "5.52", 
        "centrality_score": 0.22213181448331978, 
        "resname": "Val"
    }, 
    {
        "resnum": 214, 
        "region_name": "TM", 
        "pymol": "/3NY8_eo//A/ILE`214/", 
        "ballesteros": "5.53", 
        "centrality_score": 0.23333333333333334, 
        "resname": "Ile"
    }, 
    {
        "resnum": 215, 
        "region_name": "TM", 
        "pymol": "/3NY8_eo//A/MET`215/", 
        "ballesteros": "5.54", 
        "centrality_score": 0.25442684063373716, 
        "resname": "Met"
    }, 
    {
        "resnum": 216, 
        "region_name": "TM", 
        "pymol": "/3NY8_eo//A/VAL`216/", 
        "ballesteros": "5.55", 
        "centrality_score": 0.22618061309030654, 
        "resname": "Val"
    }, 
    {
        "resnum": 217, 
        "region_name": "TM", 
        "pymol": "/3NY8_eo//A/PHE`217/", 
        "ballesteros": "5.56", 
        "centrality_score": 0.20650529500756429, 
        "resname": "Phe"
    }, 
    {
        "resnum": 218, 
        "region_name": "TM", 
        "pymol": "/3NY8_eo//A/VAL`218/", 
        "ballesteros": "5.57", 
        "centrality_score": 0.22285714285714286, 
        "resname": "Val"
    }, 
    {
        "resnum": 219, 
        "region_name": "TM", 
        "pymol": "/3NY8_eo//A/TYR`219/", 
        "ballesteros": "5.58", 
        "centrality_score": 0.23615916955017302, 
        "resname": "Tyr"
    }, 
    {
        "resnum": 220, 
        "region_name": "TM", 
        "pymol": "/3NY8_eo//A/SER`220/", 
        "ballesteros": "5.59", 
        "centrality_score": 0.20388349514563106, 
        "resname": "Ser"
    }, 
    {
        "resnum": 221, 
        "region_name": "TM", 
        "pymol": "/3NY8_eo//A/ARG`221/", 
        "ballesteros": "5.60", 
        "centrality_score": 0.19682768565248737, 
        "resname": "Arg"
    }, 
    {
        "resnum": 222, 
        "region_name": "TM", 
        "pymol": "/3NY8_eo//A/VAL`222/", 
        "ballesteros": "5.61", 
        "centrality_score": 0.20666161998485996, 
        "resname": "Val"
    }, 
    {
        "resnum": 223, 
        "region_name": "TM", 
        "pymol": "/3NY8_eo//A/PHE`223/", 
        "ballesteros": "5.62", 
        "centrality_score": 0.20297397769516728, 
        "resname": "Phe"
    }, 
    {
        "resnum": 224, 
        "region_name": "TM", 
        "pymol": "/3NY8_eo//A/GLN`224/", 
        "ballesteros": "5.63", 
        "centrality_score": 0.17578879587894397, 
        "resname": "Gln"
    }, 
    {
        "resnum": 225, 
        "region_name": "TM", 
        "pymol": "/3NY8_eo//A/GLU`225/", 
        "ballesteros": "5.64", 
        "centrality_score": 0.18408631153068106, 
        "resname": "Glu"
    }, 
    {
        "resnum": 226, 
        "region_name": "TM", 
        "pymol": "/3NY8_eo//A/ALA`226/", 
        "ballesteros": "5.65", 
        "centrality_score": 0.1863481228668942, 
        "resname": "Ala"
    }, 
    {
        "resnum": 227, 
        "region_name": "TM", 
        "pymol": "/3NY8_eo//A/LYS`227/", 
        "ballesteros": "5.66", 
        "centrality_score": 0.17148241206030151, 
        "resname": "Lys"
    }, 
    {
        "resnum": 266, 
        "region_name": "IL", 
        "pymol": "/3NY8_eo//A/LEU`266/", 
        "ballesteros": "", 
        "centrality_score": 0.17960526315789474, 
        "resname": "Leu"
    }, 
    {
        "resnum": 267, 
        "region_name": "TM", 
        "pymol": "/3NY8_eo//A/LYS`267/", 
        "ballesteros": "6.29", 
        "centrality_score": 0.18322147651006712, 
        "resname": "Lys"
    }, 
    {
        "resnum": 268, 
        "region_name": "TM", 
        "pymol": "/3NY8_eo//A/GLU`268/", 
        "ballesteros": "6.30", 
        "centrality_score": 0.18584070796460178, 
        "resname": "Glu"
    }, 
    {
        "resnum": 269, 
        "region_name": "TM", 
        "pymol": "/3NY8_eo//A/HIS`269/", 
        "ballesteros": "6.31", 
        "centrality_score": 0.1891891891891892, 
        "resname": "His"
    }, 
    {
        "resnum": 270, 
        "region_name": "TM", 
        "pymol": "/3NY8_eo//A/LYS`270/", 
        "ballesteros": "6.32", 
        "centrality_score": 0.19985358711566617, 
        "resname": "Lys"
    }, 
    {
        "resnum": 271, 
        "region_name": "TM", 
        "pymol": "/3NY8_eo//A/ALA`271/", 
        "ballesteros": "6.33", 
        "centrality_score": 0.21146398140975989, 
        "resname": "Ala"
    }, 
    {
        "resnum": 272, 
        "region_name": "TM", 
        "pymol": "/3NY8_eo//A/LEU`272/", 
        "ballesteros": "6.34", 
        "centrality_score": 0.21962992759452937, 
        "resname": "Leu"
    }, 
    {
        "resnum": 273, 
        "region_name": "TM", 
        "pymol": "/3NY8_eo//A/LYS`273/", 
        "ballesteros": "6.35", 
        "centrality_score": 0.20744680851063829, 
        "resname": "Lys"
    }, 
    {
        "resnum": 274, 
        "region_name": "TM", 
        "pymol": "/3NY8_eo//A/THR`274/", 
        "ballesteros": "6.36", 
        "centrality_score": 0.23759791122715404, 
        "resname": "Thr"
    }, 
    {
        "resnum": 275, 
        "region_name": "TM", 
        "pymol": "/3NY8_eo//A/LEU`275/", 
        "ballesteros": "6.37", 
        "centrality_score": 0.25730442978322338, 
        "resname": "Leu"
    }, 
    {
        "resnum": 276, 
        "region_name": "TM", 
        "pymol": "/3NY8_eo//A/GLY`276/", 
        "ballesteros": "6.38", 
        "centrality_score": 0.23155216284987276, 
        "resname": "Gly"
    }, 
    {
        "resnum": 277, 
        "region_name": "TM", 
        "pymol": "/3NY8_eo//A/ILE`277/", 
        "ballesteros": "6.39", 
        "centrality_score": 0.23135593220338982, 
        "resname": "Ile"
    }, 
    {
        "resnum": 278, 
        "region_name": "TM", 
        "pymol": "/3NY8_eo//A/ILE`278/", 
        "ballesteros": "6.40", 
        "centrality_score": 0.27743902439024393, 
        "resname": "Ile"
    }, 
    {
        "resnum": 279, 
        "region_name": "TM", 
        "pymol": "/3NY8_eo//A/MET`279/", 
        "ballesteros": "6.41", 
        "centrality_score": 0.26099426386233271, 
        "resname": "Met"
    }, 
    {
        "resnum": 280, 
        "region_name": "TM", 
        "pymol": "/3NY8_eo//A/GLY`280/", 
        "ballesteros": "6.42", 
        "centrality_score": 0.23821989528795812, 
        "resname": "Gly"
    }, 
    {
        "resnum": 281, 
        "region_name": "TM", 
        "pymol": "/3NY8_eo//A/THR`281/", 
        "ballesteros": "6.43", 
        "centrality_score": 0.25803402646502838, 
        "resname": "Thr"
    }, 
    {
        "resnum": 282, 
        "region_name": "TM", 
        "pymol": "/3NY8_eo//A/PHE`282/", 
        "ballesteros": "6.44", 
        "centrality_score": 0.29166666666666669, 
        "resname": "Phe"
    }, 
    {
        "resnum": 283, 
        "region_name": "TM", 
        "pymol": "/3NY8_eo//A/THR`283/", 
        "ballesteros": "6.45", 
        "centrality_score": 0.25207756232686979, 
        "resname": "Thr"
    }, 
    {
        "resnum": 284, 
        "region_name": "TM", 
        "pymol": "/3NY8_eo//A/LEU`284/", 
        "ballesteros": "6.46", 
        "centrality_score": 0.25254394079555964, 
        "resname": "Leu"
    }, 
    {
        "resnum": 285, 
        "region_name": "TM", 
        "pymol": "/3NY8_eo//A/CYS`285/", 
        "ballesteros": "6.47", 
        "centrality_score": 0.26712328767123289, 
        "resname": "Cys"
    }, 
    {
        "resnum": 286, 
        "region_name": "TM", 
        "pymol": "/3NY8_eo//A/TRP`286/", 
        "ballesteros": "6.48", 
        "centrality_score": 0.29135538954108858, 
        "resname": "Trp"
    }, 
    {
        "resnum": 287, 
        "region_name": "TM", 
        "pymol": "/3NY8_eo//A/LEU`287/", 
        "ballesteros": "6.49", 
        "centrality_score": 0.25114995400183993, 
        "resname": "Leu"
    }, 
    {
        "resnum": 288, 
        "region_name": "TM", 
        "pymol": "/3NY8_eo//A/PRO`288/", 
        "ballesteros": "6.50", 
        "centrality_score": 0.25301204819277107, 
        "resname": "Pro"
    }, 
    {
        "resnum": 289, 
        "region_name": "TM", 
        "pymol": "/3NY8_eo//A/PHE`289/", 
        "ballesteros": "6.51", 
        "centrality_score": 0.25324675324675322, 
        "resname": "Phe"
    }, 
    {
        "resnum": 290, 
        "region_name": "TM", 
        "pymol": "/3NY8_eo//A/PHE`290/", 
        "ballesteros": "6.52", 
        "centrality_score": 0.26099426386233271, 
        "resname": "Phe"
    }, 
    {
        "resnum": 291, 
        "region_name": "TM", 
        "pymol": "/3NY8_eo//A/ILE`291/", 
        "ballesteros": "6.53", 
        "centrality_score": 0.22674418604651161, 
        "resname": "Ile"
    }, 
    {
        "resnum": 292, 
        "region_name": "TM", 
        "pymol": "/3NY8_eo//A/VAL`292/", 
        "ballesteros": "6.54", 
        "centrality_score": 0.22883487007544007, 
        "resname": "Val"
    }, 
    {
        "resnum": 293, 
        "region_name": "TM", 
        "pymol": "/3NY8_eo//A/ASN`293/", 
        "ballesteros": "6.55", 
        "centrality_score": 0.23863636363636365, 
        "resname": "Asn"
    }, 
    {
        "resnum": 294, 
        "region_name": "TM", 
        "pymol": "/3NY8_eo//A/ILE`294/", 
        "ballesteros": "6.56", 
        "centrality_score": 0.23174872665534804, 
        "resname": "Ile"
    }, 
    {
        "resnum": 295, 
        "region_name": "TM", 
        "pymol": "/3NY8_eo//A/VAL`295/", 
        "ballesteros": "6.57", 
        "centrality_score": 0.19970738844184346, 
        "resname": "Val"
    }, 
    {
        "resnum": 296, 
        "region_name": "TM", 
        "pymol": "/3NY8_eo//A/HIS`296/", 
        "ballesteros": "6.58", 
        "centrality_score": 0.20919540229885059, 
        "resname": "His"
    }, 
    {
        "resnum": 297, 
        "region_name": "TM", 
        "pymol": "/3NY8_eo//A/VAL`297/", 
        "ballesteros": "6.59", 
        "centrality_score": 0.20418848167539266, 
        "resname": "Val"
    }, 
    {
        "resnum": 298, 
        "region_name": "TM", 
        "pymol": "/3NY8_eo//A/ILE`298/", 
        "ballesteros": "6.60", 
        "centrality_score": 0.193342776203966, 
        "resname": "Ile"
    }, 
    {
        "resnum": 299, 
        "region_name": "EL", 
        "pymol": "/3NY8_eo//A/GLN`299/", 
        "ballesteros": "", 
        "centrality_score": 0.17761873780091086, 
        "resname": "Gln"
    }, 
    {
        "resnum": 300, 
        "region_name": "EL", 
        "pymol": "/3NY8_eo//A/ASP`300/", 
        "ballesteros": "", 
        "centrality_score": 0.18521031207598371, 
        "resname": "Asp"
    }, 
    {
        "resnum": 301, 
        "region_name": "EL", 
        "pymol": "/3NY8_eo//A/ASN`301/", 
        "ballesteros": "", 
        "centrality_score": 0.17499999999999999, 
        "resname": "Asn"
    }, 
    {
        "resnum": 302, 
        "region_name": "EL", 
        "pymol": "/3NY8_eo//A/LEU`302/", 
        "ballesteros": "", 
        "centrality_score": 0.17936925098554535, 
        "resname": "Leu"
    }, 
    {
        "resnum": 303, 
        "region_name": "EL", 
        "pymol": "/3NY8_eo//A/ILE`303/", 
        "ballesteros": "", 
        "centrality_score": 0.20557228915662651, 
        "resname": "Ile"
    }, 
    {
        "resnum": 304, 
        "region_name": "EL", 
        "pymol": "/3NY8_eo//A/ARG`304/", 
        "ballesteros": "", 
        "centrality_score": 0.19668587896253603, 
        "resname": "Arg"
    }, 
    {
        "resnum": 305, 
        "region_name": "TM", 
        "pymol": "/3NY8_eo//A/LYS`305/", 
        "ballesteros": "7.32", 
        "centrality_score": 0.2060377358490566, 
        "resname": "Lys"
    }, 
    {
        "resnum": 306, 
        "region_name": "TM", 
        "pymol": "/3NY8_eo//A/GLU`306/", 
        "ballesteros": "7.33", 
        "centrality_score": 0.20117907148120856, 
        "resname": "Glu"
    }, 
    {
        "resnum": 307, 
        "region_name": "TM", 
        "pymol": "/3NY8_eo//A/VAL`307/", 
        "ballesteros": "7.34", 
        "centrality_score": 0.21718377088305491, 
        "resname": "Val"
    }, 
    {
        "resnum": 308, 
        "region_name": "TM", 
        "pymol": "/3NY8_eo//A/TYR`308/", 
        "ballesteros": "7.35", 
        "centrality_score": 0.23842794759825328, 
        "resname": "Tyr"
    }, 
    {
        "resnum": 309, 
        "region_name": "TM", 
        "pymol": "/3NY8_eo//A/ILE`309/", 
        "ballesteros": "7.36", 
        "centrality_score": 0.23018549747048903, 
        "resname": "Ile"
    }, 
    {
        "resnum": 310, 
        "region_name": "TM", 
        "pymol": "/3NY8_eo//A/LEU`310/", 
        "ballesteros": "7.37", 
        "centrality_score": 0.22340425531914893, 
        "resname": "Leu"
    }, 
    {
        "resnum": 311, 
        "region_name": "TM", 
        "pymol": "/3NY8_eo//A/LEU`311/", 
        "ballesteros": "7.38", 
        "centrality_score": 0.24728260869565216, 
        "resname": "Leu"
    }, 
    {
        "resnum": 312, 
        "region_name": "TM", 
        "pymol": "/3NY8_eo//A/ASN`312/", 
        "ballesteros": "7.39", 
        "centrality_score": 0.26099426386233271, 
        "resname": "Asn"
    }, 
    {
        "resnum": 313, 
        "region_name": "TM", 
        "pymol": "/3NY8_eo//A/TRP`313/", 
        "ballesteros": "7.40", 
        "centrality_score": 0.24572457245724572, 
        "resname": "Trp"
    }, 
    {
        "resnum": 314, 
        "region_name": "TM", 
        "pymol": "/3NY8_eo//A/ILE`314/", 
        "ballesteros": "7.41", 
        "centrality_score": 0.25022914757103576, 
        "resname": "Ile"
    }, 
    {
        "resnum": 315, 
        "region_name": "TM", 
        "pymol": "/3NY8_eo//A/GLY`315/", 
        "ballesteros": "7.42", 
        "centrality_score": 0.26199616122840691, 
        "resname": "Gly"
    }, 
    {
        "resnum": 316, 
        "region_name": "TM", 
        "pymol": "/3NY8_eo//A/TYR`316/", 
        "ballesteros": "7.43", 
        "centrality_score": 0.28950159066808057, 
        "resname": "Tyr"
    }, 
    {
        "resnum": 317, 
        "region_name": "TM", 
        "pymol": "/3NY8_eo//A/VAL`317/", 
        "ballesteros": "7.44", 
        "centrality_score": 0.26024785510009535, 
        "resname": "Val"
    }, 
    {
        "resnum": 318, 
        "region_name": "TM", 
        "pymol": "/3NY8_eo//A/ASN`318/", 
        "ballesteros": "7.45", 
        "centrality_score": 0.27828746177370028, 
        "resname": "Asn"
    }, 
    {
        "resnum": 319, 
        "region_name": "TM", 
        "pymol": "/3NY8_eo//A/SER`319/", 
        "ballesteros": "7.46", 
        "centrality_score": 0.27857142857142858, 
        "resname": "Ser"
    }, 
    {
        "resnum": 320, 
        "region_name": "TM", 
        "pymol": "/3NY8_eo//A/GLY`320/", 
        "ballesteros": "7.47", 
        "centrality_score": 0.25395348837209303, 
        "resname": "Gly"
    }, 
    {
        "resnum": 321, 
        "region_name": "TM", 
        "pymol": "/3NY8_eo//A/PHE`321/", 
        "ballesteros": "7.48", 
        "centrality_score": 0.25514018691588786, 
        "resname": "Phe"
    }, 
    {
        "resnum": 322, 
        "region_name": "TM", 
        "pymol": "/3NY8_eo//A/ASN`322/", 
        "ballesteros": "7.49", 
        "centrality_score": 0.26712328767123289, 
        "resname": "Asn"
    }, 
    {
        "resnum": 323, 
        "region_name": "TM", 
        "pymol": "/3NY8_eo//A/PRO`323/", 
        "ballesteros": "7.50", 
        "centrality_score": 0.26000000000000001, 
        "resname": "Pro"
    }, 
    {
        "resnum": 324, 
        "region_name": "TM", 
        "pymol": "/3NY8_eo//A/LEU`324/", 
        "ballesteros": "7.51", 
        "centrality_score": 0.22655601659751037, 
        "resname": "Leu"
    }, 
    {
        "resnum": 325, 
        "region_name": "TM", 
        "pymol": "/3NY8_eo//A/ILE`325/", 
        "ballesteros": "7.52", 
        "centrality_score": 0.24266666666666667, 
        "resname": "Ile"
    }, 
    {
        "resnum": 326, 
        "region_name": "TM", 
        "pymol": "/3NY8_eo//A/TYR`326/", 
        "ballesteros": "7.53", 
        "centrality_score": 0.2614942528735632, 
        "resname": "Tyr"
    }, 
    {
        "resnum": 327, 
        "region_name": "TM", 
        "pymol": "/3NY8_eo//A/CYS`327/", 
        "ballesteros": "7.54", 
        "centrality_score": 0.22921914357682618, 
        "resname": "Cys"
    }, 
    {
        "resnum": 328, 
        "region_name": "TM", 
        "pymol": "/3NY8_eo//A/ARG`328/", 
        "ballesteros": "7.55", 
        "centrality_score": 0.22213181448331978, 
        "resname": "Arg"
    }, 
    {
        "resnum": 329, 
        "region_name": "H", 
        "pymol": "/3NY8_eo//A/SER`329/", 
        "ballesteros": "", 
        "centrality_score": 0.21546961325966851, 
        "resname": "Ser"
    }, 
    {
        "resnum": 330, 
        "region_name": "H", 
        "pymol": "/3NY8_eo//A/PRO`330/", 
        "ballesteros": "", 
        "centrality_score": 0.193342776203966, 
        "resname": "Pro"
    }, 
    {
        "resnum": 331, 
        "region_name": "H", 
        "pymol": "/3NY8_eo//A/ASP`331/", 
        "ballesteros": "", 
        "centrality_score": 0.18945176960444135, 
        "resname": "Asp"
    }, 
    {
        "resnum": 332, 
        "region_name": "H", 
        "pymol": "/3NY8_eo//A/PHE`332/", 
        "ballesteros": "", 
        "centrality_score": 0.22213181448331978, 
        "resname": "Phe"
    }, 
    {
        "resnum": 333, 
        "region_name": "H", 
        "pymol": "/3NY8_eo//A/ARG`333/", 
        "ballesteros": "", 
        "centrality_score": 0.21666666666666667, 
        "resname": "Arg"
    }, 
    {
        "resnum": 334, 
        "region_name": "H", 
        "pymol": "/3NY8_eo//A/ILE`334/", 
        "ballesteros": "", 
        "centrality_score": 0.18685831622176591, 
        "resname": "Ile"
    }, 
    {
        "resnum": 335, 
        "region_name": "H", 
        "pymol": "/3NY8_eo//A/ALA`335/", 
        "ballesteros": "", 
        "centrality_score": 0.20044052863436124, 
        "resname": "Ala"
    }, 
    {
        "resnum": 336, 
        "region_name": "H", 
        "pymol": "/3NY8_eo//A/PHE`336/", 
        "ballesteros": "", 
        "centrality_score": 0.23234042553191489, 
        "resname": "Phe"
    }, 
    {
        "resnum": 337, 
        "region_name": "H", 
        "pymol": "/3NY8_eo//A/GLN`337/", 
        "ballesteros": "", 
        "centrality_score": 0.19682768565248737, 
        "resname": "Gln"
    }, 
    {
        "resnum": 338, 
        "region_name": "H", 
        "pymol": "/3NY8_eo//A/GLU`338/", 
        "ballesteros": "", 
        "centrality_score": 0.17499999999999999, 
        "resname": "Glu"
    }, 
    {
        "resnum": 339, 
        "region_name": "H", 
        "pymol": "/3NY8_eo//A/LEU`339/", 
        "ballesteros": "", 
        "centrality_score": 0.20044052863436124, 
        "resname": "Leu"
    }, 
    {
        "resnum": 340, 
        "region_name": "H", 
        "pymol": "/3NY8_eo//A/LEU`340/", 
        "ballesteros": "", 
        "centrality_score": 0.20282317979197623, 
        "resname": "Leu"
    }, 
    {
        "resnum": 341, 
        "region_name": "H", 
        "pymol": "/3NY8_eo//A/CYS`341/", 
        "ballesteros": "", 
        "centrality_score": 0.17556270096463023, 
        "resname": "Cys"
    }, 
    {
        "resnum": 342, 
        "region_name": "Ct", 
        "pymol": "/3NY8_eo//A/LEU`342/", 
        "ballesteros": "", 
        "centrality_score": 0.19157894736842104, 
        "resname": "Leu"
    }, 
    {
        "resnum": 1207, 
        "region_name": "", 
        "pymol": "/3NY8_eo//A/PGE`1207/", 
        "ballesteros": "", 
        "centrality_score": 0.17715768981181051, 
        "resname": "Pge"
    }
]