[
    {
        "resnum": 32, 
        "region_name": "TM", 
        "pymol": "/2RH1_eo_nohet//A/TRP`32/", 
        "ballesteros": "1.32", 
        "centrality_score": 0.18465716225390361, 
        "resname": "Trp"
    }, 
    {
        "resnum": 33, 
        "region_name": "TM", 
        "pymol": "/2RH1_eo_nohet//A/VAL`33/", 
        "ballesteros": "1.33", 
        "centrality_score": 0.17204301075268819, 
        "resname": "Val"
    }, 
    {
        "resnum": 34, 
        "region_name": "TM", 
        "pymol": "/2RH1_eo_nohet//A/VAL`34/", 
        "ballesteros": "1.34", 
        "centrality_score": 0.17085427135678391, 
        "resname": "Val"
    }, 
    {
        "resnum": 35, 
        "region_name": "TM", 
        "pymol": "/2RH1_eo_nohet//A/GLY`35/", 
        "ballesteros": "1.35", 
        "centrality_score": 0.17650876054510059, 
        "resname": "Gly"
    }, 
    {
        "resnum": 36, 
        "region_name": "TM", 
        "pymol": "/2RH1_eo_nohet//A/MET`36/", 
        "ballesteros": "1.36", 
        "centrality_score": 0.19414703783012136, 
        "resname": "Met"
    }, 
    {
        "resnum": 37, 
        "region_name": "TM", 
        "pymol": "/2RH1_eo_nohet//A/GLY`37/", 
        "ballesteros": "1.37", 
        "centrality_score": 0.18732782369146006, 
        "resname": "Gly"
    }, 
    {
        "resnum": 38, 
        "region_name": "TM", 
        "pymol": "/2RH1_eo_nohet//A/ILE`38/", 
        "ballesteros": "1.38", 
        "centrality_score": 0.18328840970350405, 
        "resname": "Ile"
    }, 
    {
        "resnum": 39, 
        "region_name": "TM", 
        "pymol": "/2RH1_eo_nohet//A/VAL`39/", 
        "ballesteros": "1.39", 
        "centrality_score": 0.20374531835205992, 
        "resname": "Val"
    }, 
    {
        "resnum": 40, 
        "region_name": "TM", 
        "pymol": "/2RH1_eo_nohet//A/MET`40/", 
        "ballesteros": "1.40", 
        "centrality_score": 0.22405271828665568, 
        "resname": "Met"
    }, 
    {
        "resnum": 41, 
        "region_name": "TM", 
        "pymol": "/2RH1_eo_nohet//A/SER`41/", 
        "ballesteros": "1.41", 
        "centrality_score": 0.20238095238095238, 
        "resname": "Ser"
    }, 
    {
        "resnum": 42, 
        "region_name": "TM", 
        "pymol": "/2RH1_eo_nohet//A/LEU`42/", 
        "ballesteros": "1.42", 
        "centrality_score": 0.21468034727703236, 
        "resname": "Leu"
    }, 
    {
        "resnum": 43, 
        "region_name": "TM", 
        "pymol": "/2RH1_eo_nohet//A/ILE`43/", 
        "ballesteros": "1.43", 
        "centrality_score": 0.24749772520473157, 
        "resname": "Ile"
    }, 
    {
        "resnum": 44, 
        "region_name": "TM", 
        "pymol": "/2RH1_eo_nohet//A/VAL`44/", 
        "ballesteros": "1.44", 
        "centrality_score": 0.23267750213857999, 
        "resname": "Val"
    }, 
    {
        "resnum": 45, 
        "region_name": "TM", 
        "pymol": "/2RH1_eo_nohet//A/LEU`45/", 
        "ballesteros": "1.45", 
        "centrality_score": 0.22095857026807472, 
        "resname": "Leu"
    }, 
    {
        "resnum": 46, 
        "region_name": "TM", 
        "pymol": "/2RH1_eo_nohet//A/ALA`46/", 
        "ballesteros": "1.46", 
        "centrality_score": 0.23880597014925373, 
        "resname": "Ala"
    }, 
    {
        "resnum": 47, 
        "region_name": "TM", 
        "pymol": "/2RH1_eo_nohet//A/ILE`47/", 
        "ballesteros": "1.47", 
        "centrality_score": 0.2711864406779661, 
        "resname": "Ile"
    }, 
    {
        "resnum": 48, 
        "region_name": "TM", 
        "pymol": "/2RH1_eo_nohet//A/VAL`48/", 
        "ballesteros": "1.48", 
        "centrality_score": 0.23448275862068965, 
        "resname": "Val"
    }, 
    {
        "resnum": 49, 
        "region_name": "TM", 
        "pymol": "/2RH1_eo_nohet//A/PHE`49/", 
        "ballesteros": "1.49", 
        "centrality_score": 0.21183800623052959, 
        "resname": "Phe"
    }, 
    {
        "resnum": 50, 
        "region_name": "TM", 
        "pymol": "/2RH1_eo_nohet//A/GLY`50/", 
        "ballesteros": "1.50", 
        "centrality_score": 0.22914911541701768, 
        "resname": "Gly"
    }, 
    {
        "resnum": 51, 
        "region_name": "TM", 
        "pymol": "/2RH1_eo_nohet//A/ASN`51/", 
        "ballesteros": "1.51", 
        "centrality_score": 0.27172827172827174, 
        "resname": "Asn"
    }, 
    {
        "resnum": 52, 
        "region_name": "TM", 
        "pymol": "/2RH1_eo_nohet//A/VAL`52/", 
        "ballesteros": "1.52", 
        "centrality_score": 0.23549783549783551, 
        "resname": "Val"
    }, 
    {
        "resnum": 53, 
        "region_name": "TM", 
        "pymol": "/2RH1_eo_nohet//A/LEU`53/", 
        "ballesteros": "1.53", 
        "centrality_score": 0.22934232715008432, 
        "resname": "Leu"
    }, 
    {
        "resnum": 54, 
        "region_name": "TM", 
        "pymol": "/2RH1_eo_nohet//A/VAL`54/", 
        "ballesteros": "1.54", 
        "centrality_score": 0.24570912375790424, 
        "resname": "Val"
    }, 
    {
        "resnum": 55, 
        "region_name": "TM", 
        "pymol": "/2RH1_eo_nohet//A/ILE`55/", 
        "ballesteros": "1.55", 
        "centrality_score": 0.24637681159420291, 
        "resname": "Ile"
    }, 
    {
        "resnum": 56, 
        "region_name": "TM", 
        "pymol": "/2RH1_eo_nohet//A/THR`56/", 
        "ballesteros": "1.56", 
        "centrality_score": 0.20779220779220781, 
        "resname": "Thr"
    }, 
    {
        "resnum": 57, 
        "region_name": "TM", 
        "pymol": "/2RH1_eo_nohet//A/ALA`57/", 
        "ballesteros": "1.57", 
        "centrality_score": 0.21656050955414013, 
        "resname": "Ala"
    }, 
    {
        "resnum": 58, 
        "region_name": "TM", 
        "pymol": "/2RH1_eo_nohet//A/ILE`58/", 
        "ballesteros": "1.58", 
        "centrality_score": 0.2318840579710145, 
        "resname": "Ile"
    }, 
    {
        "resnum": 59, 
        "region_name": "TM", 
        "pymol": "/2RH1_eo_nohet//A/ALA`59/", 
        "ballesteros": "1.59", 
        "centrality_score": 0.21068938807126258, 
        "resname": "Ala"
    }, 
    {
        "resnum": 60, 
        "region_name": "TM", 
        "pymol": "/2RH1_eo_nohet//A/LYS`60/", 
        "ballesteros": "1.60", 
        "centrality_score": 0.18797512093987562, 
        "resname": "Lys"
    }, 
    {
        "resnum": 61, 
        "region_name": "IL", 
        "pymol": "/2RH1_eo_nohet//A/PHE`61/", 
        "ballesteros": "", 
        "centrality_score": 0.19498207885304661, 
        "resname": "Phe"
    }, 
    {
        "resnum": 62, 
        "region_name": "IL", 
        "pymol": "/2RH1_eo_nohet//A/GLU`62/", 
        "ballesteros": "", 
        "centrality_score": 0.17639429312581065, 
        "resname": "Glu"
    }, 
    {
        "resnum": 63, 
        "region_name": "IL", 
        "pymol": "/2RH1_eo_nohet//A/ARG`63/", 
        "ballesteros": "", 
        "centrality_score": 0.18668496911461907, 
        "resname": "Arg"
    }, 
    {
        "resnum": 64, 
        "region_name": "IL", 
        "pymol": "/2RH1_eo_nohet//A/LEU`64/", 
        "ballesteros": "", 
        "centrality_score": 0.20283370618941088, 
        "resname": "Leu"
    }, 
    {
        "resnum": 65, 
        "region_name": "IL", 
        "pymol": "/2RH1_eo_nohet//A/GLN`65/", 
        "ballesteros": "", 
        "centrality_score": 0.20590461771385316, 
        "resname": "Gln"
    }, 
    {
        "resnum": 66, 
        "region_name": "IL", 
        "pymol": "/2RH1_eo_nohet//A/THR`66/", 
        "ballesteros": "", 
        "centrality_score": 0.20652999240698558, 
        "resname": "Thr"
    }, 
    {
        "resnum": 67, 
        "region_name": "TM", 
        "pymol": "/2RH1_eo_nohet//A/VAL`67/", 
        "ballesteros": "2.38", 
        "centrality_score": 0.22258592471358429, 
        "resname": "Val"
    }, 
    {
        "resnum": 68, 
        "region_name": "TM", 
        "pymol": "/2RH1_eo_nohet//A/THR`68/", 
        "ballesteros": "2.39", 
        "centrality_score": 0.23327615780445971, 
        "resname": "Thr"
    }, 
    {
        "resnum": 69, 
        "region_name": "TM", 
        "pymol": "/2RH1_eo_nohet//A/ASN`69/", 
        "ballesteros": "2.40", 
        "centrality_score": 0.23070398642917728, 
        "resname": "Asn"
    }, 
    {
        "resnum": 70, 
        "region_name": "TM", 
        "pymol": "/2RH1_eo_nohet//A/TYR`70/", 
        "ballesteros": "2.41", 
        "centrality_score": 0.23307626392459296, 
        "resname": "Tyr"
    }, 
    {
        "resnum": 71, 
        "region_name": "TM", 
        "pymol": "/2RH1_eo_nohet//A/PHE`71/", 
        "ballesteros": "2.42", 
        "centrality_score": 0.25733207190160834, 
        "resname": "Phe"
    }, 
    {
        "resnum": 72, 
        "region_name": "TM", 
        "pymol": "/2RH1_eo_nohet//A/ILE`72/", 
        "ballesteros": "2.43", 
        "centrality_score": 0.26078619367209971, 
        "resname": "Ile"
    }, 
    {
        "resnum": 73, 
        "region_name": "TM", 
        "pymol": "/2RH1_eo_nohet//A/THR`73/", 
        "ballesteros": "2.44", 
        "centrality_score": 0.24372759856630824, 
        "resname": "Thr"
    }, 
    {
        "resnum": 74, 
        "region_name": "TM", 
        "pymol": "/2RH1_eo_nohet//A/SER`74/", 
        "ballesteros": "2.45", 
        "centrality_score": 0.25978987583572111, 
        "resname": "Ser"
    }, 
    {
        "resnum": 75, 
        "region_name": "TM", 
        "pymol": "/2RH1_eo_nohet//A/LEU`75/", 
        "ballesteros": "2.46", 
        "centrality_score": 0.28661749209694415, 
        "resname": "Leu"
    }, 
    {
        "resnum": 76, 
        "region_name": "TM", 
        "pymol": "/2RH1_eo_nohet//A/ALA`76/", 
        "ballesteros": "2.47", 
        "centrality_score": 0.26103646833013433, 
        "resname": "Ala"
    }, 
    {
        "resnum": 77, 
        "region_name": "TM", 
        "pymol": "/2RH1_eo_nohet//A/CYS`77/", 
        "ballesteros": "2.48", 
        "centrality_score": 0.26510721247563351, 
        "resname": "Cys"
    }, 
    {
        "resnum": 78, 
        "region_name": "TM", 
        "pymol": "/2RH1_eo_nohet//A/ALA`78/", 
        "ballesteros": "2.49", 
        "centrality_score": 0.27364185110663986, 
        "resname": "Ala"
    }, 
    {
        "resnum": 79, 
        "region_name": "TM", 
        "pymol": "/2RH1_eo_nohet//A/ASP`79/", 
        "ballesteros": "2.50", 
        "centrality_score": 0.28245067497403947, 
        "resname": "Asp"
    }, 
    {
        "resnum": 80, 
        "region_name": "TM", 
        "pymol": "/2RH1_eo_nohet//A/LEU`80/", 
        "ballesteros": "2.51", 
        "centrality_score": 0.26254826254826252, 
        "resname": "Leu"
    }, 
    {
        "resnum": 81, 
        "region_name": "TM", 
        "pymol": "/2RH1_eo_nohet//A/VAL`81/", 
        "ballesteros": "2.52", 
        "centrality_score": 0.265625, 
        "resname": "Val"
    }, 
    {
        "resnum": 82, 
        "region_name": "TM", 
        "pymol": "/2RH1_eo_nohet//A/MET`82/", 
        "ballesteros": "2.53", 
        "centrality_score": 0.28099173553719009, 
        "resname": "Met"
    }, 
    {
        "resnum": 83, 
        "region_name": "TM", 
        "pymol": "/2RH1_eo_nohet//A/GLY`83/", 
        "ballesteros": "2.54", 
        "centrality_score": 0.25660377358490566, 
        "resname": "Gly"
    }, 
    {
        "resnum": 84, 
        "region_name": "TM", 
        "pymol": "/2RH1_eo_nohet//A/LEU`84/", 
        "ballesteros": "2.55", 
        "centrality_score": 0.24862888482632542, 
        "resname": "Leu"
    }, 
    {
        "resnum": 85, 
        "region_name": "TM", 
        "pymol": "/2RH1_eo_nohet//A/ALA`85/", 
        "ballesteros": "2.56", 
        "centrality_score": 0.24350940017905104, 
        "resname": "Ala"
    }, 
    {
        "resnum": 86, 
        "region_name": "TM", 
        "pymol": "/2RH1_eo_nohet//A/VAL`86/", 
        "ballesteros": "2.57", 
        "centrality_score": 0.26179018286814243, 
        "resname": "Val"
    }, 
    {
        "resnum": 87, 
        "region_name": "TM", 
        "pymol": "/2RH1_eo_nohet//A/VAL`87/", 
        "ballesteros": "2.58", 
        "centrality_score": 0.2532588454376164, 
        "resname": "Val"
    }, 
    {
        "resnum": 88, 
        "region_name": "TM", 
        "pymol": "/2RH1_eo_nohet//A/PRO`88/", 
        "ballesteros": "2.59", 
        "centrality_score": 0.23448275862068965, 
        "resname": "Pro"
    }, 
    {
        "resnum": 89, 
        "region_name": "TM", 
        "pymol": "/2RH1_eo_nohet//A/PHE`89/", 
        "ballesteros": "2.60", 
        "centrality_score": 0.23943661971830985, 
        "resname": "Phe"
    }, 
    {
        "resnum": 90, 
        "region_name": "TM", 
        "pymol": "/2RH1_eo_nohet//A/GLY`90/", 
        "ballesteros": "2.61", 
        "centrality_score": 0.24482448244824481, 
        "resname": "Gly"
    }, 
    {
        "resnum": 91, 
        "region_name": "TM", 
        "pymol": "/2RH1_eo_nohet//A/ALA`91/", 
        "ballesteros": "2.62", 
        "centrality_score": 0.22610141313383209, 
        "resname": "Ala"
    }, 
    {
        "resnum": 92, 
        "region_name": "TM", 
        "pymol": "/2RH1_eo_nohet//A/ALA`92/", 
        "ballesteros": "2.63", 
        "centrality_score": 0.21417322834645669, 
        "resname": "Ala"
    }, 
    {
        "resnum": 93, 
        "region_name": "TM", 
        "pymol": "/2RH1_eo_nohet//A/HIS`93/", 
        "ballesteros": "2.64", 
        "centrality_score": 0.22423742786479803, 
        "resname": "His"
    }, 
    {
        "resnum": 94, 
        "region_name": "TM", 
        "pymol": "/2RH1_eo_nohet//A/ILE`94/", 
        "ballesteros": "2.65", 
        "centrality_score": 0.22295081967213115, 
        "resname": "Ile"
    }, 
    {
        "resnum": 95, 
        "region_name": "TM", 
        "pymol": "/2RH1_eo_nohet//A/LEU`95/", 
        "ballesteros": "2.66", 
        "centrality_score": 0.19554277498202732, 
        "resname": "Leu"
    }, 
    {
        "resnum": 96, 
        "region_name": "TM", 
        "pymol": "/2RH1_eo_nohet//A/MET`96/", 
        "ballesteros": "2.67", 
        "centrality_score": 0.18328840970350405, 
        "resname": "Met"
    }, 
    {
        "resnum": 97, 
        "region_name": "EL", 
        "pymol": "/2RH1_eo_nohet//A/LYS`97/", 
        "ballesteros": "", 
        "centrality_score": 0.19456366237482117, 
        "resname": "Lys"
    }, 
    {
        "resnum": 98, 
        "region_name": "EL", 
        "pymol": "/2RH1_eo_nohet//A/MET`98/", 
        "ballesteros": "", 
        "centrality_score": 0.1864290610006854, 
        "resname": "Met"
    }, 
    {
        "resnum": 99, 
        "region_name": "EL", 
        "pymol": "/2RH1_eo_nohet//A/TRP`99/", 
        "ballesteros": "", 
        "centrality_score": 0.2197092084006462, 
        "resname": "Trp"
    }, 
    {
        "resnum": 100, 
        "region_name": "EL", 
        "pymol": "/2RH1_eo_nohet//A/THR`100/", 
        "ballesteros": "", 
        "centrality_score": 0.18415707515233581, 
        "resname": "Thr"
    }, 
    {
        "resnum": 101, 
        "region_name": "EL", 
        "pymol": "/2RH1_eo_nohet//A/PHE`101/", 
        "ballesteros": "", 
        "centrality_score": 0.20389805097451275, 
        "resname": "Phe"
    }, 
    {
        "resnum": 102, 
        "region_name": "TM", 
        "pymol": "/2RH1_eo_nohet//A/GLY`102/", 
        "ballesteros": "3.21", 
        "centrality_score": 0.19653179190751446, 
        "resname": "Gly"
    }, 
    {
        "resnum": 103, 
        "region_name": "TM", 
        "pymol": "/2RH1_eo_nohet//A/ASN`103/", 
        "ballesteros": "3.22", 
        "centrality_score": 0.19387027797576623, 
        "resname": "Asn"
    }, 
    {
        "resnum": 104, 
        "region_name": "TM", 
        "pymol": "/2RH1_eo_nohet//A/PHE`104/", 
        "ballesteros": "3.23", 
        "centrality_score": 0.19667389732465654, 
        "resname": "Phe"
    }, 
    {
        "resnum": 105, 
        "region_name": "TM", 
        "pymol": "/2RH1_eo_nohet//A/TRP`105/", 
        "ballesteros": "3.24", 
        "centrality_score": 0.22972972972972974, 
        "resname": "Trp"
    }, 
    {
        "resnum": 106, 
        "region_name": "TM", 
        "pymol": "/2RH1_eo_nohet//A/CYS`106/", 
        "ballesteros": "3.25", 
        "centrality_score": 0.22024291497975709, 
        "resname": "Cys"
    }, 
    {
        "resnum": 107, 
        "region_name": "TM", 
        "pymol": "/2RH1_eo_nohet//A/GLU`107/", 
        "ballesteros": "3.26", 
        "centrality_score": 0.21536025336500395, 
        "resname": "Glu"
    }, 
    {
        "resnum": 108, 
        "region_name": "TM", 
        "pymol": "/2RH1_eo_nohet//A/PHE`108/", 
        "ballesteros": "3.27", 
        "centrality_score": 0.22704507512520869, 
        "resname": "Phe"
    }, 
    {
        "resnum": 109, 
        "region_name": "TM", 
        "pymol": "/2RH1_eo_nohet//A/TRP`109/", 
        "ballesteros": "3.28", 
        "centrality_score": 0.258309591642925, 
        "resname": "Trp"
    }, 
    {
        "resnum": 110, 
        "region_name": "TM", 
        "pymol": "/2RH1_eo_nohet//A/THR`110/", 
        "ballesteros": "3.29", 
        "centrality_score": 0.24637681159420291, 
        "resname": "Thr"
    }, 
    {
        "resnum": 111, 
        "region_name": "TM", 
        "pymol": "/2RH1_eo_nohet//A/SER`111/", 
        "ballesteros": "3.30", 
        "centrality_score": 0.23817863397548161, 
        "resname": "Ser"
    }, 
    {
        "resnum": 112, 
        "region_name": "TM", 
        "pymol": "/2RH1_eo_nohet//A/ILE`112/", 
        "ballesteros": "3.31", 
        "centrality_score": 0.25708884688090738, 
        "resname": "Ile"
    }, 
    {
        "resnum": 113, 
        "region_name": "TM", 
        "pymol": "/2RH1_eo_nohet//A/ASP`113/", 
        "ballesteros": "3.32", 
        "centrality_score": 0.27811860940695299, 
        "resname": "Asp"
    }, 
    {
        "resnum": 114, 
        "region_name": "TM", 
        "pymol": "/2RH1_eo_nohet//A/VAL`114/", 
        "ballesteros": "3.33", 
        "centrality_score": 0.26904055390702275, 
        "resname": "Val"
    }, 
    {
        "resnum": 115, 
        "region_name": "TM", 
        "pymol": "/2RH1_eo_nohet//A/LEU`115/", 
        "ballesteros": "3.34", 
        "centrality_score": 0.258309591642925, 
        "resname": "Leu"
    }, 
    {
        "resnum": 116, 
        "region_name": "TM", 
        "pymol": "/2RH1_eo_nohet//A/CYS`116/", 
        "ballesteros": "3.35", 
        "centrality_score": 0.27558257345491388, 
        "resname": "Cys"
    }, 
    {
        "resnum": 117, 
        "region_name": "TM", 
        "pymol": "/2RH1_eo_nohet//A/VAL`117/", 
        "ballesteros": "3.36", 
        "centrality_score": 0.28844114528101805, 
        "resname": "Val"
    }, 
    {
        "resnum": 118, 
        "region_name": "TM", 
        "pymol": "/2RH1_eo_nohet//A/THR`118/", 
        "ballesteros": "3.37", 
        "centrality_score": 0.2602870813397129, 
        "resname": "Thr"
    }, 
    {
        "resnum": 119, 
        "region_name": "TM", 
        "pymol": "/2RH1_eo_nohet//A/ALA`119/", 
        "ballesteros": "3.38", 
        "centrality_score": 0.26078619367209971, 
        "resname": "Ala"
    }, 
    {
        "resnum": 120, 
        "region_name": "TM", 
        "pymol": "/2RH1_eo_nohet//A/SER`120/", 
        "ballesteros": "3.39", 
        "centrality_score": 0.2921589688506982, 
        "resname": "Ser"
    }, 
    {
        "resnum": 121, 
        "region_name": "TM", 
        "pymol": "/2RH1_eo_nohet//A/ILE`121/", 
        "ballesteros": "3.40", 
        "centrality_score": 0.27254509018036072, 
        "resname": "Ile"
    }, 
    {
        "resnum": 122, 
        "region_name": "TM", 
        "pymol": "/2RH1_eo_nohet//A/GLU`122/", 
        "ballesteros": "3.41", 
        "centrality_score": 0.26128722382324687, 
        "resname": "Glu"
    }, 
    {
        "resnum": 123, 
        "region_name": "TM", 
        "pymol": "/2RH1_eo_nohet//A/THR`123/", 
        "ballesteros": "3.42", 
        "centrality_score": 0.27336683417085428, 
        "resname": "Thr"
    }, 
    {
        "resnum": 124, 
        "region_name": "TM", 
        "pymol": "/2RH1_eo_nohet//A/LEU`124/", 
        "ballesteros": "3.43", 
        "centrality_score": 0.28041237113402062, 
        "resname": "Leu"
    }, 
    {
        "resnum": 125, 
        "region_name": "TM", 
        "pymol": "/2RH1_eo_nohet//A/CYS`125/", 
        "ballesteros": "3.44", 
        "centrality_score": 0.25161887141535616, 
        "resname": "Cys"
    }, 
    {
        "resnum": 126, 
        "region_name": "TM", 
        "pymol": "/2RH1_eo_nohet//A/VAL`126/", 
        "ballesteros": "3.45", 
        "centrality_score": 0.25092250922509224, 
        "resname": "Val"
    }, 
    {
        "resnum": 127, 
        "region_name": "TM", 
        "pymol": "/2RH1_eo_nohet//A/ILE`127/", 
        "ballesteros": "3.46", 
        "centrality_score": 0.26128722382324687, 
        "resname": "Ile"
    }, 
    {
        "resnum": 128, 
        "region_name": "TM", 
        "pymol": "/2RH1_eo_nohet//A/ALA`128/", 
        "ballesteros": "3.47", 
        "centrality_score": 0.24504504504504504, 
        "resname": "Ala"
    }, 
    {
        "resnum": 129, 
        "region_name": "TM", 
        "pymol": "/2RH1_eo_nohet//A/VAL`129/", 
        "ballesteros": "3.48", 
        "centrality_score": 0.22095857026807472, 
        "resname": "Val"
    }, 
    {
        "resnum": 130, 
        "region_name": "TM", 
        "pymol": "/2RH1_eo_nohet//A/ASP`130/", 
        "ballesteros": "3.49", 
        "centrality_score": 0.23148936170212767, 
        "resname": "Asp"
    }, 
    {
        "resnum": 131, 
        "region_name": "TM", 
        "pymol": "/2RH1_eo_nohet//A/ARG`131/", 
        "ballesteros": "3.50", 
        "centrality_score": 0.22953586497890296, 
        "resname": "Arg"
    }, 
    {
        "resnum": 132, 
        "region_name": "TM", 
        "pymol": "/2RH1_eo_nohet//A/TYR`132/", 
        "ballesteros": "3.51", 
        "centrality_score": 0.20987654320987653, 
        "resname": "Tyr"
    }, 
    {
        "resnum": 133, 
        "region_name": "TM", 
        "pymol": "/2RH1_eo_nohet//A/PHE`133/", 
        "ballesteros": "3.52", 
        "centrality_score": 0.19810633648943918, 
        "resname": "Phe"
    }, 
    {
        "resnum": 134, 
        "region_name": "TM", 
        "pymol": "/2RH1_eo_nohet//A/ALA`134/", 
        "ballesteros": "3.53", 
        "centrality_score": 0.20088626292466766, 
        "resname": "Ala"
    }, 
    {
        "resnum": 135, 
        "region_name": "TM", 
        "pymol": "/2RH1_eo_nohet//A/ILE`135/", 
        "ballesteros": "3.54", 
        "centrality_score": 0.19442458899213724, 
        "resname": "Ile"
    }, 
    {
        "resnum": 136, 
        "region_name": "TM", 
        "pymol": "/2RH1_eo_nohet//A/THR`136/", 
        "ballesteros": "3.55", 
        "centrality_score": 0.17918313570487485, 
        "resname": "Thr"
    }, 
    {
        "resnum": 137, 
        "region_name": "IL", 
        "pymol": "/2RH1_eo_nohet//A/SER`137/", 
        "ballesteros": "", 
        "centrality_score": 0.17469492614001284, 
        "resname": "Ser"
    }, 
    {
        "resnum": 138, 
        "region_name": "IL", 
        "pymol": "/2RH1_eo_nohet//A/PRO`138/", 
        "ballesteros": "", 
        "centrality_score": 0.15516257843696521, 
        "resname": "Pro"
    }, 
    {
        "resnum": 139, 
        "region_name": "IL", 
        "pymol": "/2RH1_eo_nohet//A/PHE`139/", 
        "ballesteros": "", 
        "centrality_score": 0.17258883248730963, 
        "resname": "Phe"
    }, 
    {
        "resnum": 140, 
        "region_name": "IL", 
        "pymol": "/2RH1_eo_nohet//A/LYS`140/", 
        "ballesteros": "", 
        "centrality_score": 0.17171717171717171, 
        "resname": "Lys"
    }, 
    {
        "resnum": 141, 
        "region_name": "IL", 
        "pymol": "/2RH1_eo_nohet//A/TYR`141/", 
        "ballesteros": "", 
        "centrality_score": 0.19484240687679083, 
        "resname": "Tyr"
    }, 
    {
        "resnum": 142, 
        "region_name": "IL", 
        "pymol": "/2RH1_eo_nohet//A/GLN`142/", 
        "ballesteros": "", 
        "centrality_score": 0.17380191693290734, 
        "resname": "Gln"
    }, 
    {
        "resnum": 143, 
        "region_name": "IL", 
        "pymol": "/2RH1_eo_nohet//A/SER`143/", 
        "ballesteros": "", 
        "centrality_score": 0.20359281437125748, 
        "resname": "Ser"
    }, 
    {
        "resnum": 144, 
        "region_name": "IL", 
        "pymol": "/2RH1_eo_nohet//A/LEU`144/", 
        "ballesteros": "", 
        "centrality_score": 0.1951219512195122, 
        "resname": "Leu"
    }, 
    {
        "resnum": 145, 
        "region_name": "IL", 
        "pymol": "/2RH1_eo_nohet//A/LEU`145/", 
        "ballesteros": "", 
        "centrality_score": 0.22591362126245848, 
        "resname": "Leu"
    }, 
    {
        "resnum": 146, 
        "region_name": "IL", 
        "pymol": "/2RH1_eo_nohet//A/THR`146/", 
        "ballesteros": "", 
        "centrality_score": 0.19912152269399708, 
        "resname": "Thr"
    }, 
    {
        "resnum": 147, 
        "region_name": "TM", 
        "pymol": "/2RH1_eo_nohet//A/LYS`147/", 
        "ballesteros": "4.39", 
        "centrality_score": 0.20193021529324426, 
        "resname": "Lys"
    }, 
    {
        "resnum": 148, 
        "region_name": "TM", 
        "pymol": "/2RH1_eo_nohet//A/ASN`148/", 
        "ballesteros": "4.40", 
        "centrality_score": 0.1849082256968049, 
        "resname": "Asn"
    }, 
    {
        "resnum": 149, 
        "region_name": "TM", 
        "pymol": "/2RH1_eo_nohet//A/LYS`149/", 
        "ballesteros": "4.41", 
        "centrality_score": 0.19582433405327573, 
        "resname": "Lys"
    }, 
    {
        "resnum": 150, 
        "region_name": "TM", 
        "pymol": "/2RH1_eo_nohet//A/ALA`150/", 
        "ballesteros": "4.42", 
        "centrality_score": 0.22368421052631579, 
        "resname": "Ala"
    }, 
    {
        "resnum": 151, 
        "region_name": "TM", 
        "pymol": "/2RH1_eo_nohet//A/ARG`151/", 
        "ballesteros": "4.43", 
        "centrality_score": 0.20955315870570107, 
        "resname": "Arg"
    }, 
    {
        "resnum": 152, 
        "region_name": "TM", 
        "pymol": "/2RH1_eo_nohet//A/VAL`152/", 
        "ballesteros": "4.44", 
        "centrality_score": 0.20590461771385316, 
        "resname": "Val"
    }, 
    {
        "resnum": 153, 
        "region_name": "TM", 
        "pymol": "/2RH1_eo_nohet//A/ILE`153/", 
        "ballesteros": "4.45", 
        "centrality_score": 0.22837951301427373, 
        "resname": "Ile"
    }, 
    {
        "resnum": 154, 
        "region_name": "TM", 
        "pymol": "/2RH1_eo_nohet//A/ILE`154/", 
        "ballesteros": "4.46", 
        "centrality_score": 0.24438454627133874, 
        "resname": "Ile"
    }, 
    {
        "resnum": 155, 
        "region_name": "TM", 
        "pymol": "/2RH1_eo_nohet//A/LEU`155/", 
        "ballesteros": "4.47", 
        "centrality_score": 0.22368421052631579, 
        "resname": "Leu"
    }, 
    {
        "resnum": 156, 
        "region_name": "TM", 
        "pymol": "/2RH1_eo_nohet//A/MET`156/", 
        "ballesteros": "4.48", 
        "centrality_score": 0.21451104100946372, 
        "resname": "Met"
    }, 
    {
        "resnum": 157, 
        "region_name": "TM", 
        "pymol": "/2RH1_eo_nohet//A/VAL`157/", 
        "ballesteros": "4.49", 
        "centrality_score": 0.25420560747663551, 
        "resname": "Val"
    }, 
    {
        "resnum": 158, 
        "region_name": "TM", 
        "pymol": "/2RH1_eo_nohet//A/TRP`158/", 
        "ballesteros": "4.50", 
        "centrality_score": 0.26930693069306932, 
        "resname": "Trp"
    }, 
    {
        "resnum": 159, 
        "region_name": "TM", 
        "pymol": "/2RH1_eo_nohet//A/ILE`159/", 
        "ballesteros": "4.51", 
        "centrality_score": 0.23070398642917728, 
        "resname": "Ile"
    }, 
    {
        "resnum": 160, 
        "region_name": "TM", 
        "pymol": "/2RH1_eo_nohet//A/VAL`160/", 
        "ballesteros": "4.52", 
        "centrality_score": 0.23468507333908542, 
        "resname": "Val"
    }, 
    {
        "resnum": 161, 
        "region_name": "TM", 
        "pymol": "/2RH1_eo_nohet//A/SER`161/", 
        "ballesteros": "4.53", 
        "centrality_score": 0.24931255728689275, 
        "resname": "Ser"
    }, 
    {
        "resnum": 162, 
        "region_name": "TM", 
        "pymol": "/2RH1_eo_nohet//A/GLY`162/", 
        "ballesteros": "4.54", 
        "centrality_score": 0.23549783549783551, 
        "resname": "Gly"
    }, 
    {
        "resnum": 163, 
        "region_name": "TM", 
        "pymol": "/2RH1_eo_nohet//A/LEU`163/", 
        "ballesteros": "4.55", 
        "centrality_score": 0.22113821138211381, 
        "resname": "Leu"
    }, 
    {
        "resnum": 164, 
        "region_name": "TM", 
        "pymol": "/2RH1_eo_nohet//A/THR`164/", 
        "ballesteros": "4.56", 
        "centrality_score": 0.25255338904363972, 
        "resname": "Thr"
    }, 
    {
        "resnum": 165, 
        "region_name": "TM", 
        "pymol": "/2RH1_eo_nohet//A/SER`165/", 
        "ballesteros": "4.57", 
        "centrality_score": 0.24220837043633126, 
        "resname": "Ser"
    }, 
    {
        "resnum": 166, 
        "region_name": "TM", 
        "pymol": "/2RH1_eo_nohet//A/PHE`166/", 
        "ballesteros": "4.58", 
        "centrality_score": 0.23089983022071306, 
        "resname": "Phe"
    }, 
    {
        "resnum": 167, 
        "region_name": "TM", 
        "pymol": "/2RH1_eo_nohet//A/LEU`167/", 
        "ballesteros": "4.59", 
        "centrality_score": 0.21518987341772153, 
        "resname": "Leu"
    }, 
    {
        "resnum": 168, 
        "region_name": "TM", 
        "pymol": "/2RH1_eo_nohet//A/PRO`168/", 
        "ballesteros": "4.60", 
        "centrality_score": 0.22497932175351532, 
        "resname": "Pro"
    }, 
    {
        "resnum": 169, 
        "region_name": "TM", 
        "pymol": "/2RH1_eo_nohet//A/ILE`169/", 
        "ballesteros": "4.61", 
        "centrality_score": 0.23387790197764402, 
        "resname": "Ile"
    }, 
    {
        "resnum": 170, 
        "region_name": "TM", 
        "pymol": "/2RH1_eo_nohet//A/GLN`170/", 
        "ballesteros": "4.62", 
        "centrality_score": 0.21003861003861005, 
        "resname": "Gln"
    }, 
    {
        "resnum": 171, 
        "region_name": "EL", 
        "pymol": "/2RH1_eo_nohet//A/MET`171/", 
        "ballesteros": "", 
        "centrality_score": 0.1902097902097902, 
        "resname": "Met"
    }, 
    {
        "resnum": 172, 
        "region_name": "EL", 
        "pymol": "/2RH1_eo_nohet//A/HIS`172/", 
        "ballesteros": "", 
        "centrality_score": 0.20420420420420421, 
        "resname": "His"
    }, 
    {
        "resnum": 173, 
        "region_name": "EL", 
        "pymol": "/2RH1_eo_nohet//A/TRP`173/", 
        "ballesteros": "", 
        "centrality_score": 0.20955315870570107, 
        "resname": "Trp"
    }, 
    {
        "resnum": 174, 
        "region_name": "EL", 
        "pymol": "/2RH1_eo_nohet//A/TYR`174/", 
        "ballesteros": "", 
        "centrality_score": 0.22423742786479803, 
        "resname": "Tyr"
    }, 
    {
        "resnum": 175, 
        "region_name": "EL", 
        "pymol": "/2RH1_eo_nohet//A/ARG`175/", 
        "ballesteros": "", 
        "centrality_score": 0.19442458899213724, 
        "resname": "Arg"
    }, 
    {
        "resnum": 176, 
        "region_name": "EL", 
        "pymol": "/2RH1_eo_nohet//A/ALA`176/", 
        "ballesteros": "", 
        "centrality_score": 0.19007686932215234, 
        "resname": "Ala"
    }, 
    {
        "resnum": 177, 
        "region_name": "EL", 
        "pymol": "/2RH1_eo_nohet//A/THR`177/", 
        "ballesteros": "", 
        "centrality_score": 0.17777777777777778, 
        "resname": "Thr"
    }, 
    {
        "resnum": 178, 
        "region_name": "EL", 
        "pymol": "/2RH1_eo_nohet//A/HIS`178/", 
        "ballesteros": "", 
        "centrality_score": 0.18591934381408065, 
        "resname": "His"
    }, 
    {
        "resnum": 179, 
        "region_name": "EL", 
        "pymol": "/2RH1_eo_nohet//A/GLN`179/", 
        "ballesteros": "", 
        "centrality_score": 0.15990593768371547, 
        "resname": "Gln"
    }, 
    {
        "resnum": 180, 
        "region_name": "EL", 
        "pymol": "/2RH1_eo_nohet//A/GLU`180/", 
        "ballesteros": "", 
        "centrality_score": 0.17719869706840391, 
        "resname": "Glu"
    }, 
    {
        "resnum": 181, 
        "region_name": "EL", 
        "pymol": "/2RH1_eo_nohet//A/ALA`181/", 
        "ballesteros": "", 
        "centrality_score": 0.17777777777777778, 
        "resname": "Ala"
    }, 
    {
        "resnum": 182, 
        "region_name": "EL", 
        "pymol": "/2RH1_eo_nohet//A/ILE`182/", 
        "ballesteros": "", 
        "centrality_score": 0.16759088108441159, 
        "resname": "Ile"
    }, 
    {
        "resnum": 183, 
        "region_name": "EL", 
        "pymol": "/2RH1_eo_nohet//A/ASN`183/", 
        "ballesteros": "", 
        "centrality_score": 0.16326530612244897, 
        "resname": "Asn"
    }, 
    {
        "resnum": 184, 
        "region_name": "EL", 
        "pymol": "/2RH1_eo_nohet//A/CYS`184/", 
        "ballesteros": "", 
        "centrality_score": 0.19236209335219237, 
        "resname": "Cys"
    }, 
    {
        "resnum": 185, 
        "region_name": "EL", 
        "pymol": "/2RH1_eo_nohet//A/TYR`185/", 
        "ballesteros": "", 
        "centrality_score": 0.19484240687679083, 
        "resname": "Tyr"
    }, 
    {
        "resnum": 186, 
        "region_name": "EL", 
        "pymol": "/2RH1_eo_nohet//A/ALA`186/", 
        "ballesteros": "", 
        "centrality_score": 0.17491961414790996, 
        "resname": "Ala"
    }, 
    {
        "resnum": 187, 
        "region_name": "EL", 
        "pymol": "/2RH1_eo_nohet//A/GLU`187/", 
        "ballesteros": "", 
        "centrality_score": 0.17673814165042234, 
        "resname": "Glu"
    }, 
    {
        "resnum": 188, 
        "region_name": "EL", 
        "pymol": "/2RH1_eo_nohet//A/GLU`188/", 
        "ballesteros": "", 
        "centrality_score": 0.18784530386740331, 
        "resname": "Glu"
    }, 
    {
        "resnum": 189, 
        "region_name": "EL", 
        "pymol": "/2RH1_eo_nohet//A/THR`189/", 
        "ballesteros": "", 
        "centrality_score": 0.19414703783012136, 
        "resname": "Thr"
    }, 
    {
        "resnum": 190, 
        "region_name": "EL", 
        "pymol": "/2RH1_eo_nohet//A/CYS`190/", 
        "ballesteros": "", 
        "centrality_score": 0.19912152269399708, 
        "resname": "Cys"
    }, 
    {
        "resnum": 191, 
        "region_name": "EL", 
        "pymol": "/2RH1_eo_nohet//A/CYS`191/", 
        "ballesteros": "", 
        "centrality_score": 0.22535211267605634, 
        "resname": "Cys"
    }, 
    {
        "resnum": 192, 
        "region_name": "EL", 
        "pymol": "/2RH1_eo_nohet//A/ASP`192/", 
        "ballesteros": "", 
        "centrality_score": 0.21988682295877121, 
        "resname": "Asp"
    }, 
    {
        "resnum": 193, 
        "region_name": "EL", 
        "pymol": "/2RH1_eo_nohet//A/PHE`193/", 
        "ballesteros": "", 
        "centrality_score": 0.25092250922509224, 
        "resname": "Phe"
    }, 
    {
        "resnum": 194, 
        "region_name": "EL", 
        "pymol": "/2RH1_eo_nohet//A/PHE`194/", 
        "ballesteros": "", 
        "centrality_score": 0.21183800623052959, 
        "resname": "Phe"
    }, 
    {
        "resnum": 195, 
        "region_name": "EL", 
        "pymol": "/2RH1_eo_nohet//A/THR`195/", 
        "ballesteros": "", 
        "centrality_score": 0.21953188054882969, 
        "resname": "Thr"
    }, 
    {
        "resnum": 196, 
        "region_name": "EL", 
        "pymol": "/2RH1_eo_nohet//A/ASN`196/", 
        "ballesteros": "", 
        "centrality_score": 0.20923076923076922, 
        "resname": "Asn"
    }, 
    {
        "resnum": 197, 
        "region_name": "TM", 
        "pymol": "/2RH1_eo_nohet//A/GLN`197/", 
        "ballesteros": "5.36", 
        "centrality_score": 0.19868517165814464, 
        "resname": "Gln"
    }, 
    {
        "resnum": 198, 
        "region_name": "TM", 
        "pymol": "/2RH1_eo_nohet//A/ALA`198/", 
        "ballesteros": "5.37", 
        "centrality_score": 0.20344053851907254, 
        "resname": "Ala"
    }, 
    {
        "resnum": 199, 
        "region_name": "TM", 
        "pymol": "/2RH1_eo_nohet//A/TYR`199/", 
        "ballesteros": "5.38", 
        "centrality_score": 0.24199288256227758, 
        "resname": "Tyr"
    }, 
    {
        "resnum": 200, 
        "region_name": "TM", 
        "pymol": "/2RH1_eo_nohet//A/ALA`200/", 
        "ballesteros": "5.39", 
        "centrality_score": 0.22222222222222221, 
        "resname": "Ala"
    }, 
    {
        "resnum": 201, 
        "region_name": "TM", 
        "pymol": "/2RH1_eo_nohet//A/ILE`201/", 
        "ballesteros": "5.40", 
        "centrality_score": 0.20811017597551645, 
        "resname": "Ile"
    }, 
    {
        "resnum": 202, 
        "region_name": "TM", 
        "pymol": "/2RH1_eo_nohet//A/ALA`202/", 
        "ballesteros": "5.41", 
        "centrality_score": 0.21829855537720708, 
        "resname": "Ala"
    }, 
    {
        "resnum": 203, 
        "region_name": "TM", 
        "pymol": "/2RH1_eo_nohet//A/SER`203/", 
        "ballesteros": "5.42", 
        "centrality_score": 0.23428079242032732, 
        "resname": "Ser"
    }, 
    {
        "resnum": 204, 
        "region_name": "TM", 
        "pymol": "/2RH1_eo_nohet//A/SER`204/", 
        "ballesteros": "5.43", 
        "centrality_score": 0.24329159212880144, 
        "resname": "Ser"
    }, 
    {
        "resnum": 205, 
        "region_name": "TM", 
        "pymol": "/2RH1_eo_nohet//A/ILE`205/", 
        "ballesteros": "5.44", 
        "centrality_score": 0.21812349639133921, 
        "resname": "Ile"
    }, 
    {
        "resnum": 206, 
        "region_name": "TM", 
        "pymol": "/2RH1_eo_nohet//A/VAL`206/", 
        "ballesteros": "5.45", 
        "centrality_score": 0.23428079242032732, 
        "resname": "Val"
    }, 
    {
        "resnum": 207, 
        "region_name": "TM", 
        "pymol": "/2RH1_eo_nohet//A/SER`207/", 
        "ballesteros": "5.46", 
        "centrality_score": 0.25978987583572111, 
        "resname": "Ser"
    }, 
    {
        "resnum": 208, 
        "region_name": "TM", 
        "pymol": "/2RH1_eo_nohet//A/PHE`208/", 
        "ballesteros": "5.47", 
        "centrality_score": 0.27145708582834333, 
        "resname": "Phe"
    }, 
    {
        "resnum": 209, 
        "region_name": "TM", 
        "pymol": "/2RH1_eo_nohet//A/TYR`209/", 
        "ballesteros": "5.48", 
        "centrality_score": 0.23327615780445971, 
        "resname": "Tyr"
    }, 
    {
        "resnum": 210, 
        "region_name": "TM", 
        "pymol": "/2RH1_eo_nohet//A/VAL`210/", 
        "ballesteros": "5.49", 
        "centrality_score": 0.21536025336500395, 
        "resname": "Val"
    }, 
    {
        "resnum": 211, 
        "region_name": "TM", 
        "pymol": "/2RH1_eo_nohet//A/PRO`211/", 
        "ballesteros": "5.50", 
        "centrality_score": 0.24749772520473157, 
        "resname": "Pro"
    }, 
    {
        "resnum": 212, 
        "region_name": "TM", 
        "pymol": "/2RH1_eo_nohet//A/LEU`212/", 
        "ballesteros": "5.51", 
        "centrality_score": 0.25349487418452937, 
        "resname": "Leu"
    }, 
    {
        "resnum": 213, 
        "region_name": "TM", 
        "pymol": "/2RH1_eo_nohet//A/VAL`213/", 
        "ballesteros": "5.52", 
        "centrality_score": 0.22204081632653061, 
        "resname": "Val"
    }, 
    {
        "resnum": 214, 
        "region_name": "TM", 
        "pymol": "/2RH1_eo_nohet//A/ILE`214/", 
        "ballesteros": "5.53", 
        "centrality_score": 0.22553897180762852, 
        "resname": "Ile"
    }, 
    {
        "resnum": 215, 
        "region_name": "TM", 
        "pymol": "/2RH1_eo_nohet//A/MET`215/", 
        "ballesteros": "5.54", 
        "centrality_score": 0.24817518248175183, 
        "resname": "Met"
    }, 
    {
        "resnum": 216, 
        "region_name": "TM", 
        "pymol": "/2RH1_eo_nohet//A/VAL`216/", 
        "ballesteros": "5.55", 
        "centrality_score": 0.22742474916387959, 
        "resname": "Val"
    }, 
    {
        "resnum": 217, 
        "region_name": "TM", 
        "pymol": "/2RH1_eo_nohet//A/PHE`217/", 
        "ballesteros": "5.56", 
        "centrality_score": 0.20497362471740768, 
        "resname": "Phe"
    }, 
    {
        "resnum": 218, 
        "region_name": "TM", 
        "pymol": "/2RH1_eo_nohet//A/VAL`218/", 
        "ballesteros": "5.57", 
        "centrality_score": 0.21900161030595813, 
        "resname": "Val"
    }, 
    {
        "resnum": 219, 
        "region_name": "TM", 
        "pymol": "/2RH1_eo_nohet//A/TYR`219/", 
        "ballesteros": "5.58", 
        "centrality_score": 0.23714036617262424, 
        "resname": "Tyr"
    }, 
    {
        "resnum": 220, 
        "region_name": "TM", 
        "pymol": "/2RH1_eo_nohet//A/SER`220/", 
        "ballesteros": "5.59", 
        "centrality_score": 0.20238095238095238, 
        "resname": "Ser"
    }, 
    {
        "resnum": 221, 
        "region_name": "TM", 
        "pymol": "/2RH1_eo_nohet//A/ARG`221/", 
        "ballesteros": "5.60", 
        "centrality_score": 0.18967921896792189, 
        "resname": "Arg"
    }, 
    {
        "resnum": 222, 
        "region_name": "TM", 
        "pymol": "/2RH1_eo_nohet//A/VAL`222/", 
        "ballesteros": "5.61", 
        "centrality_score": 0.21150855365474339, 
        "resname": "Val"
    }, 
    {
        "resnum": 223, 
        "region_name": "TM", 
        "pymol": "/2RH1_eo_nohet//A/PHE`223/", 
        "ballesteros": "5.62", 
        "centrality_score": 0.20253164556962025, 
        "resname": "Phe"
    }, 
    {
        "resnum": 224, 
        "region_name": "TM", 
        "pymol": "/2RH1_eo_nohet//A/GLN`224/", 
        "ballesteros": "5.63", 
        "centrality_score": 0.17480719794344474, 
        "resname": "Gln"
    }, 
    {
        "resnum": 225, 
        "region_name": "TM", 
        "pymol": "/2RH1_eo_nohet//A/GLU`225/", 
        "ballesteros": "5.64", 
        "centrality_score": 0.18365968939905469, 
        "resname": "Glu"
    }, 
    {
        "resnum": 226, 
        "region_name": "TM", 
        "pymol": "/2RH1_eo_nohet//A/ALA`226/", 
        "ballesteros": "5.65", 
        "centrality_score": 0.18836565096952909, 
        "resname": "Ala"
    }, 
    {
        "resnum": 227, 
        "region_name": "TM", 
        "pymol": "/2RH1_eo_nohet//A/LYS`227/", 
        "ballesteros": "5.66", 
        "centrality_score": 0.17226092463584547, 
        "resname": "Lys"
    }, 
    {
        "resnum": 266, 
        "region_name": "IL", 
        "pymol": "/2RH1_eo_nohet//A/LEU`266/", 
        "ballesteros": "", 
        "centrality_score": 0.17458279845956354, 
        "resname": "Leu"
    }, 
    {
        "resnum": 267, 
        "region_name": "TM", 
        "pymol": "/2RH1_eo_nohet//A/LYS`267/", 
        "ballesteros": "6.29", 
        "centrality_score": 0.18037135278514588, 
        "resname": "Lys"
    }, 
    {
        "resnum": 268, 
        "region_name": "TM", 
        "pymol": "/2RH1_eo_nohet//A/GLU`268/", 
        "ballesteros": "6.30", 
        "centrality_score": 0.18465716225390361, 
        "resname": "Glu"
    }, 
    {
        "resnum": 269, 
        "region_name": "TM", 
        "pymol": "/2RH1_eo_nohet//A/HIS`269/", 
        "ballesteros": "6.31", 
        "centrality_score": 0.1864290610006854, 
        "resname": "His"
    }, 
    {
        "resnum": 270, 
        "region_name": "TM", 
        "pymol": "/2RH1_eo_nohet//A/LYS`270/", 
        "ballesteros": "6.32", 
        "centrality_score": 0.20133234641006661, 
        "resname": "Lys"
    }, 
    {
        "resnum": 271, 
        "region_name": "TM", 
        "pymol": "/2RH1_eo_nohet//A/ALA`271/", 
        "ballesteros": "6.33", 
        "centrality_score": 0.20906994619523445, 
        "resname": "Ala"
    }, 
    {
        "resnum": 272, 
        "region_name": "TM", 
        "pymol": "/2RH1_eo_nohet//A/LEU`272/", 
        "ballesteros": "6.34", 
        "centrality_score": 0.21673306772908366, 
        "resname": "Leu"
    }, 
    {
        "resnum": 273, 
        "region_name": "TM", 
        "pymol": "/2RH1_eo_nohet//A/LYS`273/", 
        "ballesteros": "6.35", 
        "centrality_score": 0.20858895705521471, 
        "resname": "Lys"
    }, 
    {
        "resnum": 274, 
        "region_name": "TM", 
        "pymol": "/2RH1_eo_nohet//A/THR`274/", 
        "ballesteros": "6.36", 
        "centrality_score": 0.23922603342128407, 
        "resname": "Thr"
    }, 
    {
        "resnum": 275, 
        "region_name": "TM", 
        "pymol": "/2RH1_eo_nohet//A/LEU`275/", 
        "ballesteros": "6.37", 
        "centrality_score": 0.25349487418452937, 
        "resname": "Leu"
    }, 
    {
        "resnum": 276, 
        "region_name": "TM", 
        "pymol": "/2RH1_eo_nohet//A/GLY`276/", 
        "ballesteros": "6.38", 
        "centrality_score": 0.23307626392459296, 
        "resname": "Gly"
    }, 
    {
        "resnum": 277, 
        "region_name": "TM", 
        "pymol": "/2RH1_eo_nohet//A/ILE`277/", 
        "ballesteros": "6.39", 
        "centrality_score": 0.23367697594501718, 
        "resname": "Ile"
    }, 
    {
        "resnum": 278, 
        "region_name": "TM", 
        "pymol": "/2RH1_eo_nohet//A/ILE`278/", 
        "ballesteros": "6.40", 
        "centrality_score": 0.27868852459016391, 
        "resname": "Ile"
    }, 
    {
        "resnum": 279, 
        "region_name": "TM", 
        "pymol": "/2RH1_eo_nohet//A/MET`279/", 
        "ballesteros": "6.41", 
        "centrality_score": 0.26510721247563351, 
        "resname": "Met"
    }, 
    {
        "resnum": 280, 
        "region_name": "TM", 
        "pymol": "/2RH1_eo_nohet//A/GLY`280/", 
        "ballesteros": "6.42", 
        "centrality_score": 0.23922603342128407, 
        "resname": "Gly"
    }, 
    {
        "resnum": 281, 
        "region_name": "TM", 
        "pymol": "/2RH1_eo_nohet//A/THR`281/", 
        "ballesteros": "6.43", 
        "centrality_score": 0.25904761904761903, 
        "resname": "Thr"
    }, 
    {
        "resnum": 282, 
        "region_name": "TM", 
        "pymol": "/2RH1_eo_nohet//A/PHE`282/", 
        "ballesteros": "6.44", 
        "centrality_score": 0.29694323144104806, 
        "resname": "Phe"
    }, 
    {
        "resnum": 283, 
        "region_name": "TM", 
        "pymol": "/2RH1_eo_nohet//A/THR`283/", 
        "ballesteros": "6.45", 
        "centrality_score": 0.25660377358490566, 
        "resname": "Thr"
    }, 
    {
        "resnum": 284, 
        "region_name": "TM", 
        "pymol": "/2RH1_eo_nohet//A/LEU`284/", 
        "ballesteros": "6.46", 
        "centrality_score": 0.24285714285714285, 
        "resname": "Leu"
    }, 
    {
        "resnum": 285, 
        "region_name": "TM", 
        "pymol": "/2RH1_eo_nohet//A/CYS`285/", 
        "ballesteros": "6.47", 
        "centrality_score": 0.26745329400196655, 
        "resname": "Cys"
    }, 
    {
        "resnum": 286, 
        "region_name": "TM", 
        "pymol": "/2RH1_eo_nohet//A/TRP`286/", 
        "ballesteros": "6.48", 
        "centrality_score": 0.28997867803837951, 
        "resname": "Trp"
    }, 
    {
        "resnum": 287, 
        "region_name": "TM", 
        "pymol": "/2RH1_eo_nohet//A/LEU`287/", 
        "ballesteros": "6.49", 
        "centrality_score": 0.2497704315886134, 
        "resname": "Leu"
    }, 
    {
        "resnum": 288, 
        "region_name": "TM", 
        "pymol": "/2RH1_eo_nohet//A/PRO`288/", 
        "ballesteros": "6.50", 
        "centrality_score": 0.24615384615384617, 
        "resname": "Pro"
    }, 
    {
        "resnum": 289, 
        "region_name": "TM", 
        "pymol": "/2RH1_eo_nohet//A/PHE`289/", 
        "ballesteros": "6.51", 
        "centrality_score": 0.24931255728689275, 
        "resname": "Phe"
    }, 
    {
        "resnum": 290, 
        "region_name": "TM", 
        "pymol": "/2RH1_eo_nohet//A/PHE`290/", 
        "ballesteros": "6.52", 
        "centrality_score": 0.25660377358490566, 
        "resname": "Phe"
    }, 
    {
        "resnum": 291, 
        "region_name": "TM", 
        "pymol": "/2RH1_eo_nohet//A/ILE`291/", 
        "ballesteros": "6.53", 
        "centrality_score": 0.22572614107883818, 
        "resname": "Ile"
    }, 
    {
        "resnum": 292, 
        "region_name": "TM", 
        "pymol": "/2RH1_eo_nohet//A/VAL`292/", 
        "ballesteros": "6.54", 
        "centrality_score": 0.22368421052631579, 
        "resname": "Val"
    }, 
    {
        "resnum": 293, 
        "region_name": "TM", 
        "pymol": "/2RH1_eo_nohet//A/ASN`293/", 
        "ballesteros": "6.55", 
        "centrality_score": 0.22934232715008432, 
        "resname": "Asn"
    }, 
    {
        "resnum": 294, 
        "region_name": "TM", 
        "pymol": "/2RH1_eo_nohet//A/ILE`294/", 
        "ballesteros": "6.56", 
        "centrality_score": 0.22799664710813075, 
        "resname": "Ile"
    }, 
    {
        "resnum": 295, 
        "region_name": "TM", 
        "pymol": "/2RH1_eo_nohet//A/VAL`295/", 
        "ballesteros": "6.57", 
        "centrality_score": 0.20029455081001474, 
        "resname": "Val"
    }, 
    {
        "resnum": 296, 
        "region_name": "TM", 
        "pymol": "/2RH1_eo_nohet//A/HIS`296/", 
        "ballesteros": "6.58", 
        "centrality_score": 0.21036349574632637, 
        "resname": "His"
    }, 
    {
        "resnum": 297, 
        "region_name": "TM", 
        "pymol": "/2RH1_eo_nohet//A/VAL`297/", 
        "ballesteros": "6.59", 
        "centrality_score": 0.19970631424375918, 
        "resname": "Val"
    }, 
    {
        "resnum": 298, 
        "region_name": "TM", 
        "pymol": "/2RH1_eo_nohet//A/ILE`298/", 
        "ballesteros": "6.60", 
        "centrality_score": 0.18902015288394719, 
        "resname": "Ile"
    }, 
    {
        "resnum": 299, 
        "region_name": "EL", 
        "pymol": "/2RH1_eo_nohet//A/GLN`299/", 
        "ballesteros": "", 
        "centrality_score": 0.17582417582417584, 
        "resname": "Gln"
    }, 
    {
        "resnum": 300, 
        "region_name": "EL", 
        "pymol": "/2RH1_eo_nohet//A/ASP`300/", 
        "ballesteros": "", 
        "centrality_score": 0.17458279845956354, 
        "resname": "Asp"
    }, 
    {
        "resnum": 301, 
        "region_name": "EL", 
        "pymol": "/2RH1_eo_nohet//A/ASN`301/", 
        "ballesteros": "", 
        "centrality_score": 0.18591934381408065, 
        "resname": "Asn"
    }, 
    {
        "resnum": 302, 
        "region_name": "EL", 
        "pymol": "/2RH1_eo_nohet//A/LEU`302/", 
        "ballesteros": "", 
        "centrality_score": 0.18668496911461907, 
        "resname": "Leu"
    }, 
    {
        "resnum": 303, 
        "region_name": "EL", 
        "pymol": "/2RH1_eo_nohet//A/ILE`303/", 
        "ballesteros": "", 
        "centrality_score": 0.21864951768488747, 
        "resname": "Ile"
    }, 
    {
        "resnum": 304, 
        "region_name": "EL", 
        "pymol": "/2RH1_eo_nohet//A/ARG`304/", 
        "ballesteros": "", 
        "centrality_score": 0.19667389732465654, 
        "resname": "Arg"
    }, 
    {
        "resnum": 305, 
        "region_name": "TM", 
        "pymol": "/2RH1_eo_nohet//A/LYS`305/", 
        "ballesteros": "7.32", 
        "centrality_score": 0.20715917745620716, 
        "resname": "Lys"
    }, 
    {
        "resnum": 306, 
        "region_name": "TM", 
        "pymol": "/2RH1_eo_nohet//A/GLU`306/", 
        "ballesteros": "7.33", 
        "centrality_score": 0.19868517165814464, 
        "resname": "Glu"
    }, 
    {
        "resnum": 307, 
        "region_name": "TM", 
        "pymol": "/2RH1_eo_nohet//A/VAL`307/", 
        "ballesteros": "7.34", 
        "centrality_score": 0.21484992101105846, 
        "resname": "Val"
    }, 
    {
        "resnum": 308, 
        "region_name": "TM", 
        "pymol": "/2RH1_eo_nohet//A/TYR`308/", 
        "ballesteros": "7.35", 
        "centrality_score": 0.2379702537182852, 
        "resname": "Tyr"
    }, 
    {
        "resnum": 309, 
        "region_name": "TM", 
        "pymol": "/2RH1_eo_nohet//A/ILE`309/", 
        "ballesteros": "7.36", 
        "centrality_score": 0.23011844331641285, 
        "resname": "Ile"
    }, 
    {
        "resnum": 310, 
        "region_name": "TM", 
        "pymol": "/2RH1_eo_nohet//A/LEU`310/", 
        "ballesteros": "7.37", 
        "centrality_score": 0.21935483870967742, 
        "resname": "Leu"
    }, 
    {
        "resnum": 311, 
        "region_name": "TM", 
        "pymol": "/2RH1_eo_nohet//A/LEU`311/", 
        "ballesteros": "7.38", 
        "centrality_score": 0.24526600541027954, 
        "resname": "Leu"
    }, 
    {
        "resnum": 312, 
        "region_name": "TM", 
        "pymol": "/2RH1_eo_nohet//A/ASN`312/", 
        "ballesteros": "7.39", 
        "centrality_score": 0.2602870813397129, 
        "resname": "Asn"
    }, 
    {
        "resnum": 313, 
        "region_name": "TM", 
        "pymol": "/2RH1_eo_nohet//A/TRP`313/", 
        "ballesteros": "7.40", 
        "centrality_score": 0.24394618834080717, 
        "resname": "Trp"
    }, 
    {
        "resnum": 314, 
        "region_name": "TM", 
        "pymol": "/2RH1_eo_nohet//A/ILE`314/", 
        "ballesteros": "7.41", 
        "centrality_score": 0.24682395644283123, 
        "resname": "Ile"
    }, 
    {
        "resnum": 315, 
        "region_name": "TM", 
        "pymol": "/2RH1_eo_nohet//A/GLY`315/", 
        "ballesteros": "7.42", 
        "centrality_score": 0.25492033739456421, 
        "resname": "Gly"
    }, 
    {
        "resnum": 316, 
        "region_name": "TM", 
        "pymol": "/2RH1_eo_nohet//A/TYR`316/", 
        "ballesteros": "7.43", 
        "centrality_score": 0.28099173553719009, 
        "resname": "Tyr"
    }, 
    {
        "resnum": 317, 
        "region_name": "TM", 
        "pymol": "/2RH1_eo_nohet//A/VAL`317/", 
        "ballesteros": "7.44", 
        "centrality_score": 0.25515947467166977, 
        "resname": "Val"
    }, 
    {
        "resnum": 318, 
        "region_name": "TM", 
        "pymol": "/2RH1_eo_nohet//A/ASN`318/", 
        "ballesteros": "7.45", 
        "centrality_score": 0.26877470355731226, 
        "resname": "Asn"
    }, 
    {
        "resnum": 319, 
        "region_name": "TM", 
        "pymol": "/2RH1_eo_nohet//A/SER`319/", 
        "ballesteros": "7.46", 
        "centrality_score": 0.28215767634854771, 
        "resname": "Ser"
    }, 
    {
        "resnum": 320, 
        "region_name": "TM", 
        "pymol": "/2RH1_eo_nohet//A/GLY`320/", 
        "ballesteros": "7.47", 
        "centrality_score": 0.25636192271442038, 
        "resname": "Gly"
    }, 
    {
        "resnum": 321, 
        "region_name": "TM", 
        "pymol": "/2RH1_eo_nohet//A/PHE`321/", 
        "ballesteros": "7.48", 
        "centrality_score": 0.25904761904761903, 
        "resname": "Phe"
    }, 
    {
        "resnum": 322, 
        "region_name": "TM", 
        "pymol": "/2RH1_eo_nohet//A/ASN`322/", 
        "ballesteros": "7.49", 
        "centrality_score": 0.28186528497409324, 
        "resname": "Asn"
    }, 
    {
        "resnum": 323, 
        "region_name": "TM", 
        "pymol": "/2RH1_eo_nohet//A/PRO`323/", 
        "ballesteros": "7.50", 
        "centrality_score": 0.26640548481880511, 
        "resname": "Pro"
    }, 
    {
        "resnum": 324, 
        "region_name": "TM", 
        "pymol": "/2RH1_eo_nohet//A/LEU`324/", 
        "ballesteros": "7.51", 
        "centrality_score": 0.22895622895622897, 
        "resname": "Leu"
    }, 
    {
        "resnum": 325, 
        "region_name": "TM", 
        "pymol": "/2RH1_eo_nohet//A/ILE`325/", 
        "ballesteros": "7.52", 
        "centrality_score": 0.24548736462093862, 
        "resname": "Ile"
    }, 
    {
        "resnum": 326, 
        "region_name": "TM", 
        "pymol": "/2RH1_eo_nohet//A/TYR`326/", 
        "ballesteros": "7.53", 
        "centrality_score": 0.26356589147286824, 
        "resname": "Tyr"
    }, 
    {
        "resnum": 327, 
        "region_name": "TM", 
        "pymol": "/2RH1_eo_nohet//A/CYS`327/", 
        "ballesteros": "7.54", 
        "centrality_score": 0.23129251700680273, 
        "resname": "Cys"
    }, 
    {
        "resnum": 328, 
        "region_name": "TM", 
        "pymol": "/2RH1_eo_nohet//A/ARG`328/", 
        "ballesteros": "7.55", 
        "centrality_score": 0.2251655629139073, 
        "resname": "Arg"
    }, 
    {
        "resnum": 329, 
        "region_name": "H", 
        "pymol": "/2RH1_eo_nohet//A/SER`329/", 
        "ballesteros": "", 
        "centrality_score": 0.21673306772908366, 
        "resname": "Ser"
    }, 
    {
        "resnum": 330, 
        "region_name": "H", 
        "pymol": "/2RH1_eo_nohet//A/PRO`330/", 
        "ballesteros": "", 
        "centrality_score": 0.19373219373219372, 
        "resname": "Pro"
    }, 
    {
        "resnum": 331, 
        "region_name": "H", 
        "pymol": "/2RH1_eo_nohet//A/ASP`331/", 
        "ballesteros": "", 
        "centrality_score": 0.18810511756569848, 
        "resname": "Asp"
    }, 
    {
        "resnum": 332, 
        "region_name": "H", 
        "pymol": "/2RH1_eo_nohet//A/PHE`332/", 
        "ballesteros": "", 
        "centrality_score": 0.22350041084634348, 
        "resname": "Phe"
    }, 
    {
        "resnum": 333, 
        "region_name": "H", 
        "pymol": "/2RH1_eo_nohet//A/ARG`333/", 
        "ballesteros": "", 
        "centrality_score": 0.21794871794871795, 
        "resname": "Arg"
    }, 
    {
        "resnum": 334, 
        "region_name": "H", 
        "pymol": "/2RH1_eo_nohet//A/ILE`334/", 
        "ballesteros": "", 
        "centrality_score": 0.18707015130674004, 
        "resname": "Ile"
    }, 
    {
        "resnum": 335, 
        "region_name": "H", 
        "pymol": "/2RH1_eo_nohet//A/ALA`335/", 
        "ballesteros": "", 
        "centrality_score": 0.20283370618941088, 
        "resname": "Ala"
    }, 
    {
        "resnum": 336, 
        "region_name": "H", 
        "pymol": "/2RH1_eo_nohet//A/PHE`336/", 
        "ballesteros": "", 
        "centrality_score": 0.23448275862068965, 
        "resname": "Phe"
    }, 
    {
        "resnum": 337, 
        "region_name": "H", 
        "pymol": "/2RH1_eo_nohet//A/GLN`337/", 
        "ballesteros": "", 
        "centrality_score": 0.19724437998549674, 
        "resname": "Gln"
    }, 
    {
        "resnum": 338, 
        "region_name": "H", 
        "pymol": "/2RH1_eo_nohet//A/GLU`338/", 
        "ballesteros": "", 
        "centrality_score": 0.19667389732465654, 
        "resname": "Glu"
    }, 
    {
        "resnum": 339, 
        "region_name": "H", 
        "pymol": "/2RH1_eo_nohet//A/LEU`339/", 
        "ballesteros": "", 
        "centrality_score": 0.2016308376575241, 
        "resname": "Leu"
    }, 
    {
        "resnum": 340, 
        "region_name": "H", 
        "pymol": "/2RH1_eo_nohet//A/LEU`340/", 
        "ballesteros": "", 
        "centrality_score": 0.20389805097451275, 
        "resname": "Leu"
    }, 
    {
        "resnum": 341, 
        "region_name": "H", 
        "pymol": "/2RH1_eo_nohet//A/CYS`341/", 
        "ballesteros": "", 
        "centrality_score": 0.17447081462475947, 
        "resname": "Cys"
    }, 
    {
        "resnum": 342, 
        "region_name": "Ct", 
        "pymol": "/2RH1_eo_nohet//A/LEU`342/", 
        "ballesteros": "", 
        "centrality_score": 0.17424727738629084, 
        "resname": "Leu"
    }
]