pymol,resnum,resname,region_name,ballesteros,centrality_score
/3NYA_eo_nohet//A/TRP`32/,32,Trp,TM,1.32,0.162971839425
/3NYA_eo_nohet//A/VAL`33/,33,Val,TM,1.33,0.174919614148
/3NYA_eo_nohet//A/VAL`34/,34,Val,TM,1.34,0.167384615385
/3NYA_eo_nohet//A/GLY`35/,35,Gly,TM,1.35,0.176051779935
/3NYA_eo_nohet//A/MET`36/,36,Met,TM,1.36,0.192634560907
/3NYA_eo_nohet//A/GLY`37/,37,Gly,TM,1.37,0.18797512094
/3NYA_eo_nohet//A/ILE`38/,38,Ile,TM,1.38,0.17965653897
/3NYA_eo_nohet//A/VAL`39/,39,Val,TM,1.39,0.202682563338
/3NYA_eo_nohet//A/MET`40/,40,Met,TM,1.40,0.221859706362
/3NYA_eo_nohet//A/SER`41/,41,Ser,TM,1.41,0.199413489736
/3NYA_eo_nohet//A/LEU`42/,42,Leu,TM,1.42,0.209391839877
/3NYA_eo_nohet//A/ILE`43/,43,Ile,TM,1.43,0.247723132969
/3NYA_eo_nohet//A/VAL`44/,44,Val,TM,1.44,0.230118443316
/3NYA_eo_nohet//A/LEU`45/,45,Leu,TM,1.45,0.216216216216
/3NYA_eo_nohet//A/ALA`46/,46,Ala,TM,1.46,0.232677502139
/3NYA_eo_nohet//A/ILE`47/,47,Ile,TM,1.47,0.267190569745
/3NYA_eo_nohet//A/VAL`48/,48,Val,TM,1.48,0.234482758621
/3NYA_eo_nohet//A/PHE`49/,49,Phe,TM,1.49,0.212832550861
/3NYA_eo_nohet//A/GLY`50/,50,Gly,TM,1.50,0.230508474576
/3NYA_eo_nohet//A/ASN`51/,51,Asn,TM,1.51,0.262295081967
/3NYA_eo_nohet//A/VAL`52/,52,Val,TM,1.52,0.231096006797
/3NYA_eo_nohet//A/LEU`53/,53,Leu,TM,1.53,0.229149115417
/3NYA_eo_nohet//A/VAL`54/,54,Val,TM,1.54,0.248175182482
/3NYA_eo_nohet//A/ILE`55/,55,Ile,TM,1.55,0.245931283906
/3NYA_eo_nohet//A/THR`56/,56,Thr,TM,1.56,0.207633587786
/3NYA_eo_nohet//A/ALA`57/,57,Ala,TM,1.57,0.216733067729
/3NYA_eo_nohet//A/ILE`58/,58,Ile,TM,1.58,0.231489361702
/3NYA_eo_nohet//A/ALA`59/,59,Ala,TM,1.59,0.210200927357
/3NYA_eo_nohet//A/LYS`60/,60,Lys,TM,1.60,0.18797512094
/3NYA_eo_nohet//A/PHE`61/,61,Phe,IL,,0.194842406877
/3NYA_eo_nohet//A/GLU`62/,62,Glu,IL,,0.175937904269
/3NYA_eo_nohet//A/ARG`63/,63,Arg,IL,,0.182305630027
/3NYA_eo_nohet//A/LEU`64/,64,Leu,IL,,0.201183431953
/3NYA_eo_nohet//A/GLN`65/,65,Gln,IL,,0.205128205128
/3NYA_eo_nohet//A/THR`66/,66,Thr,IL,,0.205904617714
/3NYA_eo_nohet//A/VAL`67/,67,Val,TM,2.38,0.214173228346
/3NYA_eo_nohet//A/THR`68/,68,Thr,TM,2.39,0.230899830221
/3NYA_eo_nohet//A/ASN`69/,69,Asn,TM,2.40,0.226855713094
/3NYA_eo_nohet//A/TYR`70/,70,Tyr,TM,2.41,0.228187919463
/3NYA_eo_nohet//A/PHE`71/,71,Phe,TM,2.42,0.251386321627
/3NYA_eo_nohet//A/ILE`72/,72,Ile,TM,2.43,0.263056092843
/3NYA_eo_nohet//A/THR`73/,73,Thr,TM,2.44,0.241134751773
/3NYA_eo_nohet//A/SER`74/,74,Ser,TM,2.45,0.25855513308
/3NYA_eo_nohet//A/LEU`75/,75,Leu,TM,2.46,0.284221525601
/3NYA_eo_nohet//A/ALA`76/,76,Ala,TM,2.47,0.266405484819
/3NYA_eo_nohet//A/CYS`77/,77,Cys,TM,2.48,0.262295081967
/3NYA_eo_nohet//A/ALA`78/,78,Ala,TM,2.49,0.279835390947
/3NYA_eo_nohet//A/ASP`79/,79,Asp,TM,2.50,0.275582573455
/3NYA_eo_nohet//A/LEU`80/,80,Leu,TM,2.51,0.262548262548
/3NYA_eo_nohet//A/VAL`81/,81,Val,TM,2.52,0.267453294002
/3NYA_eo_nohet//A/MET`82/,82,Met,TM,2.53,0.281282316443
/3NYA_eo_nohet//A/GLY`83/,83,Gly,TM,2.54,0.253968253968
/3NYA_eo_nohet//A/LEU`84/,84,Leu,TM,2.55,0.249312557287
/3NYA_eo_nohet//A/ALA`85/,85,Ala,TM,2.56,0.245487364621
/3NYA_eo_nohet//A/VAL`86/,86,Val,TM,2.57,0.263565891473
/3NYA_eo_nohet//A/VAL`87/,87,Val,TM,2.58,0.254443405051
/3NYA_eo_nohet//A/PRO`88/,88,Pro,TM,2.59,0.23428079242
/3NYA_eo_nohet//A/PHE`89/,89,Phe,TM,2.60,0.243946188341
/3NYA_eo_nohet//A/GLY`90/,90,Gly,TM,2.61,0.252553389044
/3NYA_eo_nohet//A/ALA`91/,91,Ala,TM,2.62,0.224979321754
/3NYA_eo_nohet//A/ALA`92/,92,Ala,TM,2.63,0.2125
/3NYA_eo_nohet//A/HIS`93/,93,His,TM,2.64,0.232478632479
/3NYA_eo_nohet//A/ILE`94/,94,Ile,TM,2.65,0.222950819672
/3NYA_eo_nohet//A/LEU`95/,95,Leu,TM,2.66,0.195824334053
/3NYA_eo_nohet//A/MET`96/,96,Met,TM,2.67,0.186301369863
/3NYA_eo_nohet//A/LYS`97/,97,Lys,EL,,0.199706314244
/3NYA_eo_nohet//A/MET`98/,98,Met,EL,,0.192907801418
/3NYA_eo_nohet//A/TRP`99/,99,Trp,EL,,0.229149115417
/3NYA_eo_nohet//A/THR`100/,100,Thr,EL,,0.190877192982
/3NYA_eo_nohet//A/PHE`101/,101,Phe,EL,,0.210038610039
/3NYA_eo_nohet//A/GLY`102/,102,Gly,TM,3.21,0.200442151805
/3NYA_eo_nohet//A/ASN`103/,103,Asn,TM,3.22,0.203592814371
/3NYA_eo_nohet//A/PHE`104/,104,Phe,TM,3.23,0.199559794571
/3NYA_eo_nohet//A/TRP`105/,105,Trp,TM,3.24,0.231686541738
/3NYA_eo_nohet//A/CYS`106/,106,Cys,TM,3.25,0.224422442244
/3NYA_eo_nohet//A/GLU`107/,107,Glu,TM,3.26,0.215873015873
/3NYA_eo_nohet//A/PHE`108/,108,Phe,TM,3.27,0.231489361702
/3NYA_eo_nohet//A/TRP`109/,109,Trp,TM,3.28,0.268509378085
/3NYA_eo_nohet//A/THR`110/,110,Thr,TM,3.29,0.246376811594
/3NYA_eo_nohet//A/SER`111/,111,Ser,TM,3.30,0.238596491228
/3NYA_eo_nohet//A/ILE`112/,112,Ile,TM,3.31,0.257819905213
/3NYA_eo_nohet//A/ASP`113/,113,Asp,TM,3.32,0.277834525026
/3NYA_eo_nohet//A/VAL`114/,114,Val,TM,3.33,0.271186440678
/3NYA_eo_nohet//A/LEU`115/,115,Leu,TM,3.34,0.26103646833
/3NYA_eo_nohet//A/CYS`116/,116,Cys,TM,3.35,0.282157676349
/3NYA_eo_nohet//A/VAL`117/,117,Val,TM,3.36,0.28813559322
/3NYA_eo_nohet//A/THR`118/,118,Thr,TM,3.37,0.261790182868
/3NYA_eo_nohet//A/ALA`119/,119,Ala,TM,3.38,0.263310745402
/3NYA_eo_nohet//A/SER`120/,120,Ser,TM,3.39,0.285115303983
/3NYA_eo_nohet//A/ILE`121/,121,Ile,TM,3.40,0.269841269841
/3NYA_eo_nohet//A/TRP`122/,122,Trp,TM,3.41,0.258064516129
/3NYA_eo_nohet//A/THR`123/,123,Thr,TM,3.42,0.266405484819
/3NYA_eo_nohet//A/LEU`124/,124,Leu,TM,3.43,0.267453294002
/3NYA_eo_nohet//A/CYS`125/,125,Cys,TM,3.44,0.246600181324
/3NYA_eo_nohet//A/VAL`126/,126,Val,TM,3.45,0.248175182482
/3NYA_eo_nohet//A/ILE`127/,127,Ile,TM,3.46,0.265107212476
/3NYA_eo_nohet//A/ALA`128/,128,Ala,TM,3.47,0.236316246742
/3NYA_eo_nohet//A/VAL`129/,129,Val,TM,3.48,0.218649517685
/3NYA_eo_nohet//A/ASP`130/,130,Asp,TM,3.49,0.233076263925
/3NYA_eo_nohet//A/ARG`131/,131,Arg,TM,3.50,0.227615062762
/3NYA_eo_nohet//A/TYR`132/,132,Tyr,TM,3.51,0.204204204204
/3NYA_eo_nohet//A/PHE`133/,133,Phe,TM,3.52,0.197674418605
/3NYA_eo_nohet//A/ALA`134/,134,Ala,TM,3.53,0.198395331875
/3NYA_eo_nohet//A/ILE`135/,135,Ile,TM,3.54,0.193456614509
/3NYA_eo_nohet//A/THR`136/,136,Thr,TM,3.55,0.175257731959
/3NYA_eo_nohet//A/SER`137/,137,Ser,IL,,0.173690932312
/3NYA_eo_nohet//A/PRO`138/,138,Pro,IL,,0.167487684729
/3NYA_eo_nohet//A/PHE`139/,139,Phe,IL,,0.168108776267
/3NYA_eo_nohet//A/LYS`140/,140,Lys,IL,,0.170106316448
/3NYA_eo_nohet//A/TYR`141/,141,Tyr,IL,,0.192634560907
/3NYA_eo_nohet//A/GLN`142/,142,Gln,IL,,0.172151898734
/3NYA_eo_nohet//A/SER`143/,143,Ser,IL,,0.200147167035
/3NYA_eo_nohet//A/LEU`144/,144,Leu,IL,,0.195402298851
/3NYA_eo_nohet//A/LEU`145/,145,Leu,IL,,0.221318144833
/3NYA_eo_nohet//A/THR`146/,146,Thr,IL,,0.197674418605
/3NYA_eo_nohet//A/LYS`147/,147,Lys,TM,4.39,0.196958725561
/3NYA_eo_nohet//A/ASN`148/,148,Asn,TM,4.40,0.189283228949
/3NYA_eo_nohet//A/LYS`149/,149,Lys,TM,4.41,0.200147167035
/3NYA_eo_nohet//A/ALA`150/,150,Ala,TM,4.42,0.219178082192
/3NYA_eo_nohet//A/ARG`151/,151,Arg,TM,4.43,0.206373292868
/3NYA_eo_nohet//A/VAL`152/,152,Val,TM,4.44,0.205283018868
/3NYA_eo_nohet//A/ILE`153/,153,Ile,TM,4.45,0.227234753551
/3NYA_eo_nohet//A/ILE`154/,154,Ile,TM,4.46,0.244824482448
/3NYA_eo_nohet//A/LEU`155/,155,Leu,TM,4.47,0.222403924775
/3NYA_eo_nohet//A/MET`156/,156,Met,TM,4.48,0.215189873418
/3NYA_eo_nohet//A/VAL`157/,157,Val,TM,4.49,0.252085264133
/3NYA_eo_nohet//A/TRP`158/,158,Trp,TM,4.50,0.270109235353
/3NYA_eo_nohet//A/ILE`159/,159,Ile,TM,4.51,0.223868312757
/3NYA_eo_nohet//A/VAL`160/,160,Val,TM,4.52,0.230313293819
/3NYA_eo_nohet//A/SER`161/,161,Ser,TM,4.53,0.25
/3NYA_eo_nohet//A/GLY`162/,162,Gly,TM,4.54,0.233676975945
/3NYA_eo_nohet//A/LEU`163/,163,Leu,TM,4.55,0.220421393841
/3NYA_eo_nohet//A/THR`164/,164,Thr,TM,4.56,0.242857142857
/3NYA_eo_nohet//A/SER`165/,165,Ser,TM,4.57,0.241348713398
/3NYA_eo_nohet//A/PHE`166/,166,Phe,TM,4.58,0.233076263925
/3NYA_eo_nohet//A/LEU`167/,167,Leu,TM,4.59,0.202833706189
/3NYA_eo_nohet//A/PRO`168/,168,Pro,TM,4.60,0.217948717949
/3NYA_eo_nohet//A/ILE`169/,169,Ile,TM,4.61,0.233877901978
/3NYA_eo_nohet//A/GLN`170/,170,Gln,TM,4.62,0.210689388071
/3NYA_eo_nohet//A/MET`171/,171,Met,EL,,0.182795698925
/3NYA_eo_nohet//A/HIS`172/,172,His,EL,,0.198250728863
/3NYA_eo_nohet//A/TRP`173/,173,Trp,EL,,0.199559794571
/3NYA_eo_nohet//A/TYR`174/,174,Tyr,EL,,0.216216216216
/3NYA_eo_nohet//A/ARG`175/,175,Arg,EL,,0.194982078853
/3NYA_eo_nohet//A/ALA`176/,176,Ala,EL,,0.187586206897
/3NYA_eo_nohet//A/THR`177/,177,Thr,EL,,0.177314211213
/3NYA_eo_nohet//A/HIS`178/,178,His,EL,,0.184657162254
/3NYA_eo_nohet//A/GLN`179/,179,Gln,EL,,0.157589803013
/3NYA_eo_nohet//A/GLU`180/,180,Glu,EL,,0.181939799331
/3NYA_eo_nohet//A/ALA`181/,181,Ala,EL,,0.182672934856
/3NYA_eo_nohet//A/ILE`182/,182,Ile,EL,,0.166871165644
/3NYA_eo_nohet//A/ASN`183/,183,Asn,EL,,0.168734491315
/3NYA_eo_nohet//A/CYS`184/,184,Cys,EL,,0.199853049229
/3NYA_eo_nohet//A/TYR`185/,185,Tyr,EL,,0.196958725561
/3NYA_eo_nohet//A/ALA`186/,186,Ala,EL,,0.177545691906
/3NYA_eo_nohet//A/GLU`187/,187,Glu,EL,,0.178243774574
/3NYA_eo_nohet//A/GLU`188/,188,Glu,EL,,0.194563662375
/3NYA_eo_nohet//A/THR`189/,189,Thr,EL,,0.192771084337
/3NYA_eo_nohet//A/CYS`190/,190,Cys,EL,,0.204051012753
/3NYA_eo_nohet//A/CYS`191/,191,Cys,EL,,0.231686541738
/3NYA_eo_nohet//A/ASP`192/,192,Asp,EL,,0.223868312757
/3NYA_eo_nohet//A/PHE`193/,193,Phe,EL,,0.253968253968
/3NYA_eo_nohet//A/PHE`194/,194,Phe,EL,,0.219531880549
/3NYA_eo_nohet//A/THR`195/,195,Thr,EL,,0.215873015873
/3NYA_eo_nohet//A/ASN`196/,196,Asn,EL,,0.204051012753
/3NYA_eo_nohet//A/GLN`197/,197,Gln,TM,5.36,0.196248196248
/3NYA_eo_nohet//A/ALA`198/,198,Ala,TM,5.37,0.204511278195
/3NYA_eo_nohet//A/TYR`199/,199,Tyr,TM,5.38,0.237970253718
/3NYA_eo_nohet//A/ALA`200/,200,Ala,TM,5.39,0.22479338843
/3NYA_eo_nohet//A/ILE`201/,201,Ile,TM,5.40,0.209553158706
/3NYA_eo_nohet//A/ALA`202/,202,Ala,TM,5.41,0.220600162206
/3NYA_eo_nohet//A/SER`203/,203,Ser,TM,5.42,0.23590633131
/3NYA_eo_nohet//A/SER`204/,204,Ser,TM,5.43,0.247272727273
/3NYA_eo_nohet//A/ILE`205/,205,Ile,TM,5.44,0.219001610306
/3NYA_eo_nohet//A/VAL`206/,206,Val,TM,5.45,0.239647577093
/3NYA_eo_nohet//A/SER`207/,207,Ser,TM,5.46,0.264077669903
/3NYA_eo_nohet//A/PHE`208/,208,Phe,TM,5.47,0.270646766169
/3NYA_eo_nohet//A/TYR`209/,209,Tyr,TM,5.48,0.237554585153
/3NYA_eo_nohet//A/VAL`210/,210,Val,TM,5.49,0.227424749164
/3NYA_eo_nohet//A/PRO`211/,211,Pro,TM,5.50,0.247723132969
/3NYA_eo_nohet//A/LEU`212/,212,Leu,TM,5.51,0.238387379492
/3NYA_eo_nohet//A/VAL`213/,213,Val,TM,5.52,0.21935483871
/3NYA_eo_nohet//A/ILE`214/,214,Ile,TM,5.53,0.232876712329
/3NYA_eo_nohet//A/MET`215/,215,Met,TM,5.54,0.25855513308
/3NYA_eo_nohet//A/VAL`216/,216,Val,TM,5.55,0.228956228956
/3NYA_eo_nohet//A/PHE`217/,217,Phe,TM,5.56,0.207317073171
/3NYA_eo_nohet//A/VAL`218/,218,Val,TM,5.57,0.224979321754
/3NYA_eo_nohet//A/TYR`219/,219,Tyr,TM,5.58,0.234482758621
/3NYA_eo_nohet//A/SER`220/,220,Ser,TM,5.59,0.202682563338
/3NYA_eo_nohet//A/ARG`221/,221,Arg,TM,5.60,0.196673897325
/3NYA_eo_nohet//A/VAL`222/,222,Val,TM,5.61,0.204665161776
/3NYA_eo_nohet//A/PHE`223/,223,Phe,TM,5.62,0.202080237741
/3NYA_eo_nohet//A/GLN`224/,224,Gln,TM,5.63,0.175824175824
/3NYA_eo_nohet//A/GLU`225/,225,Glu,TM,5.64,0.181575433912
/3NYA_eo_nohet//A/ALA`226/,226,Ala,TM,5.65,0.186301369863
/3NYA_eo_nohet//A/LYS`227/,227,Lys,TM,5.66,0.173138128581
/3NYA_eo_nohet//A/LEU`266/,266,Leu,IL,,0.181454302869
/3NYA_eo_nohet//A/LYS`267/,267,Lys,TM,6.29,0.183659689399
/3NYA_eo_nohet//A/GLU`268/,268,Glu,TM,6.30,0.185792349727
/3NYA_eo_nohet//A/HIS`269/,269,His,TM,6.31,0.189811584089
/3NYA_eo_nohet//A/LYS`270/,270,Lys,TM,6.32,0.204051012753
/3NYA_eo_nohet//A/ALA`271/,271,Ala,TM,6.33,0.212168486739
/3NYA_eo_nohet//A/LEU`272/,272,Leu,TM,6.34,0.219886822959
/3NYA_eo_nohet//A/LYS`273/,273,Lys,TM,6.35,0.210526315789
/3NYA_eo_nohet//A/THR`274/,274,Thr,TM,6.36,0.240707964602
/3NYA_eo_nohet//A/LEU`275/,275,Leu,TM,6.37,0.255639097744
/3NYA_eo_nohet//A/GLY`276/,276,Gly,TM,6.38,0.231096006797
/3NYA_eo_nohet//A/ILE`277/,277,Ile,TM,6.39,0.238178633975
/3NYA_eo_nohet//A/ILE`278/,278,Ile,TM,6.40,0.285714285714
/3NYA_eo_nohet//A/MET`279/,279,Met,TM,6.41,0.264077669903
/3NYA_eo_nohet//A/GLY`280/,280,Gly,TM,6.42,0.243291592129
/3NYA_eo_nohet//A/THR`281/,281,Thr,TM,6.43,0.266928361138
/3NYA_eo_nohet//A/PHE`282/,282,Phe,TM,6.44,0.295331161781
/3NYA_eo_nohet//A/THR`283/,283,Thr,TM,6.45,0.25855513308
/3NYA_eo_nohet//A/LEU`284/,284,Leu,TM,6.46,0.245931283906
/3NYA_eo_nohet//A/CYS`285/,285,Cys,TM,6.47,0.265365853659
/3NYA_eo_nohet//A/TRP`286/,286,Trp,TM,6.48,0.290598290598
/3NYA_eo_nohet//A/LEU`287/,287,Leu,TM,6.49,0.250922509225
/3NYA_eo_nohet//A/PRO`288/,288,Pro,TM,6.50,0.248856358646
/3NYA_eo_nohet//A/PHE`289/,289,Phe,TM,6.51,0.253968253968
/3NYA_eo_nohet//A/PHE`290/,290,Phe,TM,6.52,0.26028708134
/3NYA_eo_nohet//A/ILE`291/,291,Ile,TM,6.53,0.22934232715
/3NYA_eo_nohet//A/VAL`292/,292,Val,TM,6.54,0.230703986429
/3NYA_eo_nohet//A/ASN`293/,293,Asn,TM,6.55,0.240282685512
/3NYA_eo_nohet//A/ILE`294/,294,Ile,TM,6.56,0.232081911263
/3NYA_eo_nohet//A/VAL`295/,295,Val,TM,6.57,0.206529992407
/3NYA_eo_nohet//A/HIS`296/,296,His,TM,6.58,0.217079010375
/3NYA_eo_nohet//A/VAL`297/,297,Val,TM,6.59,0.207159177456
/3NYA_eo_nohet//A/ILE`298/,298,Ile,TM,6.60,0.193456614509
/3NYA_eo_nohet//A/GLN`299/,299,Gln,EL,,0.181818181818
/3NYA_eo_nohet//A/ASP`300/,300,Asp,EL,,0.183041722746
/3NYA_eo_nohet//A/ASN`301/,301,Asn,EL,,0.174135723431
/3NYA_eo_nohet//A/LEU`302/,302,Leu,EL,,0.189944134078
/3NYA_eo_nohet//A/ILE`303/,303,Ile,EL,,0.203898050975
/3NYA_eo_nohet//A/ARG`304/,304,Arg,EL,,0.20029455081
/3NYA_eo_nohet//A/LYS`305/,305,Lys,TM,7.32,0.212666145426
/3NYA_eo_nohet//A/GLU`306/,306,Glu,TM,7.33,0.205283018868
/3NYA_eo_nohet//A/VAL`307/,307,Val,TM,7.34,0.223500410846
/3NYA_eo_nohet//A/TYR`308/,308,Tyr,TM,7.35,0.240070609003
/3NYA_eo_nohet//A/ILE`309/,309,Ile,TM,7.36,0.236316246742
/3NYA_eo_nohet//A/LEU`310/,310,Leu,TM,7.37,0.231489361702
/3NYA_eo_nohet//A/LEU`311/,311,Leu,TM,7.38,0.253494874185
/3NYA_eo_nohet//A/ASN`312/,312,Asn,TM,7.39,0.263310745402
/3NYA_eo_nohet//A/TRP`313/,313,Trp,TM,7.40,0.25
/3NYA_eo_nohet//A/ILE`314/,314,Ile,TM,7.41,0.255639097744
/3NYA_eo_nohet//A/GLY`315/,315,Gly,TM,7.42,0.268774703557
/3NYA_eo_nohet//A/TYR`316/,316,Tyr,TM,7.43,0.291532690247
/3NYA_eo_nohet//A/VAL`317/,317,Val,TM,7.44,0.263565891473
/3NYA_eo_nohet//A/ASN`318/,318,Asn,TM,7.45,0.290909090909
/3NYA_eo_nohet//A/SER`319/,319,Ser,TM,7.46,0.27868852459
/3NYA_eo_nohet//A/GLY`320/,320,Gly,TM,7.47,0.254920337395
/3NYA_eo_nohet//A/PHE`321/,321,Phe,TM,7.48,0.253494874185
/3NYA_eo_nohet//A/ASN`322/,322,Asn,TM,7.49,0.276703967447
/3NYA_eo_nohet//A/PRO`323/,323,Pro,TM,7.50,0.259789875836
/3NYA_eo_nohet//A/LEU`324/,324,Leu,TM,7.51,0.229149115417
/3NYA_eo_nohet//A/ILE`325/,325,Ile,TM,7.52,0.246153846154
/3NYA_eo_nohet//A/TYR`326/,326,Tyr,TM,7.53,0.259047619048
/3NYA_eo_nohet//A/CYS`327/,327,Cys,TM,7.54,0.230508474576
/3NYA_eo_nohet//A/ARG`328/,328,Arg,TM,7.55,0.225165562914
/3NYA_eo_nohet//A/SER`329/,329,Ser,H,,0.215360253365
/3NYA_eo_nohet//A/PRO`330/,330,Pro,H,,0.191414496833
/3NYA_eo_nohet//A/ASP`331/,331,Asp,H,,0.190476190476
/3NYA_eo_nohet//A/PHE`332/,332,Phe,H,,0.223868312757
/3NYA_eo_nohet//A/ARG`333/,333,Arg,H,,0.215360253365
/3NYA_eo_nohet//A/ILE`334/,334,Ile,H,,0.187070151307
/3NYA_eo_nohet//A/ALA`335/,335,Ala,H,,0.203136669156
/3NYA_eo_nohet//A/PHE`336/,336,Phe,H,,0.231686541738
/3NYA_eo_nohet//A/GLN`337/,337,Gln,H,,0.196958725561
/3NYA_eo_nohet//A/GLU`338/,338,Glu,H,,0.194563662375
/3NYA_eo_nohet//A/LEU`339/,339,Leu,H,,0.20133234641
/3NYA_eo_nohet//A/LEU`340/,340,Leu,H,,0.203745318352
/3NYA_eo_nohet//A/CYS`341/,341,Cys,H,,0.175597159458
/3NYA_eo_nohet//A/LEU`342/,342,Leu,Ct,,0.172043010753
